28.707021, 1511787953.913000, -8.310726e-11, 3.250771e-10
28.707021, 1511787953.913000, -1.064054e-10, 3.611098e-10
28.707021, 1511787953.913000, -9.923358e-11, 3.525144e-10
28.707021, 1511787953.913000, -4.887869e-10, 1.230218e-10
28.707021, 1511787953.913000, -3.762394e-10, 2.758803e-10
28.707021, 1511787953.913000, -2.660748e-10, 2.807566e-10
28.707021, 1511787953.913000, -2.515962e-10, 3.610137e-10
28.707021, 1511787953.923000, -1.509457e-10, 2.353718e-10
28.707021, 1511787953.923000, 3.494520e-12, 4.298666e-10
28.707021, 1511787953.923000, -1.751326e-11, 5.263678e-10
67.757507, 1511787992.787000, 4.430782e-11, -6.461151e-12
67.757507, 1511787992.787000, 1.016692e-10, 9.827152e-11
67.757507, 1511787992.787000, 8.612448e-11, 4.308753e-10
67.757507, 1511787992.797000, 6.165725e-11, 5.298100e-10
67.757507, 1511787992.797000, 5.563009e-11, 8.068828e-10
67.757507, 1511787992.797000, 1.749822e-10, 9.703616e-10
67.757507, 1511787992.797000, 1.519364e-10, 7.114811e-10
67.757507, 1511787992.797000, 2.214276e-10, 1.968715e-10
67.757507, 1511787992.797000, 2.644284e-10, -2.647811e-10
67.757507, 1511787992.797000, 2.494844e-10, -5.404875e-10
107.029381, 1511788032.404000, 1.135415e-10, 5.042613e-10
107.029381, 1511788032.404000, 2.539714e-10, 5.249762e-10
107.029381, 1511788032.404000, 1.995862e-10, 1.686372e-10
107.029381, 1511788032.404000, 1.900052e-10, 1.125153e-10
107.029381, 1511788032.414000, 7.670337e-11, 1.642384e-10
107.029381, 1511788032.414000, -1.765647e-10, 1.281648e-10
107.029381, 1511788032.414000, -2.999926e-10, -1.085147e-10
107.029381, 1511788032.414000, -2.449459e-10, 2.691960e-12
107.029381, 1511788032.414000, -1.968221e-10, -1.240988e-10
107.029381, 1511788032.414000, -6.816458e-11, -1.654525e-10
107.029381, 1511788032.414000, 1.135415e-10, 5.042613e-10
107.029381, 1511788032.414000, 2.539714e-10, 5.249762e-10
107.029381, 1511788032.414000, 1.995862e-10, 1.686372e-10
107.029381, 1511788032.414000, 1.900052e-10, 1.125153e-10
107.029381, 1511788032.414000, 7.670337e-11, 1.642384e-10
107.029381, 1511788032.414000, -1.765647e-10, 1.281648e-10
107.029381, 1511788032.414000, -2.999926e-10, -1.085147e-10
107.029381, 1511788032.424000, -2.449459e-10, 2.691960e-12
107.029381, 1511788032.424000, -1.968221e-10, -1.240988e-10
107.029381, 1511788032.424000, -6.816458e-11, -1.654525e-10
146.159206, 1511788071.364000, -2.688767e-11, 4.626377e-10
146.159206, 1511788071.364000, -1.096345e-11, 2.717581e-10
146.159206, 1511788071.364000, -1.172592e-10, 2.736473e-10
146.159206, 1511788071.364000, 1.014466e-10, 4.657625e-10
146.159206, 1511788071.364000, 2.614216e-11, 4.181102e-10
146.159206, 1511788071.364000, 6.391012e-11, 6.212375e-10
146.159206, 1511788071.364000, 1.925141e-10, 5.708793e-10
146.159206, 1511788071.364000, 1.463285e-10, 1.719566e-10
146.159206, 1511788071.364000, 2.421866e-11, -2.719819e-10
146.159206, 1511788071.374000, 5.151666e-11, -4.238031e-10
146.159206, 1511788071.374000, -2.688767e-11, 4.626377e-10
146.159206, 1511788071.374000, -1.096345e-11, 2.717581e-10
146.159206, 1511788071.374000, -1.172592e-10, 2.736473e-10
146.159206, 1511788071.374000, 1.014466e-10, 4.657625e-10
146.159206, 1511788071.374000, 2.614216e-11, 4.181102e-10
146.159206, 1511788071.374000, 6.391012e-11, 6.212375e-10
146.159206, 1511788071.374000, 1.925141e-10, 5.708793e-10
146.159206, 1511788071.374000, 1.463285e-10, 1.719566e-10
146.159206, 1511788071.374000, 2.421866e-11, -2.719819e-10
146.159206, 1511788071.374000, 5.151666e-11, -4.238031e-10
185.070141, 1511788110.372000, -1.381135e-11, 1.282860e-09
185.070141, 1511788110.372000, 1.577167e-10, 1.372507e-09
185.070141, 1511788110.372000, 1.689885e-11, 1.053771e-09
185.070141, 1511788110.372000, -1.098649e-10, 7.734942e-10
185.070141, 1511788110.372000, -9.008382e-11, 4.379377e-10
185.070141, 1511788110.372000, -4.593693e-11, -4.413283e-11
185.070141, 1511788110.372000, -1.001787e-11, -2.429650e-10
185.070141, 1511788110.372000, 1.175258e-10, -2.366510e-10
185.070141, 1511788110.382000, 2.051874e-10, -1.016096e-10
185.070141, 1511788110.382000, 5.522002e-11, -1.015437e-10
185.070141, 1511788110.382000, -1.381135e-11, 1.282860e-09
185.070141, 1511788110.382000, 1.577167e-10, 1.372507e-09
185.070141, 1511788110.382000, 1.689885e-11, 1.053771e-09
185.070141, 1511788110.382000, -1.098649e-10, 7.734942e-10
185.070141, 1511788110.382000, -9.008382e-11, 4.379377e-10
185.070141, 1511788110.382000, -4.593693e-11, -4.413283e-11
185.070141, 1511788110.382000, -1.001787e-11, -2.429650e-10
185.070141, 1511788110.382000, 1.175258e-10, -2.366510e-10
185.070141, 1511788110.382000, 2.051874e-10, -1.016096e-10
185.070141, 1511788110.382000, 5.522002e-11, -1.015437e-10
224.371671, 1511788149.354000, -1.939835e-11, 5.392920e-10
224.371671, 1511788149.354000, 4.617882e-12, 5.023292e-10
224.371671, 1511788149.354000, 1.508194e-10, -1.855810e-11
224.371671, 1511788149.354000, 2.115872e-10, -2.064591e-10
224.371671, 1511788149.354000, 1.378196e-10, -3.152175e-10
224.371671, 1511788149.354000, 1.642145e-10, -3.192059e-10
224.371671, 1511788149.354000, 8.210972e-11, -3.715740e-10
224.371671, 1511788149.354000, -1.736129e-10, 1.560398e-11
224.371671, 1511788149.354000, -2.577851e-10, -2.806710e-11
224.371671, 1511788149.354000, -1.698472e-10, 1.461667e-10
224.371671, 1511788149.364000, -1.939835e-11, 5.392920e-10
224.371671, 1511788149.364000, 4.617882e-12, 5.023292e-10
224.371671, 1511788149.364000, 1.508194e-10, -1.855810e-11
224.371671, 1511788149.364000, 2.115872e-10, -2.064591e-10
224.371671, 1511788149.364000, 1.378196e-10, -3.152175e-10
224.371671, 1511788149.364000, 1.642145e-10, -3.192059e-10
224.371671, 1511788149.364000, 8.210972e-11, -3.715740e-10
224.371671, 1511788149.364000, -1.736129e-10, 1.560398e-11
224.371671, 1511788149.364000, -2.577851e-10, -2.806710e-11
224.371671, 1511788149.364000, -1.698472e-10, 1.461667e-10
263.534551, 1511788188.875000, 6.910274e-11, 1.575681e-09
263.534551, 1511788188.875000, 1.428234e-10, 1.316743e-09
263.534551, 1511788188.875000, 1.147345e-10, 1.087956e-09
263.534551, 1511788188.875000, -5.462955e-11, 5.802071e-10
263.534551, 1511788188.875000, -4.939792e-11, 1.480435e-10
263.534551, 1511788188.875000, -8.904715e-11, -4.352880e-10
263.534551, 1511788188.875000, -5.255290e-11, -7.596650e-10
263.534551, 1511788188.875000, -1.798858e-11, -8.012002e-10
263.534551, 1511788188.875000, 8.217456e-11, -7.157923e-10
263.534551, 1511788188.875000, 8.969450e-11, -3.905325e-10
263.534551, 1511788188.875000, 6.910274e-11, 1.575681e-09
263.534551, 1511788188.875000, 1.428234e-10, 1.316743e-09
263.534551, 1511788188.875000, 1.147345e-10, 1.087956e-09
263.534551, 1511788188.885000, -5.462955e-11, 5.802071e-10
263.534551, 1511788188.885000, -4.939792e-11, 1.480435e-10
263.534551, 1511788188.885000, -8.904715e-11, -4.352880e-10
263.534551, 1511788188.885000, -5.255290e-11, -7.596650e-10
263.534551, 1511788188.885000, -1.798858e-11, -8.012002e-10
263.534551, 1511788188.885000, 8.217456e-11, -7.157923e-10
263.534551, 1511788188.885000, 8.969450e-11, -3.905325e-10
303.049605, 1511788228.457000, -1.393153e-11, 4.313117e-10
303.049605, 1511788228.457000, 4.550193e-11, 3.411304e-10
303.049605, 1511788228.457000, 1.621807e-10, 1.325071e-10
303.049605, 1511788228.457000, 2.058008e-10, 2.012041e-12
303.049605, 1511788228.457000, 1.367790e-10, -1.196703e-10
303.049605, 1511788228.457000, -3.444464e-11, -1.737940e-11
303.049605, 1511788228.457000, -1.177075e-10, 6.075805e-11
303.049605, 1511788228.457000, -1.303076e-10, 2.809874e-10
303.049605, 1511788228.457000, -6.607548e-11, 3.064104e-10
303.049605, 1511788228.457000, -8.903772e-11, 7.281250e-11
303.049605, 1511788228.457000, -1.393153e-11, 4.313117e-10
303.049605, 1511788228.467000, 4.550193e-11, 3.411304e-10
303.049605, 1511788228.467000, 1.621807e-10, 1.325071e-10
303.049605, 1511788228.467000, 2.058008e-10, 2.012041e-12
303.049605, 1511788228.467000, 1.367790e-10, -1.196703e-10
303.049605, 1511788228.467000, -3.444464e-11, -1.737940e-11
303.049605, 1511788228.467000, -1.177075e-10, 6.075805e-11
303.049605, 1511788228.467000, -1.303076e-10, 2.809874e-10
303.049605, 1511788228.467000, -6.607548e-11, 3.064104e-10
303.049605, 1511788228.467000, -8.903772e-11, 7.281250e-11
341.981635, 1511788266.859000, -3.359806e-11, 8.197970e-10
341.981635, 1511788266.859000, -6.283864e-11, 9.462684e-10
341.981635, 1511788266.859000, -1.472860e-11, 8.506858e-10
341.981635, 1511788266.859000, 1.223225e-10, 7.367912e-10
341.981635, 1511788266.859000, 8.688679e-11, 1.935163e-10
341.981635, 1511788266.859000, 1.825113e-10, -4.518077e-10
341.981635, 1511788266.869000, 2.298396e-10, -5.687291e-10
341.981635, 1511788266.869000, 1.849041e-10, -8.061149e-10
341.981635, 1511788266.869000, 5.805760e-11, -7.681281e-10
341.981635, 1511788266.869000, 7.354897e-11, -2.690064e-10
341.981635, 1511788266.869000, -3.359806e-11, 8.197970e-10
341.981635, 1511788266.869000, -6.283864e-11, 9.462684e-10
341.981635, 1511788266.869000, -1.472860e-11, 8.506858e-10
341.981635, 1511788266.869000, 1.223225e-10, 7.367912e-10
341.981635, 1511788266.869000, 8.688679e-11, 1.935163e-10
341.981635, 1511788266.869000, 1.825113e-10, -4.518077e-10
341.981635, 1511788266.869000, 2.298396e-10, -5.687291e-10
341.981635, 1511788266.869000, 1.849041e-10, -8.061149e-10
341.981635, 1511788266.869000, 5.805760e-11, -7.681281e-10
341.981635, 1511788266.869000, 7.354897e-11, -2.690064e-10
380.818883, 1511788305.801000, 5.885347e-12, 3.142996e-10
380.818883, 1511788305.801000, -5.453389e-11, 3.394018e-10
380.818883, 1511788305.801000, 2.257706e-11, 1.761360e-10
380.818883, 1511788305.801000, 6.870030e-11, 6.380206e-11
380.818883, 1511788305.801000, 3.396113e-11, 5.911329e-11
380.818883, 1511788305.801000, 1.649112e-10, 6.868710e-11
380.818883, 1511788305.801000, 4.644194e-11, 1.137311e-10
380.818883, 1511788305.801000, -5.045856e-11, 1.167026e-10
380.818883, 1511788305.811000, -2.285372e-11, 1.331958e-10
380.818883, 1511788305.811000, -6.799354e-11, -3.841363e-11
380.818883, 1511788305.811000, 5.885347e-12, 3.142996e-10
380.818883, 1511788305.811000, -5.453389e-11, 3.394018e-10
380.818883, 1511788305.811000, 2.257706e-11, 1.761360e-10
380.818883, 1511788305.811000, 6.870030e-11, 6.380206e-11
380.818883, 1511788305.811000, 3.396113e-11, 5.911329e-11
380.818883, 1511788305.811000, 1.649112e-10, 6.868710e-11
380.818883, 1511788305.811000, 4.644194e-11, 1.137311e-10
380.818883, 1511788305.811000, -5.045856e-11, 1.167026e-10
380.818883, 1511788305.811000, -2.285372e-11, 1.331958e-10
380.818883, 1511788305.811000, -6.799354e-11, -3.841363e-11
419.794985, 1511788344.862000, -2.977391e-10, 1.216398e-09
419.794985, 1511788344.862000, -1.855191e-10, 6.482332e-10
419.794985, 1511788344.862000, -1.021768e-10, -3.126269e-10
419.794985, 1511788344.862000, -3.960076e-12, -4.888197e-10
419.794985, 1511788344.862000, 1.357114e-11, -7.152005e-10
419.794985, 1511788344.862000, 3.561769e-11, -8.081024e-10
419.794985, 1511788344.862000, 6.811469e-11, -3.445932e-10
419.794985, 1511788344.862000, 1.076134e-11, 1.221222e-10
419.794985, 1511788344.862000, 7.021434e-11, 1.297461e-10
419.794985, 1511788344.872000, 1.963224e-11, 2.786471e-10
419.794985, 1511788344.872000, -2.977391e-10, 1.216398e-09
419.794985, 1511788344.872000, -1.855191e-10, 6.482332e-10
419.794985, 1511788344.872000, -1.021768e-10, -3.126269e-10
419.794985, 1511788344.872000, -3.960076e-12, -4.888197e-10
419.794985, 1511788344.872000, 1.357114e-11, -7.152005e-10
419.794985, 1511788344.872000, 3.561769e-11, -8.081024e-10
419.794985, 1511788344.872000, 6.811469e-11, -3.445932e-10
419.794985, 1511788344.872000, 1.076134e-11, 1.221222e-10
419.794985, 1511788344.872000, 7.021434e-11, 1.297461e-10
419.794985, 1511788344.872000, 1.963224e-11, 2.786471e-10
458.814996, 1511788383.873000, -3.203358e-10, 4.966999e-10
458.814996, 1511788383.873000, -5.076392e-11, 3.068919e-10
458.814996, 1511788383.873000, 1.576719e-10, 9.222786e-11
458.814996, 1511788383.873000, 2.529468e-10, 1.750931e-10
458.814996, 1511788383.883000, 3.482223e-10, -7.513553e-11
458.814996, 1511788383.883000, 3.603954e-10, 9.110458e-11
458.814996, 1511788383.883000, 2.845329e-12, 4.191471e-10
458.814996, 1511788383.883000, -6.892356e-11, 8.030688e-10
458.814996, 1511788383.883000, -1.425772e-10, 8.550041e-10
458.814996, 1511788383.883000, -1.846655e-10, 1.026596e-09
497.821000, 1511788422.854000, 1.470203e-11, 6.196753e-10
497.821000, 1511788422.854000, -2.717807e-12, 2.517559e-10
497.821000, 1511788422.854000, 1.293437e-11, -6.366543e-11
497.821000, 1511788422.854000, 1.368372e-10, -4.000277e-10
497.821000, 1511788422.854000, 8.602650e-13, -4.492966e-10
497.821000, 1511788422.854000, -7.017148e-11, -4.714997e-10
497.821000, 1511788422.854000, 1.988593e-13, -8.651086e-11
497.821000, 1511788422.864000, 2.112635e-11, 4.121171e-10
497.821000, 1511788422.864000, -6.412981e-11, 5.516424e-10
497.821000, 1511788422.864000, 1.847885e-11, 7.377371e-10
497.821000, 1511788422.864000, 1.470203e-11, 6.196753e-10
497.821000, 1511788422.864000, -2.717807e-12, 2.517559e-10
497.821000, 1511788422.864000, 1.293437e-11, -6.366543e-11
497.821000, 1511788422.864000, 1.368372e-10, -4.000277e-10
497.821000, 1511788422.864000, 8.602650e-13, -4.492966e-10
497.821000, 1511788422.864000, -7.017148e-11, -4.714997e-10
497.821000, 1511788422.864000, 1.988593e-13, -8.651086e-11
497.821000, 1511788422.864000, 2.112635e-11, 4.121171e-10
497.821000, 1511788422.864000, -6.412981e-11, 5.516424e-10
497.821000, 1511788422.864000, 1.847885e-11, 7.377371e-10
537.120236, 1511788462.396000, 5.126633e-11, 4.616091e-10
537.120236, 1511788462.396000, 3.562708e-11, 7.875526e-11
537.120236, 1511788462.396000, 3.652831e-11, -1.275226e-10
537.120236, 1511788462.396000, -3.306274e-12, -1.471854e-10
537.120236, 1511788462.396000, -3.971923e-11, 1.247273e-11
537.120236, 1511788462.396000, 4.347397e-11, 5.107618e-10
537.120236, 1511788462.406000, 9.094238e-12, 8.489132e-10
537.120236, 1511788462.406000, 4.568739e-12, 6.868415e-10
537.120236, 1511788462.406000, 1.234172e-11, 5.662883e-10
537.120236, 1511788462.406000, 5.155445e-11, 1.623656e-10
537.120236, 1511788462.406000, 5.126633e-11, 4.616091e-10
537.120236, 1511788462.406000, 3.562708e-11, 7.875526e-11
537.120236, 1511788462.406000, 3.652831e-11, -1.275226e-10
537.120236, 1511788462.406000, -3.306274e-12, -1.471854e-10
537.120236, 1511788462.406000, -3.971923e-11, 1.247273e-11
537.120236, 1511788462.406000, 4.347397e-11, 5.107618e-10
537.120236, 1511788462.406000, 9.094238e-12, 8.489132e-10
537.120236, 1511788462.406000, 4.568739e-12, 6.868415e-10
537.120236, 1511788462.406000, 1.234172e-11, 5.662883e-10
537.120236, 1511788462.406000, 5.155445e-11, 1.623656e-10
576.512041, 1511788501.357000, -7.977466e-11, 1.528026e-09
576.512041, 1511788501.367000, -8.838795e-11, 1.273209e-09
576.512041, 1511788501.367000, -2.274566e-10, 9.532284e-10
576.512041, 1511788501.367000, -7.412700e-11, 4.187636e-10
576.512041, 1511788501.367000, 5.693799e-11, 2.448018e-10
576.512041, 1511788501.367000, 2.298590e-11, -1.121475e-10
576.512041, 1511788501.367000, 4.659840e-11, -7.568052e-11
576.512041, 1511788501.367000, 6.319988e-11, 3.318846e-12
576.512041, 1511788501.367000, -1.036091e-10, 2.260238e-10
576.512041, 1511788501.367000, -5.089575e-11, -1.826639e-10
576.512041, 1511788501.367000, -7.977466e-11, 1.528026e-09
576.512041, 1511788501.367000, -8.838795e-11, 1.273209e-09
576.512041, 1511788501.367000, -2.274566e-10, 9.532284e-10
576.512041, 1511788501.367000, -7.412700e-11, 4.187636e-10
576.512041, 1511788501.367000, 5.693799e-11, 2.448018e-10
576.512041, 1511788501.377000, 2.298590e-11, -1.121475e-10
576.512041, 1511788501.377000, 4.659840e-11, -7.568052e-11
576.512041, 1511788501.377000, 6.319988e-11, 3.318846e-12
576.512041, 1511788501.377000, -1.036091e-10, 2.260238e-10
576.512041, 1511788501.377000, -5.089575e-11, -1.826639e-10
614.990725, 1511788539.863000, -2.634223e-10, 1.554993e-09
614.990725, 1511788539.863000, -6.221370e-11, 1.366385e-09
614.990725, 1511788539.863000, 2.094398e-11, 1.115555e-09
614.990725, 1511788539.863000, 1.621246e-10, 8.496715e-10
614.990725, 1511788539.873000, 2.641572e-10, 4.771380e-10
614.990725, 1511788539.873000, 2.286722e-10, 6.343668e-11
614.990725, 1511788539.873000, 1.089619e-10, 1.433526e-10
614.990725, 1511788539.873000, -1.061363e-12, 5.516532e-11
614.990725, 1511788539.873000, -6.018478e-11, -2.327933e-10
614.990725, 1511788539.873000, -1.542993e-10, -4.018895e-10
614.990725, 1511788539.873000, -2.634223e-10, 1.554993e-09
614.990725, 1511788539.873000, -6.221370e-11, 1.366385e-09
614.990725, 1511788539.873000, 2.094398e-11, 1.115555e-09
614.990725, 1511788539.873000, 1.621246e-10, 8.496715e-10
614.990725, 1511788539.873000, 2.641572e-10, 4.771380e-10
614.990725, 1511788539.873000, 2.286722e-10, 6.343668e-11
614.990725, 1511788539.873000, 1.089619e-10, 1.433526e-10
614.990725, 1511788539.873000, -1.061363e-12, 5.516532e-11
614.990725, 1511788539.883000, -6.018478e-11, -2.327933e-10
614.990725, 1511788539.883000, -1.542993e-10, -4.018895e-10
653.460972, 1511788578.374000, 1.980112e-10, 1.086027e-09
653.460972, 1511788578.374000, 1.565482e-10, 1.155958e-09
653.460972, 1511788578.374000, -1.491236e-10, 1.000886e-09
653.460972, 1511788578.374000, -9.813906e-12, 9.336594e-10
653.460972, 1511788578.374000, -5.773990e-11, 4.327738e-10
653.460972, 1511788578.374000, -9.814489e-11, 6.269152e-11
653.460972, 1511788578.374000, -3.285042e-11, -1.158736e-10
653.460972, 1511788578.374000, 7.864857e-11, -2.500029e-10
653.460972, 1511788578.384000, -4.209021e-11, -4.666790e-10
653.460972, 1511788578.384000, 2.794348e-11, -2.735153e-10
653.460972, 1511788578.384000, 1.980112e-10, 1.086027e-09
653.460972, 1511788578.384000, 1.565482e-10, 1.155958e-09
653.460972, 1511788578.384000, -1.491236e-10, 1.000886e-09
653.460972, 1511788578.384000, -9.813906e-12, 9.336594e-10
653.460972, 1511788578.384000, -5.773990e-11, 4.327738e-10
653.460972, 1511788578.384000, -9.814489e-11, 6.269152e-11
653.460972, 1511788578.384000, -3.285042e-11, -1.158736e-10
653.460972, 1511788578.384000, 7.864857e-11, -2.500029e-10
653.460972, 1511788578.384000, -4.209021e-11, -4.666790e-10
653.460972, 1511788578.384000, 2.794348e-11, -2.735153e-10
691.966116, 1511788616.825000, -1.883265e-10, 1.049617e-09
691.966116, 1511788616.835000, 1.921998e-11, 1.017178e-09
691.966116, 1511788616.835000, -5.753279e-12, 8.032035e-10
691.966116, 1511788616.835000, -1.263235e-10, 5.150388e-10
691.966116, 1511788616.835000, -6.170577e-11, 1.935472e-10
691.966116, 1511788616.835000, -8.333712e-11, -1.543923e-11
691.966116, 1511788616.835000, -1.560393e-10, -3.765849e-11
691.966116, 1511788616.835000, -9.510386e-11, -9.044446e-11
691.966116, 1511788616.835000, -5.230809e-11, 4.472053e-11
691.966116, 1511788616.835000, -1.201653e-11, -4.650386e-11
691.966116, 1511788616.835000, -1.883265e-10, 1.049617e-09
691.966116, 1511788616.835000, 1.921998e-11, 1.017178e-09
691.966116, 1511788616.835000, -5.753279e-12, 8.032035e-10
691.966116, 1511788616.835000, -1.263235e-10, 5.150388e-10
691.966116, 1511788616.835000, -6.170577e-11, 1.935472e-10
691.966116, 1511788616.845000, -8.333712e-11, -1.543923e-11
691.966116, 1511788616.845000, -1.560393e-10, -3.765849e-11
691.966116, 1511788616.845000, -9.510386e-11, -9.044446e-11
691.966116, 1511788616.845000, -5.230809e-11, 4.472053e-11
691.966116, 1511788616.845000, -1.201653e-11, -4.650386e-11
