28.111462, 1518699146.499000, , 
28.111462, 1518699146.499000, , 
28.111462, 1518699146.499000, , 
28.111462, 1518699146.499000, , 
28.111462, 1518699146.499000, , 
28.111462, 1518699146.499000, , 
28.111462, 1518699146.499000, , 
28.111462, 1518699146.499000, , 
28.111462, 1518699146.499000, , 
28.111462, 1518699146.509000, , 
28.111462, 1518699146.509000, , 
28.111462, 1518699146.509000, , 
28.111462, 1518699146.509000, , 
28.111462, 1518699146.509000, , 
28.111462, 1518699146.509000, , 
28.111462, 1518699146.509000, , 
28.111462, 1518699146.509000, , 
28.111462, 1518699146.509000, , 
28.111462, 1518699146.509000, , 
28.111462, 1518699146.509000, , 
67.224535, 1518699185.199000, , 
67.224535, 1518699185.199000, , 
67.224535, 1518699185.199000, , 
67.224535, 1518699185.199000, , 
67.224535, 1518699185.199000, , 
67.224535, 1518699185.199000, , 
67.224535, 1518699185.199000, , 
67.224535, 1518699185.199000, , 
67.224535, 1518699185.199000, , 
67.224535, 1518699185.199000, , 
67.224535, 1518699185.199000, , 
67.224535, 1518699185.199000, , 
67.224535, 1518699185.199000, , 
67.224535, 1518699185.199000, , 
67.224535, 1518699185.199000, , 
67.224535, 1518699185.209000, , 
67.224535, 1518699185.209000, , 
67.224535, 1518699185.209000, , 
67.224535, 1518699185.209000, , 
67.224535, 1518699185.209000, , 
106.468680, 1518699224.319000, , 
106.468680, 1518699224.329000, , 
106.468680, 1518699224.329000, , 
106.468680, 1518699224.329000, , 
106.468680, 1518699224.329000, , 
106.468680, 1518699224.329000, , 
106.468680, 1518699224.329000, , 
106.468680, 1518699224.329000, , 
106.468680, 1518699224.329000, , 
106.468680, 1518699224.329000, , 
145.431716, 1518699263.289000, , 
145.431716, 1518699263.289000, , 
145.431716, 1518699263.289000, , 
145.431716, 1518699263.289000, , 
145.431716, 1518699263.289000, , 
145.431716, 1518699263.289000, , 
145.431716, 1518699263.289000, , 
145.431716, 1518699263.289000, , 
145.431716, 1518699263.289000, , 
145.431716, 1518699263.299000, , 
184.199209, 1518699302.309000, , 
184.199209, 1518699302.309000, , 
184.199209, 1518699302.309000, , 
184.199209, 1518699302.309000, , 
184.199209, 1518699302.309000, , 
184.199209, 1518699302.319000, , 
184.199209, 1518699302.319000, , 
184.199209, 1518699302.319000, , 
184.199209, 1518699302.319000, , 
184.199209, 1518699302.319000, , 
223.585976, 1518699341.819000, , 
223.585976, 1518699341.829000, , 
223.585976, 1518699341.829000, , 
223.585976, 1518699341.829000, , 
223.585976, 1518699341.829000, , 
223.585976, 1518699341.829000, , 
223.585976, 1518699341.839000, , 
223.585976, 1518699341.839000, , 
223.585976, 1518699341.839000, , 
223.585976, 1518699341.839000, , 
223.585976, 1518699341.839000, , 
223.585976, 1518699341.839000, , 
223.585976, 1518699341.839000, , 
223.585976, 1518699341.839000, , 
223.585976, 1518699341.839000, , 
223.585976, 1518699341.839000, , 
223.585976, 1518699341.839000, , 
223.585976, 1518699341.839000, , 
223.585976, 1518699341.839000, , 
223.585976, 1518699341.839000, , 
263.129211, 1518699381.279000, , 
263.129211, 1518699381.279000, , 
263.129211, 1518699381.289000, , 
263.129211, 1518699381.289000, , 
263.129211, 1518699381.289000, , 
263.129211, 1518699381.289000, , 
263.129211, 1518699381.289000, , 
263.129211, 1518699381.289000, , 
263.129211, 1518699381.289000, , 
263.129211, 1518699381.289000, , 
263.129211, 1518699381.289000, , 
263.129211, 1518699381.289000, , 
263.129211, 1518699381.289000, , 
263.129211, 1518699381.289000, , 
263.129211, 1518699381.289000, , 
263.129211, 1518699381.299000, , 
263.129211, 1518699381.299000, , 
263.129211, 1518699381.299000, , 
263.129211, 1518699381.299000, , 
263.129211, 1518699381.299000, , 
302.377042, 1518699420.339000, , 
302.377042, 1518699420.339000, , 
302.377042, 1518699420.339000, , 
302.377042, 1518699420.339000, , 
302.377042, 1518699420.339000, , 
302.377042, 1518699420.339000, , 
302.377042, 1518699420.339000, , 
302.377042, 1518699420.339000, , 
302.377042, 1518699420.339000, , 
302.377042, 1518699420.339000, , 
302.377042, 1518699420.339000, , 
302.377042, 1518699420.339000, , 
302.377042, 1518699420.339000, , 
302.377042, 1518699420.339000, , 
302.377042, 1518699420.349000, , 
302.377042, 1518699420.349000, , 
302.377042, 1518699420.349000, , 
302.377042, 1518699420.349000, , 
302.377042, 1518699420.349000, , 
302.377042, 1518699420.349000, , 
341.588460, 1518699459.829000, , 
341.588460, 1518699459.829000, , 
341.588460, 1518699459.829000, , 
341.588460, 1518699459.829000, , 
341.588460, 1518699459.839000, , 
341.588460, 1518699459.839000, , 
341.588460, 1518699459.839000, , 
341.588460, 1518699459.839000, , 
341.588460, 1518699459.839000, , 
341.588460, 1518699459.839000, , 
341.588460, 1518699459.839000, , 
341.588460, 1518699459.839000, , 
341.588460, 1518699459.839000, , 
341.588460, 1518699459.839000, , 
341.588460, 1518699459.839000, , 
341.588460, 1518699459.839000, , 
341.588460, 1518699459.839000, , 
341.588460, 1518699459.849000, , 
341.588460, 1518699459.849000, , 
341.588460, 1518699459.849000, , 
380.836372, 1518699498.829000, , 
380.836372, 1518699498.829000, , 
380.836372, 1518699498.839000, , 
380.836372, 1518699498.839000, , 
380.836372, 1518699498.839000, , 
380.836372, 1518699498.839000, , 
380.836372, 1518699498.839000, , 
380.836372, 1518699498.839000, , 
380.836372, 1518699498.839000, , 
380.836372, 1518699498.839000, , 
380.836372, 1518699498.839000, , 
380.836372, 1518699498.839000, , 
380.836372, 1518699498.839000, , 
380.836372, 1518699498.839000, , 
380.836372, 1518699498.839000, , 
380.836372, 1518699498.849000, , 
380.836372, 1518699498.849000, , 
380.836372, 1518699498.849000, , 
380.836372, 1518699498.849000, , 
380.836372, 1518699498.849000, , 
419.664978, 1518699537.839000, , 
419.664978, 1518699537.839000, , 
419.664978, 1518699537.839000, , 
419.664978, 1518699537.849000, , 
419.664978, 1518699537.849000, , 
419.664978, 1518699537.849000, , 
419.664978, 1518699537.849000, , 
419.664978, 1518699537.849000, , 
419.664978, 1518699537.849000, , 
419.664978, 1518699537.849000, , 
458.839450, 1518699576.829000, , 
458.839450, 1518699576.829000, , 
458.839450, 1518699576.829000, , 
458.839450, 1518699576.829000, , 
458.839450, 1518699576.829000, , 
458.839450, 1518699576.829000, , 
458.839450, 1518699576.829000, , 
458.839450, 1518699576.829000, , 
458.839450, 1518699576.829000, , 
458.839450, 1518699576.839000, , 
458.839450, 1518699576.839000, , 
458.839450, 1518699576.839000, , 
458.839450, 1518699576.839000, , 
458.839450, 1518699576.839000, , 
458.839450, 1518699576.839000, , 
458.839450, 1518699576.839000, , 
458.839450, 1518699576.839000, , 
458.839450, 1518699576.839000, , 
458.839450, 1518699576.839000, , 
458.839450, 1518699576.839000, , 
497.895875, 1518699615.809000, , 
497.895875, 1518699615.809000, , 
497.895875, 1518699615.809000, , 
497.895875, 1518699615.819000, , 
497.895875, 1518699615.819000, , 
497.895875, 1518699615.819000, , 
497.895875, 1518699615.819000, , 
497.895875, 1518699615.819000, , 
497.895875, 1518699615.819000, , 
497.895875, 1518699615.819000, , 
497.895875, 1518699615.819000, , 
497.895875, 1518699615.819000, , 
497.895875, 1518699615.819000, , 
497.895875, 1518699615.819000, , 
497.895875, 1518699615.819000, , 
497.895875, 1518699615.819000, , 
497.895875, 1518699615.819000, , 
497.895875, 1518699615.829000, , 
497.895875, 1518699615.829000, , 
497.895875, 1518699615.829000, , 
536.864809, 1518699654.849000, , 
536.864809, 1518699654.849000, , 
536.864809, 1518699654.849000, , 
536.864809, 1518699654.849000, , 
536.864809, 1518699654.849000, , 
536.864809, 1518699654.849000, , 
536.864809, 1518699654.849000, , 
536.864809, 1518699654.849000, , 
536.864809, 1518699654.849000, , 
536.864809, 1518699654.849000, , 
536.864809, 1518699654.859000, , 
536.864809, 1518699654.859000, , 
536.864809, 1518699654.859000, , 
536.864809, 1518699654.859000, , 
536.864809, 1518699654.859000, , 
536.864809, 1518699654.859000, , 
536.864809, 1518699654.859000, , 
536.864809, 1518699654.859000, , 
536.864809, 1518699654.859000, , 
536.864809, 1518699654.859000, , 
577.123901, 1518699695.359000, , 
577.123901, 1518699695.369000, , 
577.123901, 1518699695.369000, , 
577.123901, 1518699695.369000, , 
577.123901, 1518699695.369000, , 
577.123901, 1518699695.369000, , 
577.123901, 1518699695.369000, , 
577.123901, 1518699695.369000, , 
577.123901, 1518699695.369000, , 
577.123901, 1518699695.369000, , 
577.123901, 1518699695.369000, , 
577.123901, 1518699695.369000, , 
577.123901, 1518699695.369000, , 
577.123901, 1518699695.369000, , 
577.123901, 1518699695.369000, , 
577.123901, 1518699695.379000, , 
577.123901, 1518699695.379000, , 
577.123901, 1518699695.379000, , 
577.123901, 1518699695.379000, , 
577.123901, 1518699695.379000, , 
616.146248, 1518699734.339000, , 
616.146248, 1518699734.339000, , 
616.146248, 1518699734.339000, , 
616.146248, 1518699734.339000, , 
616.146248, 1518699734.339000, , 
616.146248, 1518699734.339000, , 
616.146248, 1518699734.339000, , 
616.146248, 1518699734.339000, , 
616.146248, 1518699734.339000, , 
616.146248, 1518699734.339000, , 
616.146248, 1518699734.339000, , 
616.146248, 1518699734.349000, , 
616.146248, 1518699734.349000, , 
616.146248, 1518699734.349000, , 
616.146248, 1518699734.349000, , 
616.146248, 1518699734.349000, , 
616.146248, 1518699734.349000, , 
616.146248, 1518699734.349000, , 
616.146248, 1518699734.349000, , 
616.146248, 1518699734.349000, , 
655.059395, 1518699773.330000, , 
655.059395, 1518699773.330000, , 
655.059395, 1518699773.330000, , 
655.059395, 1518699773.330000, , 
655.059395, 1518699773.330000, , 
655.059395, 1518699773.330000, , 
655.059395, 1518699773.330000, , 
655.059395, 1518699773.330000, , 
655.059395, 1518699773.330000, , 
655.059395, 1518699773.330000, , 
655.059395, 1518699773.330000, , 
655.059395, 1518699773.330000, , 
655.059395, 1518699773.330000, , 
655.059395, 1518699773.340000, , 
655.059395, 1518699773.340000, , 
655.059395, 1518699773.340000, , 
655.059395, 1518699773.340000, , 
655.059395, 1518699773.340000, , 
655.059395, 1518699773.340000, , 
655.059395, 1518699773.340000, , 
693.970166, 1518699811.850000, , 
693.970166, 1518699811.850000, , 
693.970166, 1518699811.850000, , 
693.970166, 1518699811.850000, , 
693.970166, 1518699811.850000, , 
693.970166, 1518699811.850000, , 
693.970166, 1518699811.850000, , 
693.970166, 1518699811.850000, , 
693.970166, 1518699811.850000, , 
693.970166, 1518699811.850000, , 
732.500460, 1518699850.310000, , 
732.500460, 1518699850.310000, , 
732.500460, 1518699850.310000, , 
732.500460, 1518699850.310000, , 
732.500460, 1518699850.310000, , 
732.500460, 1518699850.310000, , 
732.500460, 1518699850.310000, , 
732.500460, 1518699850.310000, , 
732.500460, 1518699850.310000, , 
732.500460, 1518699850.310000, , 
732.500460, 1518699850.310000, , 
732.500460, 1518699850.310000, , 
732.500460, 1518699850.310000, , 
732.500460, 1518699850.310000, , 
732.500460, 1518699850.310000, , 
732.500460, 1518699850.320000, , 
732.500460, 1518699850.320000, , 
732.500460, 1518699850.320000, , 
732.500460, 1518699850.320000, , 
732.500460, 1518699850.320000, , 
771.011338, 1518699888.850000, , 
771.011338, 1518699888.850000, , 
771.011338, 1518699888.850000, , 
771.011338, 1518699888.850000, , 
771.011338, 1518699888.850000, , 
771.011338, 1518699888.850000, , 
771.011338, 1518699888.850000, , 
771.011338, 1518699888.850000, , 
771.011338, 1518699888.850000, , 
771.011338, 1518699888.860000, , 
771.011338, 1518699888.860000, , 
771.011338, 1518699888.860000, , 
771.011338, 1518699888.860000, , 
771.011338, 1518699888.860000, , 
771.011338, 1518699888.860000, , 
771.011338, 1518699888.860000, , 
771.011338, 1518699888.860000, , 
771.011338, 1518699888.860000, , 
771.011338, 1518699888.860000, , 
771.011338, 1518699888.860000, , 
809.544622, 1518699927.820000, , 
809.544622, 1518699927.820000, , 
809.544622, 1518699927.820000, , 
809.544622, 1518699927.820000, , 
809.544622, 1518699927.820000, , 
809.544622, 1518699927.830000, , 
809.544622, 1518699927.830000, , 
809.544622, 1518699927.830000, , 
809.544622, 1518699927.830000, , 
809.544622, 1518699927.830000, , 
809.544622, 1518699927.830000, , 
809.544622, 1518699927.830000, , 
809.544622, 1518699927.830000, , 
809.544622, 1518699927.830000, , 
809.544622, 1518699927.830000, , 
809.544622, 1518699927.830000, , 
809.544622, 1518699927.830000, , 
809.544622, 1518699927.830000, , 
809.544622, 1518699927.830000, , 
809.544622, 1518699927.830000, , 
848.491069, 1518699966.330000, , 
848.491069, 1518699966.330000, , 
848.491069, 1518699966.330000, , 
848.491069, 1518699966.330000, , 
848.491069, 1518699966.330000, , 
848.491069, 1518699966.330000, , 
848.491069, 1518699966.330000, , 
848.491069, 1518699966.330000, , 
848.491069, 1518699966.330000, , 
848.491069, 1518699966.330000, , 
848.491069, 1518699966.330000, , 
848.491069, 1518699966.330000, , 
848.491069, 1518699966.330000, , 
848.491069, 1518699966.340000, , 
848.491069, 1518699966.340000, , 
848.491069, 1518699966.340000, , 
848.491069, 1518699966.340000, , 
848.491069, 1518699966.340000, , 
848.491069, 1518699966.340000, , 
848.491069, 1518699966.340000, , 
886.980035, 1518700004.830000, , 
886.980035, 1518700004.830000, , 
886.980035, 1518700004.830000, , 
886.980035, 1518700004.830000, , 
886.980035, 1518700004.830000, , 
886.980035, 1518700004.830000, , 
886.980035, 1518700004.830000, , 
886.980035, 1518700004.840000, , 
886.980035, 1518700004.840000, , 
886.980035, 1518700004.840000, , 
886.980035, 1518700004.840000, , 
886.980035, 1518700004.840000, , 
886.980035, 1518700004.840000, , 
886.980035, 1518700004.840000, , 
886.980035, 1518700004.840000, , 
886.980035, 1518700004.840000, , 
886.980035, 1518700004.840000, , 
886.980035, 1518700004.840000, , 
886.980035, 1518700004.840000, , 
886.980035, 1518700004.840000, , 
925.570662, 1518700043.780000, , 
925.570662, 1518700043.780000, , 
925.570662, 1518700043.780000, , 
925.570662, 1518700043.780000, , 
925.570662, 1518700043.780000, , 
925.570662, 1518700043.780000, , 
925.570662, 1518700043.790000, , 
925.570662, 1518700043.790000, , 
925.570662, 1518700043.790000, , 
925.570662, 1518700043.790000, , 
925.570662, 1518700043.790000, , 
925.570662, 1518700043.790000, , 
925.570662, 1518700043.790000, , 
925.570662, 1518700043.790000, , 
925.570662, 1518700043.790000, , 
925.570662, 1518700043.790000, , 
925.570662, 1518700043.790000, , 
925.570662, 1518700043.790000, , 
925.570662, 1518700043.790000, , 
925.570662, 1518700043.790000, , 
964.432650, 1518700082.340000, , 
964.432650, 1518700082.340000, , 
964.432650, 1518700082.340000, , 
964.432650, 1518700082.340000, , 
964.432650, 1518700082.340000, , 
964.432650, 1518700082.350000, , 
964.432650, 1518700082.350000, , 
964.432650, 1518700082.350000, , 
964.432650, 1518700082.350000, , 
964.432650, 1518700082.350000, , 
964.432650, 1518700082.350000, , 
964.432650, 1518700082.350000, , 
964.432650, 1518700082.350000, , 
964.432650, 1518700082.350000, , 
964.432650, 1518700082.350000, , 
964.432650, 1518700082.350000, , 
964.432650, 1518700082.350000, , 
964.432650, 1518700082.350000, , 
964.432650, 1518700082.350000, , 
964.432650, 1518700082.360000, , 
1003.689861, 1518700121.880000, , 
1003.689861, 1518700121.880000, , 
1003.689861, 1518700121.880000, , 
1003.689861, 1518700121.880000, , 
1003.689861, 1518700121.880000, , 
1003.689861, 1518700121.880000, , 
1003.689861, 1518700121.880000, , 
1003.689861, 1518700121.880000, , 
1003.689861, 1518700121.880000, , 
1003.689861, 1518700121.890000, , 
1003.689861, 1518700121.890000, , 
1003.689861, 1518700121.890000, , 
1003.689861, 1518700121.890000, , 
1003.689861, 1518700121.890000, , 
1003.689861, 1518700121.890000, , 
1003.689861, 1518700121.890000, , 
1003.689861, 1518700121.890000, , 
1003.689861, 1518700121.890000, , 
1003.689861, 1518700121.890000, , 
1003.689861, 1518700121.890000, , 
1043.120415, 1518700161.370000, , 
1043.120415, 1518700161.370000, , 
1043.120415, 1518700161.370000, , 
1043.120415, 1518700161.370000, , 
1043.120415, 1518700161.370000, , 
1043.120415, 1518700161.370000, , 
1043.120415, 1518700161.370000, , 
1043.120415, 1518700161.370000, , 
1043.120415, 1518700161.370000, , 
1043.120415, 1518700161.370000, , 
1043.120415, 1518700161.370000, , 
1043.120415, 1518700161.380000, , 
1043.120415, 1518700161.380000, , 
1043.120415, 1518700161.380000, , 
1043.120415, 1518700161.380000, , 
1043.120415, 1518700161.380000, , 
1043.120415, 1518700161.380000, , 
1043.120415, 1518700161.380000, , 
1043.120415, 1518700161.380000, , 
1043.120415, 1518700161.380000, , 
1082.598646, 1518700200.870000, , 
1082.598646, 1518700200.870000, , 
1082.598646, 1518700200.870000, , 
1082.598646, 1518700200.870000, , 
1082.598646, 1518700200.870000, , 
1082.598646, 1518700200.870000, , 
1082.598646, 1518700200.870000, , 
1082.598646, 1518700200.870000, , 
1082.598646, 1518700200.870000, , 
1082.598646, 1518700200.880000, , 
1082.598646, 1518700200.880000, , 
1082.598646, 1518700200.880000, , 
1082.598646, 1518700200.880000, , 
1082.598646, 1518700200.880000, , 
1082.598646, 1518700200.880000, , 
1082.598646, 1518700200.880000, , 
1082.598646, 1518700200.880000, , 
1082.598646, 1518700200.880000, , 
1082.598646, 1518700200.880000, , 
1082.598646, 1518700200.880000, , 
1122.120950, 1518700240.400000, , 
1122.120950, 1518700240.400000, , 
1122.120950, 1518700240.400000, , 
1122.120950, 1518700240.400000, , 
1122.120950, 1518700240.400000, , 
1122.120950, 1518700240.400000, , 
1122.120950, 1518700240.400000, , 
1122.120950, 1518700240.400000, , 
1122.120950, 1518700240.410000, , 
1122.120950, 1518700240.410000, , 
1122.120950, 1518700240.410000, , 
1122.120950, 1518700240.410000, , 
1122.120950, 1518700240.410000, , 
1122.120950, 1518700240.410000, , 
1122.120950, 1518700240.410000, , 
1122.120950, 1518700240.410000, , 
1122.120950, 1518700240.410000, , 
1122.120950, 1518700240.410000, , 
1122.120950, 1518700240.410000, , 
1122.120950, 1518700240.410000, , 
1161.635676, 1518700279.800000, , 
1161.635676, 1518700279.800000, , 
1161.635676, 1518700279.800000, , 
1161.635676, 1518700279.800000, , 
1161.635676, 1518700279.800000, , 
1161.635676, 1518700279.800000, , 
1161.635676, 1518700279.800000, , 
1161.635676, 1518700279.800000, , 
1161.635676, 1518700279.810000, , 
1161.635676, 1518700279.810000, , 
1161.635676, 1518700279.810000, , 
1161.635676, 1518700279.810000, , 
1161.635676, 1518700279.810000, , 
1161.635676, 1518700279.810000, , 
1161.635676, 1518700279.810000, , 
1161.635676, 1518700279.810000, , 
1161.635676, 1518700279.810000, , 
1161.635676, 1518700279.810000, , 
1161.635676, 1518700279.810000, , 
1161.635676, 1518700279.810000, , 
1201.121444, 1518700319.370000, , 
1201.121444, 1518700319.370000, , 
1201.121444, 1518700319.370000, , 
1201.121444, 1518700319.370000, , 
1201.121444, 1518700319.370000, , 
1201.121444, 1518700319.370000, , 
1201.121444, 1518700319.370000, , 
1201.121444, 1518700319.370000, , 
1201.121444, 1518700319.370000, , 
1201.121444, 1518700319.370000, , 
1201.121444, 1518700319.380000, , 
1201.121444, 1518700319.380000, , 
1201.121444, 1518700319.380000, , 
1201.121444, 1518700319.380000, , 
1201.121444, 1518700319.380000, , 
1201.121444, 1518700319.380000, , 
1201.121444, 1518700319.380000, , 
1201.121444, 1518700319.380000, , 
1201.121444, 1518700319.380000, , 
1201.121444, 1518700319.380000, , 
