28.354888, 1512494097.819000, -2.905148e-11, -4.647053e-11
28.354888, 1512494097.819000, -3.538972e-11, -6.481065e-11
28.354888, 1512494097.819000, -4.130271e-11, -1.876580e-11
28.354888, 1512494097.819000, -6.727065e-12, -2.664574e-11
28.354888, 1512494097.819000, 1.916728e-11, 4.283108e-11
28.354888, 1512494097.819000, -1.650363e-11, 3.055752e-11
28.354888, 1512494097.819000, 4.557294e-12, 2.071208e-11
28.354888, 1512494097.819000, -1.088076e-11, -2.237066e-11
28.354888, 1512494097.819000, -3.125245e-11, -1.437863e-11
28.354888, 1512494097.829000, 5.061156e-11, -3.760073e-11
28.354888, 1512494097.829000, -2.905148e-11, -4.647053e-11
28.354888, 1512494097.829000, -3.538972e-11, -6.481065e-11
28.354888, 1512494097.829000, -4.130271e-11, -1.876580e-11
28.354888, 1512494097.829000, -6.727065e-12, -2.664574e-11
28.354888, 1512494097.829000, 1.916728e-11, 4.283108e-11
28.354888, 1512494097.829000, -1.650363e-11, 3.055752e-11
28.354888, 1512494097.829000, 4.557294e-12, 2.071208e-11
28.354888, 1512494097.829000, -1.088076e-11, -2.237066e-11
28.354888, 1512494097.829000, -3.125245e-11, -1.437863e-11
28.354888, 1512494097.829000, 5.061156e-11, -3.760073e-11
67.131965, 1512494136.631000, -8.812920e-11, -3.918961e-11
67.131965, 1512494136.631000, 2.182091e-11, -2.095878e-11
67.131965, 1512494136.631000, 5.944713e-11, 1.846472e-11
67.131965, 1512494136.641000, 7.301037e-11, 8.191131e-11
67.131965, 1512494136.641000, 1.409496e-10, 1.540047e-10
67.131965, 1512494136.641000, 1.005583e-10, 2.187187e-10
67.131965, 1512494136.641000, -1.221379e-11, 1.838897e-10
67.131965, 1512494136.641000, -1.235016e-11, 2.262521e-10
67.131965, 1512494136.641000, -1.075542e-10, 6.075207e-10
67.131965, 1512494136.641000, -1.129194e-10, 8.766187e-10
105.929646, 1512494175.272000, -7.324059e-11, 3.141093e-10
105.929646, 1512494175.272000, -7.340859e-12, 3.002783e-10
105.929646, 1512494175.272000, 9.537027e-11, 2.621354e-10
105.929646, 1512494175.272000, 1.551760e-10, 1.065637e-10
105.929646, 1512494175.272000, 1.844716e-10, 8.797506e-12
105.929646, 1512494175.272000, 1.058121e-10, 1.541232e-10
105.929646, 1512494175.282000, -3.655217e-11, 1.356661e-10
105.929646, 1512494175.282000, -1.559224e-10, 8.957103e-11
105.929646, 1512494175.282000, -1.924370e-10, 1.475234e-10
105.929646, 1512494175.282000, -1.930937e-10, 8.714264e-11
105.929646, 1512494175.282000, -7.324059e-11, 3.141093e-10
105.929646, 1512494175.282000, -7.340859e-12, 3.002783e-10
105.929646, 1512494175.282000, 9.537027e-11, 2.621354e-10
105.929646, 1512494175.282000, 1.551760e-10, 1.065637e-10
105.929646, 1512494175.282000, 1.844716e-10, 8.797506e-12
105.929646, 1512494175.282000, 1.058121e-10, 1.541232e-10
105.929646, 1512494175.282000, -3.655217e-11, 1.356661e-10
105.929646, 1512494175.282000, -1.559224e-10, 8.957103e-11
105.929646, 1512494175.282000, -1.924370e-10, 1.475234e-10
105.929646, 1512494175.282000, -1.930937e-10, 8.714264e-11
144.533955, 1512494214.243000, 9.368262e-11, 2.965464e-10
144.533955, 1512494214.243000, 3.050023e-11, 2.983031e-10
144.533955, 1512494214.243000, 3.389613e-11, 3.232516e-10
144.533955, 1512494214.243000, -2.869467e-11, 2.419612e-10
144.533955, 1512494214.243000, -4.805757e-11, 1.770912e-10
144.533955, 1512494214.243000, -8.973019e-11, 2.922299e-10
144.533955, 1512494214.243000, -5.413706e-11, 4.859991e-10
144.533955, 1512494214.243000, -8.045645e-11, 4.741253e-10
144.533955, 1512494214.253000, -3.456196e-11, 7.926828e-10
144.533955, 1512494214.253000, 1.180543e-11, 7.852077e-10
183.038894, 1512494252.754000, -2.861867e-11, 1.248574e-10
183.038894, 1512494252.754000, -4.742524e-12, 3.466831e-11
183.038894, 1512494252.754000, 2.690532e-11, -7.133386e-11
183.038894, 1512494252.754000, 2.971295e-11, -1.203523e-10
183.038894, 1512494252.764000, 5.351519e-11, -1.537599e-10
183.038894, 1512494252.764000, 4.966216e-11, -1.263131e-10
183.038894, 1512494252.764000, 2.573913e-11, -3.654068e-11
183.038894, 1512494252.764000, -9.692106e-11, 3.480116e-11
183.038894, 1512494252.764000, -7.707546e-11, 5.373801e-11
183.038894, 1512494252.764000, -4.551249e-11, 8.509906e-11
183.038894, 1512494252.764000, -2.861867e-11, 1.248574e-10
183.038894, 1512494252.764000, -4.742524e-12, 3.466831e-11
183.038894, 1512494252.764000, 2.690532e-11, -7.133386e-11
183.038894, 1512494252.764000, 2.971295e-11, -1.203523e-10
183.038894, 1512494252.764000, 5.351519e-11, -1.537599e-10
183.038894, 1512494252.764000, 4.966216e-11, -1.263131e-10
183.038894, 1512494252.764000, 2.573913e-11, -3.654068e-11
183.038894, 1512494252.764000, -9.692106e-11, 3.480116e-11
183.038894, 1512494252.774000, -7.707546e-11, 5.373801e-11
183.038894, 1512494252.774000, -4.551249e-11, 8.509906e-11
221.605765, 1512494291.275000, -6.162635e-11, 5.532496e-10
221.605765, 1512494291.275000, -6.761625e-11, 3.960568e-10
221.605765, 1512494291.275000, 2.105268e-12, 2.703922e-10
221.605765, 1512494291.275000, -9.088829e-12, -3.016180e-11
221.605765, 1512494291.285000, -3.397284e-11, -3.760636e-10
221.605765, 1512494291.285000, -6.104275e-11, -4.046811e-10
221.605765, 1512494291.285000, -3.771423e-11, -3.561473e-10
221.605765, 1512494291.285000, -5.796124e-11, -3.000954e-10
221.605765, 1512494291.285000, -4.991815e-12, -6.480924e-11
221.605765, 1512494291.285000, 2.055169e-11, 1.746829e-10
221.605765, 1512494291.285000, -6.162635e-11, 5.532496e-10
221.605765, 1512494291.285000, -6.761625e-11, 3.960568e-10
221.605765, 1512494291.285000, 2.105268e-12, 2.703922e-10
221.605765, 1512494291.285000, -9.088829e-12, -3.016180e-11
221.605765, 1512494291.285000, -3.397284e-11, -3.760636e-10
221.605765, 1512494291.285000, -6.104275e-11, -4.046811e-10
221.605765, 1512494291.285000, -3.771423e-11, -3.561473e-10
221.605765, 1512494291.285000, -5.796124e-11, -3.000954e-10
221.605765, 1512494291.295000, -4.991815e-12, -6.480924e-11
221.605765, 1512494291.295000, 2.055169e-11, 1.746829e-10
260.200980, 1512494329.777000, 4.456054e-11, 2.505197e-10
260.200980, 1512494329.777000, 2.948539e-11, 3.116905e-10
260.200980, 1512494329.777000, 6.040056e-11, 3.431994e-10
260.200980, 1512494329.777000, -3.572639e-12, 3.619288e-10
260.200980, 1512494329.777000, -1.840797e-11, 2.649089e-10
260.200980, 1512494329.777000, 2.509664e-11, -3.845839e-12
260.200980, 1512494329.777000, 4.563622e-11, -8.392816e-11
260.200980, 1512494329.777000, 8.988294e-11, -2.272476e-10
260.200980, 1512494329.777000, 1.614534e-11, -3.506625e-10
260.200980, 1512494329.787000, -9.137235e-12, -3.669969e-10
260.200980, 1512494329.787000, 4.456054e-11, 2.505197e-10
260.200980, 1512494329.787000, 2.948539e-11, 3.116905e-10
260.200980, 1512494329.787000, 6.040056e-11, 3.431994e-10
260.200980, 1512494329.787000, -3.572639e-12, 3.619288e-10
260.200980, 1512494329.787000, -1.840797e-11, 2.649089e-10
260.200980, 1512494329.787000, 2.509664e-11, -3.845839e-12
260.200980, 1512494329.787000, 4.563622e-11, -8.392816e-11
260.200980, 1512494329.787000, 8.988294e-11, -2.272476e-10
260.200980, 1512494329.787000, 1.614534e-11, -3.506625e-10
260.200980, 1512494329.787000, -9.137235e-12, -3.669969e-10
298.885693, 1512494368.258000, 5.182932e-11, 1.065799e-10
298.885693, 1512494368.258000, 6.971125e-11, 1.619508e-10
298.885693, 1512494368.258000, 3.025151e-11, 1.744185e-10
298.885693, 1512494368.258000, 4.428816e-12, 1.382965e-10
298.885693, 1512494368.258000, -3.582036e-11, 1.542529e-10
298.885693, 1512494368.258000, -9.889791e-12, 4.841556e-11
298.885693, 1512494368.258000, -8.482479e-11, -3.503510e-11
298.885693, 1512494368.268000, -6.120201e-11, -1.851903e-11
298.885693, 1512494368.268000, -5.724083e-11, 5.688461e-11
298.885693, 1512494368.268000, -3.785020e-11, 5.799254e-11
298.885693, 1512494368.268000, 5.182932e-11, 1.065799e-10
298.885693, 1512494368.268000, 6.971125e-11, 1.619508e-10
298.885693, 1512494368.268000, 3.025151e-11, 1.744185e-10
298.885693, 1512494368.268000, 4.428816e-12, 1.382965e-10
298.885693, 1512494368.268000, -3.582036e-11, 1.542529e-10
298.885693, 1512494368.268000, -9.889791e-12, 4.841556e-11
298.885693, 1512494368.268000, -8.482479e-11, -3.503510e-11
298.885693, 1512494368.268000, -6.120201e-11, -1.851903e-11
298.885693, 1512494368.268000, -5.724083e-11, 5.688461e-11
298.885693, 1512494368.268000, -3.785020e-11, 5.799254e-11
337.365975, 1512494406.760000, 2.032569e-11, 1.826460e-10
337.365975, 1512494406.760000, 2.673455e-11, 1.801397e-10
337.365975, 1512494406.760000, -4.801427e-11, 1.114813e-10
337.365975, 1512494406.760000, -2.245298e-11, 4.454621e-11
337.365975, 1512494406.760000, -1.877671e-11, -3.510020e-11
337.365975, 1512494406.760000, -1.873784e-11, -1.716682e-10
337.365975, 1512494406.760000, -2.360683e-11, -1.379270e-10
337.365975, 1512494406.760000, -2.278929e-12, -1.426925e-10
337.365975, 1512494406.760000, 3.233193e-11, -9.252149e-11
337.365975, 1512494406.760000, 2.429317e-11, 6.137129e-11
337.365975, 1512494406.760000, 2.032569e-11, 1.826460e-10
337.365975, 1512494406.760000, 2.673455e-11, 1.801397e-10
337.365975, 1512494406.770000, -4.801427e-11, 1.114813e-10
337.365975, 1512494406.770000, -2.245298e-11, 4.454621e-11
337.365975, 1512494406.770000, -1.877671e-11, -3.510020e-11
337.365975, 1512494406.770000, -1.873784e-11, -1.716682e-10
337.365975, 1512494406.770000, -2.360683e-11, -1.379270e-10
337.365975, 1512494406.770000, -2.278929e-12, -1.426925e-10
337.365975, 1512494406.770000, 3.233193e-11, -9.252149e-11
337.365975, 1512494406.770000, 2.429317e-11, 6.137129e-11
375.605494, 1512494445.331000, -5.626610e-11, 1.096584e-10
375.605494, 1512494445.331000, -2.751617e-12, 1.123917e-10
375.605494, 1512494445.331000, -6.126512e-12, 1.028605e-10
375.605494, 1512494445.331000, 5.700423e-11, -2.403011e-11
375.605494, 1512494445.331000, 1.023176e-10, -1.723287e-11
375.605494, 1512494445.331000, 1.159499e-10, -3.534842e-11
375.605494, 1512494445.331000, 1.401649e-10, -2.694543e-11
375.605494, 1512494445.331000, 7.216744e-11, -5.188058e-11
375.605494, 1512494445.331000, -4.116044e-12, -4.740800e-11
375.605494, 1512494445.331000, -5.705185e-11, -8.286662e-11
375.605494, 1512494445.331000, -5.626610e-11, 1.096584e-10
375.605494, 1512494445.341000, -2.751617e-12, 1.123917e-10
375.605494, 1512494445.341000, -6.126512e-12, 1.028605e-10
375.605494, 1512494445.341000, 5.700423e-11, -2.403011e-11
375.605494, 1512494445.341000, 1.023176e-10, -1.723287e-11
375.605494, 1512494445.341000, 1.159499e-10, -3.534842e-11
375.605494, 1512494445.341000, 1.401649e-10, -2.694543e-11
375.605494, 1512494445.341000, 7.216744e-11, -5.188058e-11
375.605494, 1512494445.341000, -4.116044e-12, -4.740800e-11
375.605494, 1512494445.341000, -5.705185e-11, -8.286662e-11
414.988616, 1512494484.323000, -6.041466e-11, 1.050881e-10
414.988616, 1512494484.323000, 6.662864e-11, 3.367515e-11
414.988616, 1512494484.323000, 9.687401e-11, 5.833477e-11
414.988616, 1512494484.323000, 9.144775e-11, 6.268353e-11
414.988616, 1512494484.333000, 7.366427e-11, 4.856667e-11
414.988616, 1512494484.333000, 2.787059e-11, 8.619110e-12
414.988616, 1512494484.333000, -7.904911e-11, 1.076107e-10
414.988616, 1512494484.333000, -6.998875e-11, 9.268376e-11
414.988616, 1512494484.333000, -4.644142e-11, 1.568677e-10
414.988616, 1512494484.333000, -2.353267e-11, 1.930603e-10
453.904630, 1512494523.256000, 1.811085e-10, -1.527796e-10
453.904630, 1512494523.256000, 2.021964e-10, -4.906586e-11
453.904630, 1512494523.256000, 9.870651e-11, 5.363084e-11
453.904630, 1512494523.256000, -3.760291e-11, 1.042689e-10
453.904630, 1512494523.256000, -8.419667e-11, 1.342835e-10
453.904630, 1512494523.256000, -8.110144e-11, 1.138541e-10
453.904630, 1512494523.256000, -8.873162e-11, 9.756966e-11
453.904630, 1512494523.256000, -6.265549e-11, 9.262211e-11
453.904630, 1512494523.266000, 9.563200e-12, 6.827799e-11
453.904630, 1512494523.266000, 3.381226e-11, 8.761670e-11
453.904630, 1512494523.266000, 1.811085e-10, -1.527796e-10
453.904630, 1512494523.266000, 2.021964e-10, -4.906586e-11
453.904630, 1512494523.266000, 9.870651e-11, 5.363084e-11
453.904630, 1512494523.266000, -3.760291e-11, 1.042689e-10
453.904630, 1512494523.266000, -8.419667e-11, 1.342835e-10
453.904630, 1512494523.266000, -8.110144e-11, 1.138541e-10
453.904630, 1512494523.266000, -8.873162e-11, 9.756966e-11
453.904630, 1512494523.266000, -6.265549e-11, 9.262211e-11
453.904630, 1512494523.266000, 9.563200e-12, 6.827799e-11
453.904630, 1512494523.266000, 3.381226e-11, 8.761670e-11
492.179538, 1512494561.767000, -2.905727e-11, 5.604501e-11
492.179538, 1512494561.767000, -9.932664e-12, 3.604634e-11
492.179538, 1512494561.767000, 2.616035e-11, 5.999491e-11
492.179538, 1512494561.767000, 4.794352e-12, 1.202319e-11
492.179538, 1512494561.767000, -9.868852e-12, 1.191828e-11
492.179538, 1512494561.767000, -9.811242e-12, -4.132774e-11
492.179538, 1512494561.767000, -4.267750e-11, -4.577415e-11
492.179538, 1512494561.777000, -3.599740e-11, -8.855259e-11
492.179538, 1512494561.777000, -1.217198e-11, -4.841168e-11
492.179538, 1512494561.777000, 1.057391e-11, -5.999162e-11
492.179538, 1512494561.777000, -2.905727e-11, 5.604501e-11
492.179538, 1512494561.777000, -9.932664e-12, 3.604634e-11
492.179538, 1512494561.777000, 2.616035e-11, 5.999491e-11
492.179538, 1512494561.777000, 4.794352e-12, 1.202319e-11
492.179538, 1512494561.777000, -9.868852e-12, 1.191828e-11
492.179538, 1512494561.777000, -9.811242e-12, -4.132774e-11
492.179538, 1512494561.777000, -4.267750e-11, -4.577415e-11
492.179538, 1512494561.777000, -3.599740e-11, -8.855259e-11
492.179538, 1512494561.777000, -1.217198e-11, -4.841168e-11
492.179538, 1512494561.777000, 1.057391e-11, -5.999162e-11
531.061637, 1512494600.799000, 5.531822e-11, -3.122568e-12
531.061637, 1512494600.799000, 1.566972e-12, -7.892345e-11
531.061637, 1512494600.799000, -5.321829e-11, -6.528821e-11
531.061637, 1512494600.799000, -1.177616e-10, -8.858894e-11
531.061637, 1512494600.809000, -3.535003e-11, -1.179768e-10
531.061637, 1512494600.809000, -2.525479e-11, -2.573855e-11
531.061637, 1512494600.809000, 2.322457e-11, 9.068775e-12
531.061637, 1512494600.809000, 5.915005e-11, -6.570857e-12
531.061637, 1512494600.809000, 7.549704e-11, 2.248253e-11
531.061637, 1512494600.809000, 3.386205e-11, 3.702109e-12
531.061637, 1512494600.809000, 5.531822e-11, -3.122568e-12
531.061637, 1512494600.809000, 1.566972e-12, -7.892345e-11
531.061637, 1512494600.809000, -5.321829e-11, -6.528821e-11
531.061637, 1512494600.809000, -1.177616e-10, -8.858894e-11
531.061637, 1512494600.809000, -3.535003e-11, -1.179768e-10
531.061637, 1512494600.809000, -2.525479e-11, -2.573855e-11
531.061637, 1512494600.809000, 2.322457e-11, 9.068775e-12
531.061637, 1512494600.809000, 5.915005e-11, -6.570857e-12
531.061637, 1512494600.819000, 7.549704e-11, 2.248253e-11
531.061637, 1512494600.819000, 3.386205e-11, 3.702109e-12
570.426696, 1512494639.771000, 7.055159e-11, 1.453232e-10
570.426696, 1512494639.771000, -8.726307e-12, 1.740242e-10
570.426696, 1512494639.781000, -8.265133e-11, 1.823958e-10
570.426696, 1512494639.781000, -8.780353e-11, 1.114033e-10
570.426696, 1512494639.781000, -4.350210e-11, -5.011018e-11
570.426696, 1512494639.781000, -7.768131e-11, -6.668007e-11
570.426696, 1512494639.781000, -1.293827e-11, 3.165596e-12
570.426696, 1512494639.781000, 3.219121e-11, 1.250875e-10
570.426696, 1512494639.781000, 2.596263e-11, 2.754347e-10
570.426696, 1512494639.781000, -3.903902e-11, 3.822532e-10
570.426696, 1512494639.781000, 7.055159e-11, 1.453232e-10
570.426696, 1512494639.781000, -8.726307e-12, 1.740242e-10
570.426696, 1512494639.781000, -8.265133e-11, 1.823958e-10
570.426696, 1512494639.781000, -8.780353e-11, 1.114033e-10
570.426696, 1512494639.781000, -4.350210e-11, -5.011018e-11
570.426696, 1512494639.791000, -7.768131e-11, -6.668007e-11
570.426696, 1512494639.791000, -1.293827e-11, 3.165596e-12
570.426696, 1512494639.791000, 3.219121e-11, 1.250875e-10
570.426696, 1512494639.791000, 2.596263e-11, 2.754347e-10
570.426696, 1512494639.791000, -3.903902e-11, 3.822532e-10
609.518387, 1512494679.393000, 3.465598e-12, 2.790544e-10
609.518387, 1512494679.393000, 3.184353e-11, 2.652680e-10
609.518387, 1512494679.393000, 5.366606e-11, 3.131440e-10
609.518387, 1512494679.393000, 6.229035e-11, 3.118623e-10
609.518387, 1512494679.393000, 6.504790e-11, 1.937525e-10
609.518387, 1512494679.393000, -7.958759e-11, 7.033628e-11
609.518387, 1512494679.393000, -9.256204e-11, -3.463228e-11
609.518387, 1512494679.393000, -9.361259e-11, -1.293226e-10
609.518387, 1512494679.393000, -5.791776e-11, -9.691605e-11
609.518387, 1512494679.403000, -2.675771e-11, 2.320744e-10
609.518387, 1512494679.403000, 3.465598e-12, 2.790544e-10
609.518387, 1512494679.403000, 3.184353e-11, 2.652680e-10
609.518387, 1512494679.403000, 5.366606e-11, 3.131440e-10
609.518387, 1512494679.403000, 6.229035e-11, 3.118623e-10
609.518387, 1512494679.403000, 6.504790e-11, 1.937525e-10
609.518387, 1512494679.403000, -7.958759e-11, 7.033628e-11
609.518387, 1512494679.403000, -9.256204e-11, -3.463228e-11
609.518387, 1512494679.403000, -9.361259e-11, -1.293226e-10
609.518387, 1512494679.403000, -5.791776e-11, -9.691605e-11
609.518387, 1512494679.403000, -2.675771e-11, 2.320744e-10
648.930959, 1512494718.285000, 1.765487e-12, 1.975371e-10
648.930959, 1512494718.285000, -5.077811e-11, 2.036204e-10
648.930959, 1512494718.285000, -5.859120e-11, 2.426098e-10
648.930959, 1512494718.285000, -1.011938e-11, 1.434758e-10
648.930959, 1512494718.285000, 4.495647e-11, 2.305507e-11
648.930959, 1512494718.285000, 6.249863e-11, 7.511015e-11
648.930959, 1512494718.285000, 7.548956e-11, 3.815933e-11
648.930959, 1512494718.285000, 6.043472e-11, 4.780237e-11
648.930959, 1512494718.285000, 1.676814e-11, 3.440714e-11
648.930959, 1512494718.285000, -3.719039e-11, 8.332640e-11
648.930959, 1512494718.295000, 1.765487e-12, 1.975371e-10
648.930959, 1512494718.295000, -5.077811e-11, 2.036204e-10
648.930959, 1512494718.295000, -5.859120e-11, 2.426098e-10
648.930959, 1512494718.295000, -1.011938e-11, 1.434758e-10
648.930959, 1512494718.295000, 4.495647e-11, 2.305507e-11
648.930959, 1512494718.295000, 6.249863e-11, 7.511015e-11
648.930959, 1512494718.295000, 7.548956e-11, 3.815933e-11
648.930959, 1512494718.295000, 6.043472e-11, 4.780237e-11
648.930959, 1512494718.295000, 1.676814e-11, 3.440714e-11
648.930959, 1512494718.295000, -3.719039e-11, 8.332640e-11
687.920251, 1512494757.315000, 2.575994e-11, 2.678745e-10
687.920251, 1512494757.315000, 3.028378e-11, 3.078096e-10
687.920251, 1512494757.315000, 4.746517e-11, 2.529606e-10
687.920251, 1512494757.325000, 3.374449e-11, 9.193910e-11
687.920251, 1512494757.325000, -8.843605e-12, 2.821812e-11
687.920251, 1512494757.325000, -2.813393e-12, -7.487019e-11
687.920251, 1512494757.325000, -6.166447e-11, -1.641931e-10
687.920251, 1512494757.325000, -1.154111e-10, -1.110980e-10
687.920251, 1512494757.325000, -8.026134e-11, 1.644693e-11
687.920251, 1512494757.325000, -6.421127e-11, 2.212505e-10
687.920251, 1512494757.325000, 2.575994e-11, 2.678745e-10
687.920251, 1512494757.325000, 3.028378e-11, 3.078096e-10
687.920251, 1512494757.325000, 4.746517e-11, 2.529606e-10
687.920251, 1512494757.325000, 3.374449e-11, 9.193910e-11
687.920251, 1512494757.325000, -8.843605e-12, 2.821812e-11
687.920251, 1512494757.325000, -2.813393e-12, -7.487019e-11
687.920251, 1512494757.325000, -6.166447e-11, -1.641931e-10
687.920251, 1512494757.335000, -1.154111e-10, -1.110980e-10
687.920251, 1512494757.335000, -8.026134e-11, 1.644693e-11
687.920251, 1512494757.335000, -6.421127e-11, 2.212505e-10
