28.354888, 1512494097.829000, 1.245202e-21
105.929646, 1512494175.282000, 1.174179e-19
183.038894, 1512494252.764000, 3.863469e-21
221.605765, 1512494291.285000, 1.402322e-19
260.200980, 1512494329.787000, 5.632250e-20
298.885693, 1512494368.268000, 4.388428e-20
337.365975, 1512494406.760000, 3.800505e-20
375.605494, 1512494445.331000, 1.217711e-20
453.904630, 1512494523.266000, -2.326938e-20
492.179538, 1512494561.777000, 2.394732e-21
531.061637, 1512494600.809000, -2.167083e-21
570.426696, 1512494639.781000, 3.392547e-20
609.518387, 1512494679.403000, 2.493873e-19
648.930959, 1512494718.295000, 7.943381e-20
687.920251, 1512494757.325000, 1.245165e-19
