27.783209, 1513007088.770000, , 
27.783209, 1513007088.770000, , 
27.783209, 1513007088.780000, , 
27.783209, 1513007088.780000, , 
27.783209, 1513007088.780000, , 
27.783209, 1513007088.780000, , 
27.783209, 1513007088.780000, , 
27.783209, 1513007088.780000, , 
27.783209, 1513007088.780000, , 
27.783209, 1513007088.780000, , 
27.783209, 1513007088.780000, , 
27.783209, 1513007088.780000, , 
27.783209, 1513007088.780000, , 
27.783209, 1513007088.780000, , 
27.783209, 1513007088.790000, , 
27.783209, 1513007088.790000, , 
27.783209, 1513007088.790000, , 
27.783209, 1513007088.790000, , 
27.783209, 1513007088.790000, , 
27.783209, 1513007088.790000, , 
66.108621, 1513007127.080000, , 
66.108621, 1513007127.080000, , 
66.108621, 1513007127.080000, , 
66.108621, 1513007127.080000, , 
66.108621, 1513007127.080000, , 
66.108621, 1513007127.080000, , 
66.108621, 1513007127.080000, , 
66.108621, 1513007127.080000, , 
66.108621, 1513007127.080000, , 
66.108621, 1513007127.080000, , 
66.108621, 1513007127.090000, , 
66.108621, 1513007127.090000, , 
66.108621, 1513007127.090000, , 
66.108621, 1513007127.090000, , 
66.108621, 1513007127.090000, , 
66.108621, 1513007127.090000, , 
66.108621, 1513007127.090000, , 
66.108621, 1513007127.090000, , 
66.108621, 1513007127.090000, , 
66.108621, 1513007127.090000, , 
104.922071, 1513007165.720000, , 
104.922071, 1513007165.720000, , 
104.922071, 1513007165.720000, , 
104.922071, 1513007165.720000, , 
104.922071, 1513007165.720000, , 
104.922071, 1513007165.720000, , 
104.922071, 1513007165.720000, , 
104.922071, 1513007165.720000, , 
104.922071, 1513007165.720000, , 
104.922071, 1513007165.730000, , 
104.922071, 1513007165.730000, , 
104.922071, 1513007165.730000, , 
104.922071, 1513007165.730000, , 
104.922071, 1513007165.730000, , 
104.922071, 1513007165.730000, , 
104.922071, 1513007165.730000, , 
104.922071, 1513007165.730000, , 
104.922071, 1513007165.730000, , 
104.922071, 1513007165.730000, , 
104.922071, 1513007165.730000, , 
143.541330, 1513007204.730000, , 
143.541330, 1513007204.730000, , 
143.541330, 1513007204.730000, , 
143.541330, 1513007204.730000, , 
143.541330, 1513007204.730000, , 
143.541330, 1513007204.730000, , 
143.541330, 1513007204.740000, , 
143.541330, 1513007204.740000, , 
143.541330, 1513007204.740000, , 
143.541330, 1513007204.740000, , 
143.541330, 1513007204.740000, , 
143.541330, 1513007204.740000, , 
143.541330, 1513007204.740000, , 
143.541330, 1513007204.740000, , 
143.541330, 1513007204.740000, , 
143.541330, 1513007204.740000, , 
143.541330, 1513007204.740000, , 
143.541330, 1513007204.740000, , 
143.541330, 1513007204.740000, , 
143.541330, 1513007204.740000, , 
182.630851, 1513007243.680000, , 
182.630851, 1513007243.680000, , 
182.630851, 1513007243.680000, , 
182.630851, 1513007243.680000, , 
182.630851, 1513007243.680000, , 
182.630851, 1513007243.680000, , 
182.630851, 1513007243.680000, , 
182.630851, 1513007243.680000, , 
182.630851, 1513007243.680000, , 
182.630851, 1513007243.690000, , 
182.630851, 1513007243.690000, , 
182.630851, 1513007243.690000, , 
182.630851, 1513007243.690000, , 
182.630851, 1513007243.690000, , 
182.630851, 1513007243.690000, , 
182.630851, 1513007243.690000, , 
182.630851, 1513007243.690000, , 
182.630851, 1513007243.690000, , 
182.630851, 1513007243.690000, , 
182.630851, 1513007243.690000, , 
221.619978, 1513007282.690000, , 
221.619978, 1513007282.690000, , 
221.619978, 1513007282.690000, , 
221.619978, 1513007282.690000, , 
221.619978, 1513007282.690000, , 
221.619978, 1513007282.690000, , 
221.619978, 1513007282.690000, , 
221.619978, 1513007282.690000, , 
221.619978, 1513007282.690000, , 
221.619978, 1513007282.690000, , 
221.619978, 1513007282.690000, , 
221.619978, 1513007282.690000, , 
221.619978, 1513007282.690000, , 
221.619978, 1513007282.690000, , 
221.619978, 1513007282.700000, , 
221.619978, 1513007282.700000, , 
221.619978, 1513007282.700000, , 
221.619978, 1513007282.700000, , 
221.619978, 1513007282.700000, , 
221.619978, 1513007282.700000, , 
260.611482, 1513007321.690000, , 
260.611482, 1513007321.690000, , 
260.611482, 1513007321.690000, , 
260.611482, 1513007321.690000, , 
260.611482, 1513007321.690000, , 
260.611482, 1513007321.690000, , 
260.611482, 1513007321.690000, , 
260.611482, 1513007321.690000, , 
260.611482, 1513007321.690000, , 
260.611482, 1513007321.690000, , 
260.611482, 1513007321.690000, , 
260.611482, 1513007321.700000, , 
260.611482, 1513007321.700000, , 
260.611482, 1513007321.700000, , 
260.611482, 1513007321.700000, , 
260.611482, 1513007321.700000, , 
260.611482, 1513007321.700000, , 
260.611482, 1513007321.700000, , 
260.611482, 1513007321.700000, , 
260.611482, 1513007321.700000, , 
299.251098, 1513007360.250000, , 
299.251098, 1513007360.250000, , 
299.251098, 1513007360.250000, , 
299.251098, 1513007360.250000, , 
299.251098, 1513007360.260000, , 
299.251098, 1513007360.260000, , 
299.251098, 1513007360.260000, , 
299.251098, 1513007360.260000, , 
299.251098, 1513007360.260000, , 
299.251098, 1513007360.260000, , 
338.165801, 1513007399.200000, , 
338.165801, 1513007399.200000, , 
338.165801, 1513007399.210000, , 
338.165801, 1513007399.210000, , 
338.165801, 1513007399.210000, , 
338.165801, 1513007399.210000, , 
338.165801, 1513007399.210000, , 
338.165801, 1513007399.210000, , 
338.165801, 1513007399.210000, , 
338.165801, 1513007399.210000, , 
338.165801, 1513007399.210000, , 
338.165801, 1513007399.210000, , 
338.165801, 1513007399.210000, , 
338.165801, 1513007399.210000, , 
338.165801, 1513007399.210000, , 
338.165801, 1513007399.210000, , 
338.165801, 1513007399.220000, , 
338.165801, 1513007399.220000, , 
338.165801, 1513007399.220000, , 
338.165801, 1513007399.220000, , 
376.714650, 1513007437.710000, , 
376.714650, 1513007437.710000, , 
376.714650, 1513007437.710000, , 
376.714650, 1513007437.720000, , 
376.714650, 1513007437.720000, , 
376.714650, 1513007437.720000, , 
376.714650, 1513007437.720000, , 
376.714650, 1513007437.720000, , 
376.714650, 1513007437.720000, , 
376.714650, 1513007437.720000, , 
376.714650, 1513007437.720000, , 
376.714650, 1513007437.720000, , 
376.714650, 1513007437.720000, , 
376.714650, 1513007437.720000, , 
376.714650, 1513007437.720000, , 
376.714650, 1513007437.720000, , 
376.714650, 1513007437.720000, , 
376.714650, 1513007437.730000, , 
376.714650, 1513007437.730000, , 
376.714650, 1513007437.730000, , 
415.451955, 1513007476.220000, , 
415.451955, 1513007476.220000, , 
415.451955, 1513007476.220000, , 
415.451955, 1513007476.220000, , 
415.451955, 1513007476.220000, , 
415.451955, 1513007476.230000, , 
415.451955, 1513007476.230000, , 
415.451955, 1513007476.230000, , 
415.451955, 1513007476.230000, , 
415.451955, 1513007476.230000, , 
415.451955, 1513007476.230000, , 
415.451955, 1513007476.230000, , 
415.451955, 1513007476.230000, , 
415.451955, 1513007476.230000, , 
415.451955, 1513007476.230000, , 
415.451955, 1513007476.230000, , 
415.451955, 1513007476.230000, , 
415.451955, 1513007476.230000, , 
415.451955, 1513007476.240000, , 
415.451955, 1513007476.240000, , 
454.736445, 1513007515.760000, , 
454.736445, 1513007515.760000, , 
454.736445, 1513007515.760000, , 
454.736445, 1513007515.760000, , 
454.736445, 1513007515.760000, , 
454.736445, 1513007515.760000, , 
454.736445, 1513007515.760000, , 
454.736445, 1513007515.760000, , 
454.736445, 1513007515.760000, , 
454.736445, 1513007515.760000, , 
454.736445, 1513007515.760000, , 
454.736445, 1513007515.760000, , 
454.736445, 1513007515.770000, , 
454.736445, 1513007515.770000, , 
454.736445, 1513007515.770000, , 
454.736445, 1513007515.770000, , 
454.736445, 1513007515.770000, , 
454.736445, 1513007515.770000, , 
454.736445, 1513007515.770000, , 
454.736445, 1513007515.770000, , 
494.162903, 1513007555.310000, , 
494.162903, 1513007555.310000, , 
494.162903, 1513007555.310000, , 
494.162903, 1513007555.310000, , 
494.162903, 1513007555.310000, , 
494.162903, 1513007555.310000, , 
494.162903, 1513007555.310000, , 
494.162903, 1513007555.310000, , 
494.162903, 1513007555.310000, , 
494.162903, 1513007555.310000, , 
494.162903, 1513007555.310000, , 
494.162903, 1513007555.310000, , 
494.162903, 1513007555.310000, , 
494.162903, 1513007555.320000, , 
494.162903, 1513007555.320000, , 
494.162903, 1513007555.320000, , 
494.162903, 1513007555.320000, , 
494.162903, 1513007555.320000, , 
494.162903, 1513007555.320000, , 
494.162903, 1513007555.320000, , 
533.668291, 1513007594.710000, , 
533.668291, 1513007594.720000, , 
533.668291, 1513007594.720000, , 
533.668291, 1513007594.720000, , 
533.668291, 1513007594.720000, , 
533.668291, 1513007594.720000, , 
533.668291, 1513007594.720000, , 
533.668291, 1513007594.720000, , 
533.668291, 1513007594.720000, , 
533.668291, 1513007594.720000, , 
533.668291, 1513007594.720000, , 
533.668291, 1513007594.720000, , 
533.668291, 1513007594.720000, , 
533.668291, 1513007594.720000, , 
533.668291, 1513007594.720000, , 
533.668291, 1513007594.730000, , 
533.668291, 1513007594.730000, , 
533.668291, 1513007594.730000, , 
533.668291, 1513007594.730000, , 
533.668291, 1513007594.730000, , 
573.009060, 1513007634.231000, , 
573.009060, 1513007634.231000, , 
573.009060, 1513007634.231000, , 
573.009060, 1513007634.231000, , 
573.009060, 1513007634.231000, , 
573.009060, 1513007634.231000, , 
573.009060, 1513007634.231000, , 
573.009060, 1513007634.241000, , 
573.009060, 1513007634.241000, , 
573.009060, 1513007634.241000, , 
573.009060, 1513007634.241000, , 
573.009060, 1513007634.241000, , 
573.009060, 1513007634.241000, , 
573.009060, 1513007634.241000, , 
573.009060, 1513007634.241000, , 
573.009060, 1513007634.241000, , 
573.009060, 1513007634.241000, , 
573.009060, 1513007634.241000, , 
573.009060, 1513007634.241000, , 
573.009060, 1513007634.241000, , 
613.021901, 1513007674.261000, , 
613.021901, 1513007674.261000, , 
613.021901, 1513007674.261000, , 
613.021901, 1513007674.261000, , 
613.021901, 1513007674.261000, , 
613.021901, 1513007674.261000, , 
613.021901, 1513007674.261000, , 
613.021901, 1513007674.261000, , 
613.021901, 1513007674.261000, , 
613.021901, 1513007674.261000, , 
613.021901, 1513007674.261000, , 
613.021901, 1513007674.261000, , 
613.021901, 1513007674.261000, , 
613.021901, 1513007674.271000, , 
613.021901, 1513007674.271000, , 
613.021901, 1513007674.271000, , 
613.021901, 1513007674.271000, , 
613.021901, 1513007674.271000, , 
613.021901, 1513007674.271000, , 
613.021901, 1513007674.271000, , 
652.911739, 1513007713.761000, , 
652.911739, 1513007713.771000, , 
652.911739, 1513007713.771000, , 
652.911739, 1513007713.771000, , 
652.911739, 1513007713.771000, , 
652.911739, 1513007713.771000, , 
652.911739, 1513007713.771000, , 
652.911739, 1513007713.771000, , 
652.911739, 1513007713.771000, , 
652.911739, 1513007713.771000, , 
652.911739, 1513007713.771000, , 
652.911739, 1513007713.771000, , 
652.911739, 1513007713.771000, , 
652.911739, 1513007713.771000, , 
652.911739, 1513007713.771000, , 
652.911739, 1513007713.781000, , 
652.911739, 1513007713.781000, , 
652.911739, 1513007713.781000, , 
652.911739, 1513007713.781000, , 
652.911739, 1513007713.781000, , 
692.513341, 1513007753.891000, , 
692.513341, 1513007753.891000, , 
692.513341, 1513007753.891000, , 
692.513341, 1513007753.891000, , 
692.513341, 1513007753.901000, , 
692.513341, 1513007753.901000, , 
692.513341, 1513007753.901000, , 
692.513341, 1513007753.901000, , 
692.513341, 1513007753.901000, , 
692.513341, 1513007753.901000, , 
692.513341, 1513007753.901000, , 
692.513341, 1513007753.901000, , 
692.513341, 1513007753.901000, , 
692.513341, 1513007753.901000, , 
692.513341, 1513007753.901000, , 
692.513341, 1513007753.901000, , 
692.513341, 1513007753.901000, , 
692.513341, 1513007753.901000, , 
692.513341, 1513007753.911000, , 
692.513341, 1513007753.911000, , 
731.472650, 1513007792.731000, , 
731.472650, 1513007792.731000, , 
731.472650, 1513007792.731000, , 
731.472650, 1513007792.731000, , 
731.472650, 1513007792.731000, , 
731.472650, 1513007792.731000, , 
731.472650, 1513007792.731000, , 
731.472650, 1513007792.731000, , 
731.472650, 1513007792.731000, , 
731.472650, 1513007792.741000, , 
731.472650, 1513007792.741000, , 
731.472650, 1513007792.741000, , 
731.472650, 1513007792.741000, , 
731.472650, 1513007792.741000, , 
731.472650, 1513007792.741000, , 
731.472650, 1513007792.741000, , 
731.472650, 1513007792.741000, , 
731.472650, 1513007792.741000, , 
731.472650, 1513007792.741000, , 
731.472650, 1513007792.741000, , 
771.488195, 1513007832.701000, , 
771.488195, 1513007832.701000, , 
771.488195, 1513007832.701000, , 
771.488195, 1513007832.701000, , 
771.488195, 1513007832.701000, , 
771.488195, 1513007832.701000, , 
771.488195, 1513007832.711000, , 
771.488195, 1513007832.711000, , 
771.488195, 1513007832.711000, , 
771.488195, 1513007832.711000, , 
771.488195, 1513007832.711000, , 
771.488195, 1513007832.711000, , 
771.488195, 1513007832.711000, , 
771.488195, 1513007832.711000, , 
771.488195, 1513007832.711000, , 
771.488195, 1513007832.711000, , 
771.488195, 1513007832.711000, , 
771.488195, 1513007832.711000, , 
771.488195, 1513007832.711000, , 
771.488195, 1513007832.711000, , 
811.175076, 1513007872.221000, , 
811.175076, 1513007872.221000, , 
811.175076, 1513007872.221000, , 
811.175076, 1513007872.221000, , 
811.175076, 1513007872.221000, , 
811.175076, 1513007872.221000, , 
811.175076, 1513007872.221000, , 
811.175076, 1513007872.221000, , 
811.175076, 1513007872.221000, , 
811.175076, 1513007872.221000, , 
811.175076, 1513007872.221000, , 
811.175076, 1513007872.231000, , 
811.175076, 1513007872.231000, , 
811.175076, 1513007872.231000, , 
811.175076, 1513007872.231000, , 
811.175076, 1513007872.231000, , 
811.175076, 1513007872.231000, , 
811.175076, 1513007872.231000, , 
811.175076, 1513007872.231000, , 
811.175076, 1513007872.231000, , 
850.990121, 1513007912.221000, , 
850.990121, 1513007912.231000, , 
850.990121, 1513007912.231000, , 
850.990121, 1513007912.231000, , 
850.990121, 1513007912.231000, , 
850.990121, 1513007912.231000, , 
850.990121, 1513007912.231000, , 
850.990121, 1513007912.231000, , 
850.990121, 1513007912.231000, , 
850.990121, 1513007912.231000, , 
850.990121, 1513007912.231000, , 
850.990121, 1513007912.231000, , 
850.990121, 1513007912.231000, , 
850.990121, 1513007912.231000, , 
850.990121, 1513007912.231000, , 
850.990121, 1513007912.241000, , 
850.990121, 1513007912.241000, , 
850.990121, 1513007912.241000, , 
850.990121, 1513007912.241000, , 
850.990121, 1513007912.241000, , 
890.668810, 1513007951.731000, , 
890.668810, 1513007951.731000, , 
890.668810, 1513007951.741000, , 
890.668810, 1513007951.741000, , 
890.668810, 1513007951.741000, , 
890.668810, 1513007951.741000, , 
890.668810, 1513007951.741000, , 
890.668810, 1513007951.741000, , 
890.668810, 1513007951.741000, , 
890.668810, 1513007951.741000, , 
890.668810, 1513007951.741000, , 
890.668810, 1513007951.741000, , 
890.668810, 1513007951.741000, , 
890.668810, 1513007951.741000, , 
890.668810, 1513007951.751000, , 
890.668810, 1513007951.751000, , 
890.668810, 1513007951.751000, , 
890.668810, 1513007951.751000, , 
890.668810, 1513007951.751000, , 
890.668810, 1513007951.751000, , 
930.432942, 1513007991.221000, , 
930.432942, 1513007991.221000, , 
930.432942, 1513007991.221000, , 
930.432942, 1513007991.221000, , 
930.432942, 1513007991.231000, , 
930.432942, 1513007991.231000, , 
930.432942, 1513007991.231000, , 
930.432942, 1513007991.231000, , 
930.432942, 1513007991.231000, , 
930.432942, 1513007991.231000, , 
930.432942, 1513007991.231000, , 
930.432942, 1513007991.231000, , 
930.432942, 1513007991.231000, , 
930.432942, 1513007991.231000, , 
930.432942, 1513007991.231000, , 
930.432942, 1513007991.231000, , 
930.432942, 1513007991.231000, , 
930.432942, 1513007991.231000, , 
930.432942, 1513007991.231000, , 
930.432942, 1513007991.241000, , 
968.968970, 1513008029.741000, , 
968.968970, 1513008029.741000, , 
968.968970, 1513008029.741000, , 
968.968970, 1513008029.741000, , 
968.968970, 1513008029.741000, , 
968.968970, 1513008029.741000, , 
968.968970, 1513008029.741000, , 
968.968970, 1513008029.741000, , 
968.968970, 1513008029.741000, , 
968.968970, 1513008029.741000, , 
968.968970, 1513008029.751000, , 
968.968970, 1513008029.751000, , 
968.968970, 1513008029.751000, , 
968.968970, 1513008029.751000, , 
968.968970, 1513008029.751000, , 
968.968970, 1513008029.751000, , 
968.968970, 1513008029.751000, , 
968.968970, 1513008029.751000, , 
968.968970, 1513008029.751000, , 
968.968970, 1513008029.751000, , 
1008.210166, 1513008069.281000, , 
1008.210166, 1513008069.281000, , 
1008.210166, 1513008069.281000, , 
1008.210166, 1513008069.281000, , 
1008.210166, 1513008069.281000, , 
1008.210166, 1513008069.281000, , 
1008.210166, 1513008069.281000, , 
1008.210166, 1513008069.281000, , 
1008.210166, 1513008069.281000, , 
1008.210166, 1513008069.281000, , 
1008.210166, 1513008069.281000, , 
1008.210166, 1513008069.281000, , 
1008.210166, 1513008069.281000, , 
1008.210166, 1513008069.281000, , 
1008.210166, 1513008069.291000, , 
1008.210166, 1513008069.291000, , 
1008.210166, 1513008069.291000, , 
1008.210166, 1513008069.291000, , 
1008.210166, 1513008069.291000, , 
1008.210166, 1513008069.291000, , 
1047.255081, 1513008108.261000, , 
1047.255081, 1513008108.261000, , 
1047.255081, 1513008108.261000, , 
1047.255081, 1513008108.261000, , 
1047.255081, 1513008108.261000, , 
1047.255081, 1513008108.261000, , 
1047.255081, 1513008108.261000, , 
1047.255081, 1513008108.261000, , 
1047.255081, 1513008108.261000, , 
1047.255081, 1513008108.261000, , 
1047.255081, 1513008108.271000, , 
1047.255081, 1513008108.271000, , 
1047.255081, 1513008108.271000, , 
1047.255081, 1513008108.271000, , 
1047.255081, 1513008108.271000, , 
1047.255081, 1513008108.271000, , 
1047.255081, 1513008108.271000, , 
1047.255081, 1513008108.271000, , 
1047.255081, 1513008108.271000, , 
1047.255081, 1513008108.271000, , 
1087.017124, 1513008148.231000, , 
1087.017124, 1513008148.231000, , 
1087.017124, 1513008148.231000, , 
1087.017124, 1513008148.231000, , 
1087.017124, 1513008148.231000, , 
1087.017124, 1513008148.231000, , 
1087.017124, 1513008148.231000, , 
1087.017124, 1513008148.241000, , 
1087.017124, 1513008148.241000, , 
1087.017124, 1513008148.241000, , 
1087.017124, 1513008148.241000, , 
1087.017124, 1513008148.241000, , 
1087.017124, 1513008148.241000, , 
1087.017124, 1513008148.241000, , 
1087.017124, 1513008148.241000, , 
1087.017124, 1513008148.241000, , 
1087.017124, 1513008148.241000, , 
1087.017124, 1513008148.241000, , 
1087.017124, 1513008148.241000, , 
1087.017124, 1513008148.241000, , 
1126.865510, 1513008187.841000, , 
1126.865510, 1513008187.841000, , 
1126.865510, 1513008187.841000, , 
1126.865510, 1513008187.841000, , 
1126.865510, 1513008187.841000, , 
1126.865510, 1513008187.841000, , 
1126.865510, 1513008187.841000, , 
1126.865510, 1513008187.841000, , 
1126.865510, 1513008187.841000, , 
1126.865510, 1513008187.841000, , 
1126.865510, 1513008187.851000, , 
1126.865510, 1513008187.851000, , 
1126.865510, 1513008187.851000, , 
1126.865510, 1513008187.851000, , 
1126.865510, 1513008187.851000, , 
1126.865510, 1513008187.851000, , 
1126.865510, 1513008187.851000, , 
1126.865510, 1513008187.851000, , 
1126.865510, 1513008187.851000, , 
1126.865510, 1513008187.851000, , 
1166.229176, 1513008227.321000, , 
1166.229176, 1513008227.321000, , 
1166.229176, 1513008227.321000, , 
1166.229176, 1513008227.321000, , 
1166.229176, 1513008227.321000, , 
1166.229176, 1513008227.331000, , 
1166.229176, 1513008227.331000, , 
1166.229176, 1513008227.331000, , 
1166.229176, 1513008227.331000, , 
1166.229176, 1513008227.331000, , 
1166.229176, 1513008227.331000, , 
1166.229176, 1513008227.331000, , 
1166.229176, 1513008227.331000, , 
1166.229176, 1513008227.331000, , 
1166.229176, 1513008227.331000, , 
1166.229176, 1513008227.331000, , 
1166.229176, 1513008227.331000, , 
1166.229176, 1513008227.331000, , 
1166.229176, 1513008227.331000, , 
1166.229176, 1513008227.331000, , 
1204.954726, 1513008265.711000, , 
1204.954726, 1513008265.711000, , 
1204.954726, 1513008265.711000, , 
1204.954726, 1513008265.711000, , 
1204.954726, 1513008265.711000, , 
1204.954726, 1513008265.721000, , 
1204.954726, 1513008265.721000, , 
1204.954726, 1513008265.721000, , 
1204.954726, 1513008265.721000, , 
1204.954726, 1513008265.721000, , 
1204.954726, 1513008265.721000, , 
1204.954726, 1513008265.721000, , 
1204.954726, 1513008265.721000, , 
1204.954726, 1513008265.721000, , 
1204.954726, 1513008265.721000, , 
1204.954726, 1513008265.721000, , 
1204.954726, 1513008265.721000, , 
1204.954726, 1513008265.721000, , 
1204.954726, 1513008265.721000, , 
1204.954726, 1513008265.731000, , 
