29.245727, 1525704543.230000, 2.839440e-09, -4.889253e-10
29.245727, 1525704543.230000, -1.703718e-09, 3.290343e-09
29.245727, 1525704543.230000, -1.153728e-09, 2.942613e-09
29.245727, 1525704543.230000, -2.503979e-09, 2.564394e-09
29.245727, 1525704543.230000, -1.307313e-09, 2.476599e-09
29.245727, 1525704543.230000, -1.233024e-09, 1.260301e-09
29.245727, 1525704543.230000, -8.331910e-10, -2.949053e-09
29.245727, 1525704543.230000, -1.183937e-09, -2.778472e-09
29.245727, 1525704543.230000, 5.728282e-10, -2.504382e-09
29.245727, 1525704543.230000, -2.225209e-10, -1.141078e-09
29.245727, 1525704543.240000, 2.839440e-09, -4.889253e-10
29.245727, 1525704543.240000, -1.703718e-09, 3.290343e-09
29.245727, 1525704543.240000, -1.153728e-09, 2.942613e-09
29.245727, 1525704543.240000, -2.503979e-09, 2.564394e-09
29.245727, 1525704543.240000, -1.307313e-09, 2.476599e-09
29.245727, 1525704543.240000, -1.233024e-09, 1.260301e-09
29.245727, 1525704543.240000, -8.331910e-10, -2.949053e-09
29.245727, 1525704543.240000, -1.183937e-09, -2.778472e-09
29.245727, 1525704543.240000, 5.728282e-10, -2.504382e-09
29.245727, 1525704543.240000, -2.225209e-10, -1.141078e-09
71.159562, 1525704583.600000, -4.615483e-09, -3.660499e-09
71.159562, 1525704583.600000, -3.269548e-09, -4.089349e-09
71.159562, 1525704583.600000, -1.950374e-09, -4.923733e-09
71.159562, 1525704583.610000, -2.406204e-09, -2.902884e-09
71.159562, 1525704583.610000, 3.307426e-09, -3.340923e-09
71.159562, 1525704583.610000, 3.728047e-09, -1.612327e-09
71.159562, 1525704583.610000, 3.846238e-09, -1.384016e-09
71.159562, 1525704583.610000, 4.267774e-09, 2.549302e-11
71.159562, 1525704583.610000, 9.285674e-10, 2.496807e-10
71.159562, 1525704583.610000, 1.964331e-10, 6.036729e-10
71.159562, 1525704583.610000, -4.615483e-09, -3.660499e-09
71.159562, 1525704583.610000, -3.269548e-09, -4.089349e-09
71.159562, 1525704583.610000, -1.950374e-09, -4.923733e-09
71.159562, 1525704583.610000, -2.406204e-09, -2.902884e-09
71.159562, 1525704583.610000, 3.307426e-09, -3.340923e-09
71.159562, 1525704583.610000, 3.728047e-09, -1.612327e-09
71.159562, 1525704583.620000, 3.846238e-09, -1.384016e-09
71.159562, 1525704583.620000, 4.267774e-09, 2.549302e-11
71.159562, 1525704583.620000, 9.285674e-10, 2.496807e-10
71.159562, 1525704583.620000, 1.964331e-10, 6.036729e-10
111.340503, 1525704623.730000, 5.679269e-11, -8.297972e-10
111.340503, 1525704623.730000, -2.527704e-10, -3.799956e-10
111.340503, 1525704623.730000, 3.101131e-10, 5.384184e-11
111.340503, 1525704623.730000, -1.170793e-09, 1.174092e-09
111.340503, 1525704623.730000, -1.474978e-09, 7.314450e-10
111.340503, 1525704623.730000, -1.218437e-09, -5.350888e-10
111.340503, 1525704623.730000, -9.457026e-10, -3.880405e-10
111.340503, 1525704623.740000, -5.199363e-10, 1.262584e-10
111.340503, 1525704623.740000, 3.604465e-10, -4.844520e-10
111.340503, 1525704623.740000, 1.277314e-11, 7.213158e-10
111.340503, 1525704623.740000, 5.679269e-11, -8.297972e-10
111.340503, 1525704623.740000, -2.527704e-10, -3.799956e-10
111.340503, 1525704623.740000, 3.101131e-10, 5.384184e-11
111.340503, 1525704623.740000, -1.170793e-09, 1.174092e-09
111.340503, 1525704623.740000, -1.474978e-09, 7.314450e-10
111.340503, 1525704623.740000, -1.218437e-09, -5.350888e-10
111.340503, 1525704623.740000, -9.457026e-10, -3.880405e-10
111.340503, 1525704623.740000, -5.199363e-10, 1.262584e-10
111.340503, 1525704623.740000, 3.604465e-10, -4.844520e-10
111.340503, 1525704623.740000, 1.277314e-11, 7.213158e-10
152.134001, 1525704664.821000, -2.811450e-09, 2.260347e-09
152.134001, 1525704664.821000, -3.098548e-09, 7.836903e-10
152.134001, 1525704664.821000, -8.515093e-10, -1.176696e-09
152.134001, 1525704664.821000, -4.789850e-10, -4.841816e-10
152.134001, 1525704664.821000, 3.686600e-09, -5.678987e-10
152.134001, 1525704664.821000, 5.934637e-09, -4.093701e-09
152.134001, 1525704664.821000, 6.726352e-09, -2.308276e-09
152.134001, 1525704664.821000, 2.875529e-09, -3.011099e-09
152.134001, 1525704664.821000, 2.005227e-09, -3.898762e-09
152.134001, 1525704664.831000, 2.735429e-10, -2.785938e-09
152.134001, 1525704664.831000, -2.811450e-09, 2.260347e-09
152.134001, 1525704664.831000, -3.098548e-09, 7.836903e-10
152.134001, 1525704664.831000, -8.515093e-10, -1.176696e-09
152.134001, 1525704664.831000, -4.789850e-10, -4.841816e-10
152.134001, 1525704664.831000, 3.686600e-09, -5.678987e-10
152.134001, 1525704664.831000, 5.934637e-09, -4.093701e-09
152.134001, 1525704664.831000, 6.726352e-09, -2.308276e-09
152.134001, 1525704664.831000, 2.875529e-09, -3.011099e-09
152.134001, 1525704664.831000, 2.005227e-09, -3.898762e-09
152.134001, 1525704664.831000, 2.735429e-10, -2.785938e-09
192.595517, 1525704705.421000, 2.848463e-09, -2.189859e-09
192.595517, 1525704705.421000, -3.255366e-09, -2.726043e-09
192.595517, 1525704705.421000, -3.295903e-09, -2.913126e-09
192.595517, 1525704705.421000, -3.389285e-09, -2.292053e-09
192.595517, 1525704705.421000, -4.211309e-09, -9.106029e-10
192.595517, 1525704705.421000, -5.571861e-09, -3.891684e-10
192.595517, 1525704705.421000, -1.659128e-09, 8.597766e-10
192.595517, 1525704705.421000, -2.062138e-09, 8.028768e-10
192.595517, 1525704705.421000, -5.256082e-10, 5.383736e-10
192.595517, 1525704705.421000, 6.825841e-11, 1.700533e-10
192.595517, 1525704705.421000, 2.848463e-09, -2.189859e-09
192.595517, 1525704705.431000, -3.255366e-09, -2.726043e-09
192.595517, 1525704705.431000, -3.295903e-09, -2.913126e-09
192.595517, 1525704705.431000, -3.389285e-09, -2.292053e-09
192.595517, 1525704705.431000, -4.211309e-09, -9.106029e-10
192.595517, 1525704705.431000, -5.571861e-09, -3.891684e-10
192.595517, 1525704705.431000, -1.659128e-09, 8.597766e-10
192.595517, 1525704705.431000, -2.062138e-09, 8.028768e-10
192.595517, 1525704705.431000, -5.256082e-10, 5.383736e-10
192.595517, 1525704705.431000, 6.825841e-11, 1.700533e-10
233.655910, 1525704746.361000, 3.299504e-09, 6.471596e-09
233.655910, 1525704746.361000, 9.747993e-09, 7.091864e-09
233.655910, 1525704746.361000, 1.028901e-08, 4.169374e-09
233.655910, 1525704746.361000, 9.558565e-09, 1.502885e-09
233.655910, 1525704746.361000, 7.628495e-10, -2.096104e-09
233.655910, 1525704746.371000, 1.096907e-09, -4.396721e-09
233.655910, 1525704746.371000, -8.792282e-09, -4.473931e-09
233.655910, 1525704746.371000, -7.776682e-09, -4.523903e-09
233.655910, 1525704746.371000, -6.741961e-09, -2.423735e-09
233.655910, 1525704746.371000, -4.472811e-09, -1.413018e-09
233.655910, 1525704746.371000, 3.299504e-09, 6.471596e-09
233.655910, 1525704746.371000, 9.747993e-09, 7.091864e-09
233.655910, 1525704746.371000, 1.028901e-08, 4.169374e-09
233.655910, 1525704746.371000, 9.558565e-09, 1.502885e-09
233.655910, 1525704746.371000, 7.628495e-10, -2.096104e-09
233.655910, 1525704746.371000, 1.096907e-09, -4.396721e-09
233.655910, 1525704746.371000, -8.792282e-09, -4.473931e-09
233.655910, 1525704746.371000, -7.776682e-09, -4.523903e-09
233.655910, 1525704746.371000, -6.741961e-09, -2.423735e-09
233.655910, 1525704746.371000, -4.472811e-09, -1.413018e-09
274.691973, 1525704787.561000, 1.002584e-11, -4.114354e-09
274.691973, 1525704787.561000, -3.849969e-09, -7.261109e-09
274.691973, 1525704787.561000, -2.837497e-09, -9.210370e-09
274.691973, 1525704787.561000, -8.947342e-10, -8.537698e-09
274.691973, 1525704787.561000, 1.041546e-09, -9.747298e-09
274.691973, 1525704787.571000, 9.926738e-10, -2.851289e-09
274.691973, 1525704787.571000, 3.422920e-10, -3.333519e-09
274.691973, 1525704787.571000, -3.221956e-10, -2.465402e-09
274.691973, 1525704787.571000, -1.043460e-09, -2.309263e-09
274.691973, 1525704787.571000, 3.331974e-09, -6.958936e-10
274.691973, 1525704787.571000, 1.002584e-11, -4.114354e-09
274.691973, 1525704787.571000, -3.849969e-09, -7.261109e-09
274.691973, 1525704787.571000, -2.837497e-09, -9.210370e-09
274.691973, 1525704787.571000, -8.947342e-10, -8.537698e-09
274.691973, 1525704787.571000, 1.041546e-09, -9.747298e-09
274.691973, 1525704787.571000, 9.926738e-10, -2.851289e-09
274.691973, 1525704787.571000, 3.422920e-10, -3.333519e-09
274.691973, 1525704787.571000, -3.221956e-10, -2.465402e-09
274.691973, 1525704787.581000, -1.043460e-09, -2.309263e-09
274.691973, 1525704787.581000, 3.331974e-09, -6.958936e-10
315.113431, 1525704827.811000, -1.714252e-09, -5.939303e-09
315.113431, 1525704827.811000, -1.007488e-09, -3.847565e-09
315.113431, 1525704827.811000, -1.227270e-09, -3.437005e-09
315.113431, 1525704827.811000, -3.329417e-10, 5.137265e-10
315.113431, 1525704827.811000, -2.089658e-09, 5.225972e-10
315.113431, 1525704827.811000, -1.385781e-09, 6.666672e-10
315.113431, 1525704827.821000, -1.598550e-09, 4.125047e-10
315.113431, 1525704827.821000, 8.899252e-10, 3.668841e-10
315.113431, 1525704827.821000, 4.536989e-09, -6.411157e-10
315.113431, 1525704827.821000, 5.961371e-09, -5.980069e-10
315.113431, 1525704827.821000, -1.714252e-09, -5.939303e-09
315.113431, 1525704827.821000, -1.007488e-09, -3.847565e-09
315.113431, 1525704827.821000, -1.227270e-09, -3.437005e-09
315.113431, 1525704827.821000, -3.329417e-10, 5.137265e-10
315.113431, 1525704827.821000, -2.089658e-09, 5.225972e-10
315.113431, 1525704827.821000, -1.385781e-09, 6.666672e-10
315.113431, 1525704827.821000, -1.598550e-09, 4.125047e-10
315.113431, 1525704827.821000, 8.899252e-10, 3.668841e-10
315.113431, 1525704827.821000, 4.536989e-09, -6.411157e-10
315.113431, 1525704827.821000, 5.961371e-09, -5.980069e-10
355.734159, 1525704868.191000, -4.718365e-09, -4.420719e-09
355.734159, 1525704868.191000, -1.427224e-09, -6.007420e-09
355.734159, 1525704868.191000, -2.616877e-09, -5.306248e-09
355.734159, 1525704868.191000, 2.214287e-09, -4.860675e-09
355.734159, 1525704868.191000, 2.520847e-09, -5.016631e-09
355.734159, 1525704868.191000, 3.554172e-09, -1.553794e-09
355.734159, 1525704868.191000, 5.620944e-09, -4.282941e-10
355.734159, 1525704868.191000, 5.558251e-09, 5.675103e-10
355.734159, 1525704868.191000, -1.401388e-09, 5.888554e-10
355.734159, 1525704868.191000, 6.307626e-10, 1.049995e-09
355.734159, 1525704868.191000, -4.718365e-09, -4.420719e-09
355.734159, 1525704868.191000, -1.427224e-09, -6.007420e-09
355.734159, 1525704868.191000, -2.616877e-09, -5.306248e-09
355.734159, 1525704868.191000, 2.214287e-09, -4.860675e-09
355.734159, 1525704868.201000, 2.520847e-09, -5.016631e-09
355.734159, 1525704868.201000, 3.554172e-09, -1.553794e-09
355.734159, 1525704868.201000, 5.620944e-09, -4.282941e-10
355.734159, 1525704868.201000, 5.558251e-09, 5.675103e-10
355.734159, 1525704868.201000, -1.401388e-09, 5.888554e-10
355.734159, 1525704868.201000, 6.307626e-10, 1.049995e-09
396.520325, 1525704909.171000, 3.401457e-09, -4.417444e-09
396.520325, 1525704909.171000, 1.528330e-09, -4.466082e-09
396.520325, 1525704909.171000, 6.762493e-10, -4.129884e-09
396.520325, 1525704909.171000, -6.967776e-10, -2.017252e-09
396.520325, 1525704909.171000, -2.022073e-09, -1.462193e-09
396.520325, 1525704909.171000, -4.129570e-09, 1.466488e-09
396.520325, 1525704909.171000, -3.381207e-10, 5.587790e-10
396.520325, 1525704909.171000, 6.866700e-10, 8.400582e-10
396.520325, 1525704909.171000, 8.550145e-10, 9.372145e-10
396.520325, 1525704909.171000, 2.452220e-09, 3.051776e-09
396.520325, 1525704909.171000, 3.401457e-09, -4.417444e-09
396.520325, 1525704909.171000, 1.528330e-09, -4.466082e-09
396.520325, 1525704909.171000, 6.762493e-10, -4.129884e-09
396.520325, 1525704909.171000, -6.967776e-10, -2.017252e-09
396.520325, 1525704909.181000, -2.022073e-09, -1.462193e-09
396.520325, 1525704909.181000, -4.129570e-09, 1.466488e-09
396.520325, 1525704909.181000, -3.381207e-10, 5.587790e-10
396.520325, 1525704909.181000, 6.866700e-10, 8.400582e-10
396.520325, 1525704909.181000, 8.550145e-10, 9.372145e-10
396.520325, 1525704909.181000, 2.452220e-09, 3.051776e-09
437.637980, 1525704950.251000, 5.567443e-09, 2.504937e-09
437.637980, 1525704950.251000, 8.029669e-09, 4.476083e-10
437.637980, 1525704950.251000, 7.933129e-09, -2.612083e-09
437.637980, 1525704950.251000, 6.585601e-09, -3.855181e-09
437.637980, 1525704950.251000, 3.988189e-09, -3.478915e-09
437.637980, 1525704950.251000, 9.105338e-10, -4.271277e-09
437.637980, 1525704950.251000, -2.167441e-09, -2.787325e-09
437.637980, 1525704950.251000, -4.604213e-09, -2.997069e-09
437.637980, 1525704950.251000, -3.321749e-09, -3.215639e-09
437.637980, 1525704950.251000, -1.621902e-09, -2.612666e-09
437.637980, 1525704950.251000, 5.567443e-09, 2.504937e-09
437.637980, 1525704950.251000, 8.029669e-09, 4.476083e-10
437.637980, 1525704950.251000, 7.933129e-09, -2.612083e-09
437.637980, 1525704950.261000, 6.585601e-09, -3.855181e-09
437.637980, 1525704950.261000, 3.988189e-09, -3.478915e-09
437.637980, 1525704950.261000, 9.105338e-10, -4.271277e-09
437.637980, 1525704950.261000, -2.167441e-09, -2.787325e-09
437.637980, 1525704950.261000, -4.604213e-09, -2.997069e-09
437.637980, 1525704950.261000, -3.321749e-09, -3.215639e-09
437.637980, 1525704950.261000, -1.621902e-09, -2.612666e-09
478.535107, 1525704991.311000, -1.473825e-09, 1.422204e-09
478.535107, 1525704991.311000, -1.334401e-09, 2.982938e-09
478.535107, 1525704991.311000, -3.379260e-10, -1.325208e-09
478.535107, 1525704991.311000, 1.203566e-10, -9.040480e-10
478.535107, 1525704991.311000, 2.834550e-11, -6.637382e-11
478.535107, 1525704991.311000, 2.378583e-09, 1.644096e-09
478.535107, 1525704991.311000, 2.755198e-09, -1.359457e-09
478.535107, 1525704991.311000, 1.533645e-09, -1.233986e-09
478.535107, 1525704991.311000, 1.295918e-09, -3.139925e-09
478.535107, 1525704991.311000, 2.493177e-09, -4.587490e-09
478.535107, 1525704991.311000, -1.473825e-09, 1.422204e-09
478.535107, 1525704991.311000, -1.334401e-09, 2.982938e-09
478.535107, 1525704991.311000, -3.379260e-10, -1.325208e-09
478.535107, 1525704991.311000, 1.203566e-10, -9.040480e-10
478.535107, 1525704991.321000, 2.834550e-11, -6.637382e-11
478.535107, 1525704991.321000, 2.378583e-09, 1.644096e-09
478.535107, 1525704991.321000, 2.755198e-09, -1.359457e-09
478.535107, 1525704991.321000, 1.533645e-09, -1.233986e-09
478.535107, 1525704991.321000, 1.295918e-09, -3.139925e-09
478.535107, 1525704991.321000, 2.493177e-09, -4.587490e-09
519.516324, 1525705032.211000, 2.357263e-09, 1.237368e-09
519.516324, 1525705032.211000, 3.559654e-09, 2.118504e-09
519.516324, 1525705032.211000, 1.142905e-09, 1.509740e-09
519.516324, 1525705032.221000, -2.742314e-09, 1.716354e-09
519.516324, 1525705032.221000, -2.195439e-09, 1.147207e-09
519.516324, 1525705032.221000, 8.692880e-11, 6.354713e-10
519.516324, 1525705032.221000, 2.699096e-10, 1.714975e-09
519.516324, 1525705032.221000, 1.675218e-09, 1.120702e-09
519.516324, 1525705032.221000, 2.502274e-09, 1.609953e-09
519.516324, 1525705032.221000, 1.726068e-10, 2.245467e-09
560.492585, 1525705072.791000, -8.896617e-10, -9.484693e-10
560.492585, 1525705072.791000, -4.505495e-10, -6.609324e-10
560.492585, 1525705072.791000, 8.148123e-10, 6.856797e-10
560.492585, 1525705072.791000, 1.256737e-09, 1.795180e-09
560.492585, 1525705072.791000, 2.094918e-09, 3.046870e-09
560.492585, 1525705072.791000, 2.130215e-09, 3.346819e-09
560.492585, 1525705072.791000, 2.545882e-09, 2.418310e-09
560.492585, 1525705072.791000, 1.487150e-09, 3.279309e-09
560.492585, 1525705072.801000, -9.911114e-10, 2.047605e-09
560.492585, 1525705072.801000, -1.316135e-09, 1.931992e-09
560.492585, 1525705072.801000, -8.896617e-10, -9.484693e-10
560.492585, 1525705072.801000, -4.505495e-10, -6.609324e-10
560.492585, 1525705072.801000, 8.148123e-10, 6.856797e-10
560.492585, 1525705072.801000, 1.256737e-09, 1.795180e-09
560.492585, 1525705072.801000, 2.094918e-09, 3.046870e-09
560.492585, 1525705072.801000, 2.130215e-09, 3.346819e-09
560.492585, 1525705072.801000, 2.545882e-09, 2.418310e-09
560.492585, 1525705072.801000, 1.487150e-09, 3.279309e-09
560.492585, 1525705072.801000, -9.911114e-10, 2.047605e-09
560.492585, 1525705072.801000, -1.316135e-09, 1.931992e-09
600.999936, 1525705113.211000, 3.391864e-10, -1.628845e-09
600.999936, 1525705113.211000, -8.216937e-10, -2.413145e-09
600.999936, 1525705113.211000, -1.490985e-10, 1.442238e-09
600.999936, 1525705113.221000, -4.799049e-10, 1.314483e-09
600.999936, 1525705113.221000, -1.327306e-09, 7.919707e-10
600.999936, 1525705113.221000, -5.638607e-10, 4.359637e-10
600.999936, 1525705113.221000, 1.677469e-09, 6.164976e-10
600.999936, 1525705113.221000, 2.088262e-09, -1.586762e-09
600.999936, 1525705113.221000, 3.549071e-09, -1.542551e-09
600.999936, 1525705113.221000, 3.422169e-09, -2.300846e-10
600.999936, 1525705113.221000, 3.391864e-10, -1.628845e-09
600.999936, 1525705113.221000, -8.216937e-10, -2.413145e-09
600.999936, 1525705113.221000, -1.490985e-10, 1.442238e-09
600.999936, 1525705113.221000, -4.799049e-10, 1.314483e-09
600.999936, 1525705113.221000, -1.327306e-09, 7.919707e-10
600.999936, 1525705113.221000, -5.638607e-10, 4.359637e-10
600.999936, 1525705113.221000, 1.677469e-09, 6.164976e-10
600.999936, 1525705113.231000, 2.088262e-09, -1.586762e-09
600.999936, 1525705113.231000, 3.549071e-09, -1.542551e-09
600.999936, 1525705113.231000, 3.422169e-09, -2.300846e-10
641.593672, 1525705154.241000, 1.021187e-09, 2.299282e-09
641.593672, 1525705154.241000, -9.536084e-10, 5.270021e-09
641.593672, 1525705154.241000, -4.175859e-10, 4.727578e-09
641.593672, 1525705154.241000, -1.723111e-09, 3.601877e-09
641.593672, 1525705154.241000, 5.687989e-10, 8.342172e-10
641.593672, 1525705154.241000, 2.633365e-09, -1.390186e-09
641.593672, 1525705154.241000, 4.053692e-09, -3.376620e-09
641.593672, 1525705154.241000, 4.779265e-09, -3.625419e-09
641.593672, 1525705154.241000, 4.031344e-09, -3.220555e-09
641.593672, 1525705154.241000, 1.184134e-09, -1.617785e-09
641.593672, 1525705154.241000, 1.021187e-09, 2.299282e-09
641.593672, 1525705154.251000, -9.536084e-10, 5.270021e-09
641.593672, 1525705154.251000, -4.175859e-10, 4.727578e-09
641.593672, 1525705154.251000, -1.723111e-09, 3.601877e-09
641.593672, 1525705154.251000, 5.687989e-10, 8.342172e-10
641.593672, 1525705154.251000, 2.633365e-09, -1.390186e-09
641.593672, 1525705154.251000, 4.053692e-09, -3.376620e-09
641.593672, 1525705154.251000, 4.779265e-09, -3.625419e-09
641.593672, 1525705154.251000, 4.031344e-09, -3.220555e-09
641.593672, 1525705154.251000, 1.184134e-09, -1.617785e-09
682.482852, 1525705194.721000, 1.575050e-10, -5.565864e-09
682.482852, 1525705194.721000, -2.581532e-09, -2.317064e-09
682.482852, 1525705194.721000, -5.571072e-09, -4.201349e-09
682.482852, 1525705194.721000, -2.223693e-09, -1.665786e-09
682.482852, 1525705194.721000, -1.312672e-09, -2.021440e-09
682.482852, 1525705194.721000, 3.861558e-09, 3.018183e-10
682.482852, 1525705194.731000, 6.196209e-09, 7.510377e-10
682.482852, 1525705194.731000, 7.496044e-09, 1.647307e-09
682.482852, 1525705194.731000, 2.165064e-09, 2.683175e-09
682.482852, 1525705194.731000, 3.066690e-09, 2.822282e-09
682.482852, 1525705194.731000, 1.575050e-10, -5.565864e-09
682.482852, 1525705194.731000, -2.581532e-09, -2.317064e-09
682.482852, 1525705194.731000, -5.571072e-09, -4.201349e-09
682.482852, 1525705194.731000, -2.223693e-09, -1.665786e-09
682.482852, 1525705194.731000, -1.312672e-09, -2.021440e-09
682.482852, 1525705194.731000, 3.861558e-09, 3.018183e-10
682.482852, 1525705194.731000, 6.196209e-09, 7.510377e-10
682.482852, 1525705194.731000, 7.496044e-09, 1.647307e-09
682.482852, 1525705194.731000, 2.165064e-09, 2.683175e-09
682.482852, 1525705194.731000, 3.066690e-09, 2.822282e-09
