29.245727, 1525704543.240000, 5.418211e-18
71.159562, 1525704583.610000, -2.291387e-17
111.340503, 1525704623.740000, -4.466943e-18
152.134001, 1525704664.831000, 1.385346e-17
192.595517, 1525704705.421000, -2.339327e-17
233.655910, 1525704746.371000, -4.880451e-19
274.691973, 1525704787.571000, -2.530485e-17
315.113431, 1525704827.821000, -7.344794e-18
355.734159, 1525704868.191000, -3.451669e-17
396.520325, 1525704909.171000, -1.121390e-17
437.637980, 1525704950.251000, -2.315698e-17
478.535107, 1525704991.311000, 4.961074e-17
560.492585, 1525705072.801000, 6.903027e-18
600.999936, 1525705113.221000, 4.659123e-18
641.593672, 1525705154.241000, 3.512842e-17
682.482852, 1525705194.731000, -4.059970e-17
