28.546171, 1511349439.094000, 7.289012e-21
68.511171, 1511349478.644000, -8.395650e-21
107.699814, 1511349517.764000, -6.576225e-21
146.728100, 1511349556.836000, -9.080837e-21
185.629860, 1511349595.818000, 2.215212e-19
224.988406, 1511349635.340000, 5.676400e-20
264.585912, 1511349674.841000, -3.972003e-20
303.484477, 1511349713.843000, 8.306716e-19
342.528655, 1511349752.795000, -6.672208e-20
381.558415, 1511349791.836000, 4.644729e-19
421.443174, 1511349831.327000, 3.676647e-19
459.955528, 1511349869.858000, 7.346871e-19
498.430853, 1511349908.309000, 1.210962e-18
536.923259, 1511349946.820000, 1.484682e-19
575.467233, 1511349985.822000, 6.565181e-19
