5.875934e+01,9.858819e+00
9.125756e+01,5.256051e+00
8.817346e+01,7.043060e+00
9.207703e+01,8.984641e+00
8.604473e+01,9.101716e+00
5.547259e+01,6.623631e+00
7.141743e+01,5.048549e+00
7.200460e+01,9.152942e+00
9.324724e+01,7.890584e+00
7.149810e+01,8.179104e+00
5.469697e+01,6.575758e+00
5.601010e+01,6.575758e+00
4.813131e+01,6.696970e+00
6.060606e+01,6.272727e+00
9.343434e+01,5.000000e+00
5.535354e+01,7.363636e+00
5.469697e+01,7.545455e+00
5.666667e+01,7.181818e+00
5.666667e+01,7.181818e+00
