28.415140, 1518791857.365000, 7.262948e-11, 3.959118e-10
28.415140, 1518791857.366000, 2.151149e-10, 3.136369e-10
28.415140, 1518791857.367000, -8.088068e-11, 2.297957e-10
28.415140, 1518791857.368000, -1.192852e-10, 1.544419e-10
28.415140, 1518791857.368000, -9.029212e-11, 5.682366e-11
28.415140, 1518791857.369000, -2.197436e-10, 7.342069e-11
28.415140, 1518791857.370000, -3.288868e-10, 2.407235e-11
28.415140, 1518791857.370000, -2.201678e-10, -9.383869e-11
28.415140, 1518791857.371000, -2.453179e-10, 3.719983e-11
28.415140, 1518791857.372000, -2.390190e-10, 4.168979e-11
28.415140, 1518791857.373000, 7.262948e-11, 3.959118e-10
28.415140, 1518791857.374000, 2.151149e-10, 3.136369e-10
28.415140, 1518791857.375000, -8.088068e-11, 2.297957e-10
28.415140, 1518791857.376000, -1.192852e-10, 1.544419e-10
28.415140, 1518791857.377000, -9.029212e-11, 5.682366e-11
28.415140, 1518791857.377000, -2.197436e-10, 7.342069e-11
28.415140, 1518791857.378000, -3.288868e-10, 2.407235e-11
28.415140, 1518791857.379000, -2.201678e-10, -9.383869e-11
28.415140, 1518791857.379000, -2.453179e-10, 3.719983e-11
28.415140, 1518791857.380000, -2.390190e-10, 4.168979e-11
67.549102, 1518791896.739000, -1.509870e-10, 6.642381e-11
67.549102, 1518791896.740000, -1.953439e-10, 1.099980e-11
67.549102, 1518791896.741000, -7.496925e-11, -1.861777e-11
67.549102, 1518791896.741000, 1.740494e-12, -2.520492e-11
67.549102, 1518791896.742000, 6.442307e-11, 9.407086e-12
67.549102, 1518791896.743000, 1.289820e-10, 1.494605e-10
67.549102, 1518791896.743000, -8.478566e-12, 6.780754e-11
67.549102, 1518791896.744000, -9.269049e-11, -9.220174e-11
67.549102, 1518791896.745000, -1.243767e-10, -9.382713e-11
67.549102, 1518791896.746000, -7.659175e-11, 1.010683e-10
67.549102, 1518791896.747000, -1.509870e-10, 6.642381e-11
67.549102, 1518791896.747000, -1.953439e-10, 1.099980e-11
67.549102, 1518791896.748000, -7.496925e-11, -1.861777e-11
67.549102, 1518791896.749000, 1.740494e-12, -2.520492e-11
67.549102, 1518791896.749000, 6.442307e-11, 9.407086e-12
67.549102, 1518791896.750000, 1.289820e-10, 1.494605e-10
67.549102, 1518791896.750000, -8.478566e-12, 6.780754e-11
67.549102, 1518791896.751000, -9.269049e-11, -9.220174e-11
67.549102, 1518791896.752000, -1.243767e-10, -9.382713e-11
67.549102, 1518791896.752000, -7.659175e-11, 1.010683e-10
106.463724, 1518791935.350000, 2.713642e-11, -5.553947e-10
106.463724, 1518791935.351000, 1.969022e-12, -6.659671e-10
106.463724, 1518791935.352000, 9.430037e-11, -3.881151e-10
106.463724, 1518791935.353000, 6.727686e-11, -1.821735e-10
106.463724, 1518791935.354000, 1.500474e-10, -1.006677e-11
106.463724, 1518791935.354000, 6.129547e-11, 1.713769e-10
106.463724, 1518791935.355000, 2.354934e-10, 2.086546e-10
106.463724, 1518791935.356000, 3.197977e-10, 1.652112e-10
106.463724, 1518791935.356000, 2.910204e-10, -8.503600e-11
106.463724, 1518791935.357000, 4.050532e-10, -2.331485e-10
145.318420, 1518791974.353000, 2.697525e-10, -2.676965e-11
145.318420, 1518791974.354000, 4.482490e-10, 6.707644e-11
145.318420, 1518791974.355000, 4.775992e-10, 2.333718e-11
145.318420, 1518791974.355000, 4.640695e-10, 9.950988e-11
145.318420, 1518791974.356000, 1.628365e-10, 2.489661e-10
145.318420, 1518791974.357000, 1.324362e-10, 1.891349e-10
145.318420, 1518791974.357000, -6.197877e-11, 2.163421e-10
145.318420, 1518791974.358000, -5.975534e-11, 1.089269e-10
145.318420, 1518791974.359000, -2.500848e-10, -2.016953e-10
145.318420, 1518791974.359000, -3.475159e-10, -2.121716e-10
145.318420, 1518791974.361000, 2.697525e-10, -2.676965e-11
145.318420, 1518791974.361000, 4.482490e-10, 6.707644e-11
145.318420, 1518791974.362000, 4.775992e-10, 2.333718e-11
145.318420, 1518791974.363000, 4.640695e-10, 9.950988e-11
145.318420, 1518791974.363000, 1.628365e-10, 2.489661e-10
145.318420, 1518791974.364000, 1.324362e-10, 1.891349e-10
145.318420, 1518791974.364000, -6.197877e-11, 2.163421e-10
145.318420, 1518791974.365000, -5.975534e-11, 1.089269e-10
145.318420, 1518791974.366000, -2.500848e-10, -2.016953e-10
145.318420, 1518791974.366000, -3.475159e-10, -2.121716e-10
184.285266, 1518792013.363000, 1.904379e-11, 1.940504e-10
184.285266, 1518792013.364000, 4.246789e-12, 1.758291e-10
184.285266, 1518792013.364000, -3.625897e-11, 2.884353e-11
184.285266, 1518792013.365000, -9.950290e-11, -1.001134e-13
184.285266, 1518792013.366000, -5.130832e-11, -3.985876e-11
184.285266, 1518792013.366000, 1.036578e-10, -6.547285e-11
184.285266, 1518792013.367000, 2.431596e-11, -6.092335e-11
184.285266, 1518792013.368000, 3.953694e-11, -6.286767e-11
184.285266, 1518792013.368000, 3.526287e-11, -7.853458e-12
184.285266, 1518792013.369000, 5.526456e-11, -1.629989e-11
184.285266, 1518792013.370000, 1.904379e-11, 1.940504e-10
184.285266, 1518792013.371000, 4.246789e-12, 1.758291e-10
184.285266, 1518792013.372000, -3.625897e-11, 2.884353e-11
184.285266, 1518792013.372000, -9.950290e-11, -1.001134e-13
184.285266, 1518792013.373000, -5.130832e-11, -3.985876e-11
184.285266, 1518792013.373000, 1.036578e-10, -6.547285e-11
184.285266, 1518792013.374000, 2.431596e-11, -6.092335e-11
184.285266, 1518792013.375000, 3.953694e-11, -6.286767e-11
184.285266, 1518792013.375000, 3.526287e-11, -7.853458e-12
184.285266, 1518792013.376000, 5.526456e-11, -1.629989e-11
223.605760, 1518792052.865000, 8.736314e-11, 3.648126e-10
223.605760, 1518792052.866000, 1.108516e-10, 3.110473e-10
223.605760, 1518792052.867000, 4.287842e-11, 1.798516e-10
223.605760, 1518792052.867000, 1.080650e-10, 1.301863e-10
223.605760, 1518792052.868000, 1.188956e-10, 9.353410e-11
223.605760, 1518792052.869000, 5.957969e-11, 2.187035e-10
223.605760, 1518792052.870000, -7.070202e-11, -2.580962e-11
223.605760, 1518792052.870000, -1.135803e-10, -1.016486e-10
223.605760, 1518792052.871000, -1.751636e-10, -1.152291e-10
223.605760, 1518792052.872000, -1.773626e-10, -2.772176e-10
223.605760, 1518792052.873000, 8.736314e-11, 3.648126e-10
223.605760, 1518792052.873000, 1.108516e-10, 3.110473e-10
223.605760, 1518792052.874000, 4.287842e-11, 1.798516e-10
223.605760, 1518792052.875000, 1.080650e-10, 1.301863e-10
223.605760, 1518792052.875000, 1.188956e-10, 9.353410e-11
223.605760, 1518792052.876000, 5.957969e-11, 2.187035e-10
223.605760, 1518792052.877000, -7.070202e-11, -2.580962e-11
223.605760, 1518792052.877000, -1.135803e-10, -1.016486e-10
223.605760, 1518792052.878000, -1.751636e-10, -1.152291e-10
223.605760, 1518792052.879000, -1.773626e-10, -2.772176e-10
263.071826, 1518792092.362000, 1.405205e-10, 7.474473e-11
263.071826, 1518792092.362000, 2.153779e-10, 5.943715e-11
263.071826, 1518792092.363000, -5.508747e-11, 9.566523e-11
263.071826, 1518792092.364000, -3.852979e-11, 1.416487e-10
263.071826, 1518792092.364000, -1.752576e-10, 2.460309e-10
263.071826, 1518792092.365000, -6.441680e-11, 1.580257e-11
263.071826, 1518792092.366000, -2.319140e-10, 1.614617e-11
263.071826, 1518792092.367000, -5.847224e-11, 4.039683e-11
263.071826, 1518792092.367000, -8.698129e-11, 8.609057e-11
263.071826, 1518792092.368000, -8.553526e-11, 5.352055e-11
263.071826, 1518792092.369000, 1.405205e-10, 7.474473e-11
263.071826, 1518792092.370000, 2.153779e-10, 5.943715e-11
263.071826, 1518792092.371000, -5.508747e-11, 9.566523e-11
263.071826, 1518792092.371000, -3.852979e-11, 1.416487e-10
263.071826, 1518792092.372000, -1.752576e-10, 2.460309e-10
263.071826, 1518792092.373000, -6.441680e-11, 1.580257e-11
263.071826, 1518792092.373000, -2.319140e-10, 1.614617e-11
263.071826, 1518792092.374000, -5.847224e-11, 4.039683e-11
263.071826, 1518792092.375000, -8.698129e-11, 8.609057e-11
263.071826, 1518792092.375000, -8.553526e-11, 5.352055e-11
302.586552, 1518792131.900000, 2.008715e-10, 8.198715e-11
302.586552, 1518792131.901000, 2.602001e-10, 1.840108e-10
302.586552, 1518792131.902000, 1.683343e-10, 2.281865e-10
302.586552, 1518792131.902000, 2.402541e-10, 2.644624e-10
302.586552, 1518792131.903000, 1.883457e-10, 1.505512e-10
302.586552, 1518792131.904000, 2.644808e-10, 4.000694e-11
302.586552, 1518792131.904000, 1.126296e-10, -2.513064e-10
302.586552, 1518792131.905000, 3.062500e-10, -2.082322e-10
302.586552, 1518792131.906000, 1.542589e-10, -4.013723e-10
302.586552, 1518792131.906000, 2.084337e-10, -4.446744e-10
341.914419, 1518792170.896000, -4.464304e-11, -3.129161e-10
341.914419, 1518792170.897000, -1.521747e-10, -1.563298e-10
341.914419, 1518792170.897000, -3.445335e-10, -3.505016e-11
341.914419, 1518792170.898000, -3.370735e-10, 6.150836e-10
341.914419, 1518792170.899000, 1.767081e-10, 1.478267e-09
341.914419, 1518792170.899000, -4.941758e-11, 1.318960e-09
341.914419, 1518792170.900000, -2.013558e-11, 1.176870e-09
341.914419, 1518792170.901000, 2.830773e-10, 1.005416e-09
341.914419, 1518792170.901000, 3.500518e-10, 7.618126e-11
341.914419, 1518792170.902000, 1.370721e-10, -1.100049e-09
341.914419, 1518792170.903000, -4.464304e-11, -3.129161e-10
341.914419, 1518792170.904000, -1.521747e-10, -1.563298e-10
341.914419, 1518792170.905000, -3.445335e-10, -3.505016e-11
341.914419, 1518792170.905000, -3.370735e-10, 6.150836e-10
341.914419, 1518792170.906000, 1.767081e-10, 1.478267e-09
341.914419, 1518792170.907000, -4.941758e-11, 1.318960e-09
341.914419, 1518792170.907000, -2.013558e-11, 1.176870e-09
341.914419, 1518792170.908000, 2.830773e-10, 1.005416e-09
341.914419, 1518792170.908000, 3.500518e-10, 7.618126e-11
341.914419, 1518792170.909000, 1.370721e-10, -1.100049e-09
380.480471, 1518792209.389000, -1.879935e-10, 1.377078e-10
380.480471, 1518792209.390000, -1.533941e-10, 1.012482e-10
380.480471, 1518792209.390000, -1.117963e-11, 1.896952e-10
380.480471, 1518792209.391000, -2.111861e-11, 2.016280e-10
380.480471, 1518792209.392000, -1.298892e-11, 1.567447e-10
380.480471, 1518792209.392000, -3.918431e-11, -5.985509e-12
380.480471, 1518792209.393000, 3.055408e-12, -1.681463e-11
380.480471, 1518792209.394000, 7.204491e-11, -6.616448e-11
380.480471, 1518792209.394000, 7.432052e-11, -7.702693e-11
380.480471, 1518792209.395000, 1.426757e-11, -8.729563e-11
380.480471, 1518792209.396000, -1.879935e-10, 1.377078e-10
380.480471, 1518792209.397000, -1.533941e-10, 1.012482e-10
380.480471, 1518792209.398000, -1.117963e-11, 1.896952e-10
380.480471, 1518792209.398000, -2.111861e-11, 2.016280e-10
380.480471, 1518792209.399000, -1.298892e-11, 1.567447e-10
380.480471, 1518792209.400000, -3.918431e-11, -5.985509e-12
380.480471, 1518792209.400000, 3.055408e-12, -1.681463e-11
380.480471, 1518792209.401000, 7.204491e-11, -6.616448e-11
380.480471, 1518792209.401000, 7.432052e-11, -7.702693e-11
380.480471, 1518792209.402000, 1.426757e-11, -8.729563e-11
419.608658, 1518792248.870000, 3.352281e-10, 1.090060e-11
419.608658, 1518792248.871000, 1.237500e-10, -3.253338e-11
419.608658, 1518792248.872000, 4.730433e-11, -7.519365e-11
419.608658, 1518792248.873000, -2.565376e-10, -1.137942e-10
419.608658, 1518792248.873000, -2.352019e-10, -1.846840e-11
419.608658, 1518792248.874000, -3.767403e-10, 4.220730e-11
419.608658, 1518792248.875000, -3.456025e-10, 6.487255e-11
419.608658, 1518792248.875000, -2.824435e-10, 1.890594e-10
419.608658, 1518792248.876000, -1.026982e-10, 1.116990e-10
419.608658, 1518792248.877000, -4.539036e-11, 1.175037e-10
419.608658, 1518792248.878000, 3.352281e-10, 1.090060e-11
419.608658, 1518792248.879000, 1.237500e-10, -3.253338e-11
419.608658, 1518792248.879000, 4.730433e-11, -7.519365e-11
419.608658, 1518792248.880000, -2.565376e-10, -1.137942e-10
419.608658, 1518792248.880000, -2.352019e-10, -1.846840e-11
419.608658, 1518792248.881000, -3.767403e-10, 4.220730e-11
419.608658, 1518792248.882000, -3.456025e-10, 6.487255e-11
419.608658, 1518792248.882000, -2.824435e-10, 1.890594e-10
419.608658, 1518792248.883000, -1.026982e-10, 1.116990e-10
419.608658, 1518792248.884000, -4.539036e-11, 1.175037e-10
459.081359, 1518792288.388000, -6.128104e-10, 1.625111e-10
459.081359, 1518792288.388000, -5.537990e-10, 2.181448e-10
459.081359, 1518792288.389000, -3.705684e-10, 4.361378e-11
459.081359, 1518792288.390000, -1.975858e-10, 1.283984e-10
459.081359, 1518792288.390000, -2.817355e-11, -1.956753e-12
459.081359, 1518792288.391000, 2.055490e-10, -7.726137e-11
459.081359, 1518792288.392000, 8.307720e-11, -2.915531e-10
459.081359, 1518792288.392000, 2.129215e-10, -2.169874e-10
459.081359, 1518792288.393000, 1.071649e-10, -1.479791e-10
459.081359, 1518792288.394000, 4.693048e-11, -1.017094e-11
459.081359, 1518792288.395000, -6.128104e-10, 1.625111e-10
459.081359, 1518792288.396000, -5.537990e-10, 2.181448e-10
459.081359, 1518792288.396000, -3.705684e-10, 4.361378e-11
459.081359, 1518792288.397000, -1.975858e-10, 1.283984e-10
459.081359, 1518792288.398000, -2.817355e-11, -1.956753e-12
459.081359, 1518792288.398000, 2.055490e-10, -7.726137e-11
459.081359, 1518792288.399000, 8.307720e-11, -2.915531e-10
459.081359, 1518792288.400000, 2.129215e-10, -2.169874e-10
459.081359, 1518792288.400000, 1.071649e-10, -1.479791e-10
459.081359, 1518792288.401000, 4.693048e-11, -1.017094e-11
498.936709, 1518792327.889000, 1.119052e-10, 4.630663e-11
498.936709, 1518792327.889000, 2.361236e-10, -4.323440e-11
498.936709, 1518792327.890000, 3.405214e-10, 2.661872e-12
498.936709, 1518792327.891000, 3.958614e-10, -4.985860e-11
498.936709, 1518792327.891000, 3.392253e-10, -5.215277e-12
498.936709, 1518792327.892000, 1.701711e-10, 3.122856e-11
498.936709, 1518792327.893000, 5.403996e-11, 2.556286e-11
498.936709, 1518792327.893000, -2.148794e-10, -1.767703e-11
498.936709, 1518792327.894000, -3.146594e-10, -1.500349e-11
498.936709, 1518792327.895000, -4.337081e-10, 7.154229e-11
498.936709, 1518792327.896000, 1.119052e-10, 4.630663e-11
498.936709, 1518792327.897000, 2.361236e-10, -4.323440e-11
498.936709, 1518792327.897000, 3.405214e-10, 2.661872e-12
498.936709, 1518792327.898000, 3.958614e-10, -4.985860e-11
498.936709, 1518792327.898000, 3.392253e-10, -5.215277e-12
498.936709, 1518792327.899000, 1.701711e-10, 3.122856e-11
498.936709, 1518792327.900000, 5.403996e-11, 2.556286e-11
498.936709, 1518792327.900000, -2.148794e-10, -1.767703e-11
498.936709, 1518792327.901000, -3.146594e-10, -1.500349e-11
498.936709, 1518792327.902000, -4.337081e-10, 7.154229e-11
537.928909, 1518792366.865000, -3.559218e-11, 5.634557e-10
537.928909, 1518792366.866000, 1.874572e-10, 2.654347e-10
537.928909, 1518792366.867000, 1.972321e-10, 4.623366e-11
537.928909, 1518792366.868000, 1.771934e-10, -1.865805e-10
537.928909, 1518792366.868000, 2.917384e-11, -5.267605e-10
537.928909, 1518792366.869000, -2.707588e-10, -2.866183e-10
537.928909, 1518792366.870000, -3.936034e-10, -3.419066e-10
537.928909, 1518792366.870000, -3.941642e-10, -3.582335e-10
537.928909, 1518792366.871000, -3.031536e-10, -1.844444e-10
537.928909, 1518792366.872000, -1.276959e-10, -2.173668e-10
537.928909, 1518792366.873000, -3.559218e-11, 5.634557e-10
537.928909, 1518792366.874000, 1.874572e-10, 2.654347e-10
537.928909, 1518792366.874000, 1.972321e-10, 4.623366e-11
537.928909, 1518792366.875000, 1.771934e-10, -1.865805e-10
537.928909, 1518792366.875000, 2.917384e-11, -5.267605e-10
537.928909, 1518792366.876000, -2.707588e-10, -2.866183e-10
537.928909, 1518792366.877000, -3.936034e-10, -3.419066e-10
537.928909, 1518792366.877000, -3.941642e-10, -3.582335e-10
537.928909, 1518792366.878000, -3.031536e-10, -1.844444e-10
537.928909, 1518792366.879000, -1.276959e-10, -2.173668e-10
576.913162, 1518792405.895000, -3.593982e-10, 1.555639e-11
576.913162, 1518792405.896000, -1.473977e-10, 4.029647e-11
576.913162, 1518792405.897000, 4.020548e-11, 2.159075e-10
576.913162, 1518792405.898000, 6.725105e-11, -2.494356e-10
576.913162, 1518792405.899000, 2.335653e-10, -2.815780e-10
576.913162, 1518792405.899000, 3.682068e-10, -1.301715e-10
576.913162, 1518792405.900000, 2.379609e-10, -3.310477e-10
576.913162, 1518792405.901000, 1.632058e-10, -2.189044e-10
576.913162, 1518792405.902000, 1.610075e-10, 5.070887e-10
576.913162, 1518792405.902000, 1.522211e-10, 5.910160e-10
576.913162, 1518792405.903000, -3.593982e-10, 1.555639e-11
576.913162, 1518792405.904000, -1.473977e-10, 4.029647e-11
576.913162, 1518792405.905000, 4.020548e-11, 2.159075e-10
576.913162, 1518792405.905000, 6.725105e-11, -2.494356e-10
576.913162, 1518792405.906000, 2.335653e-10, -2.815780e-10
576.913162, 1518792405.907000, 3.682068e-10, -1.301715e-10
576.913162, 1518792405.907000, 2.379609e-10, -3.310477e-10
576.913162, 1518792405.908000, 1.632058e-10, -2.189044e-10
576.913162, 1518792405.909000, 1.610075e-10, 5.070887e-10
576.913162, 1518792405.909000, 1.522211e-10, 5.910160e-10
615.910769, 1518792444.873000, -1.846042e-10, -2.607393e-11
615.910769, 1518792444.874000, -1.986236e-10, -3.586801e-11
615.910769, 1518792444.875000, 8.023503e-10, 1.145176e-10
615.910769, 1518792444.875000, 9.663160e-10, 1.527319e-10
615.910769, 1518792444.876000, 1.090755e-09, 2.242129e-10
615.910769, 1518792444.877000, 1.127346e-09, 1.973068e-10
615.910769, 1518792444.877000, 8.843222e-10, -1.340508e-11
615.910769, 1518792444.878000, -7.583956e-10, 8.311319e-11
615.910769, 1518792444.879000, -9.580940e-10, -7.937842e-11
615.910769, 1518792444.880000, -1.062662e-09, -1.944500e-11
615.910769, 1518792444.881000, -1.846042e-10, -2.607393e-11
615.910769, 1518792444.882000, -1.986236e-10, -3.586801e-11
615.910769, 1518792444.882000, 8.023503e-10, 1.145176e-10
615.910769, 1518792444.883000, 9.663160e-10, 1.527319e-10
615.910769, 1518792444.884000, 1.090755e-09, 2.242129e-10
615.910769, 1518792444.884000, 1.127346e-09, 1.973068e-10
615.910769, 1518792444.885000, 8.843222e-10, -1.340508e-11
615.910769, 1518792444.885000, -7.583956e-10, 8.311319e-11
615.910769, 1518792444.886000, -9.580940e-10, -7.937842e-11
615.910769, 1518792444.887000, -1.062662e-09, -1.944500e-11
654.966948, 1518792483.879000, 2.951618e-10, -1.092568e-10
654.966948, 1518792483.880000, 2.320795e-10, -2.496092e-10
654.966948, 1518792483.880000, -1.266441e-10, -1.122472e-10
654.966948, 1518792483.881000, -3.080031e-10, 2.084003e-11
654.966948, 1518792483.882000, -3.907362e-10, 3.390067e-10
654.966948, 1518792483.882000, -3.454577e-10, 4.617280e-10
654.966948, 1518792483.883000, -1.140918e-10, 4.819102e-10
654.966948, 1518792483.884000, 1.344874e-10, 4.229660e-10
654.966948, 1518792483.884000, 2.773966e-10, 1.336144e-10
654.966948, 1518792483.885000, 2.927792e-10, -1.095193e-12
654.966948, 1518792483.886000, 2.951618e-10, -1.092568e-10
654.966948, 1518792483.887000, 2.320795e-10, -2.496092e-10
654.966948, 1518792483.887000, -1.266441e-10, -1.122472e-10
654.966948, 1518792483.888000, -3.080031e-10, 2.084003e-11
654.966948, 1518792483.889000, -3.907362e-10, 3.390067e-10
654.966948, 1518792483.889000, -3.454577e-10, 4.617280e-10
654.966948, 1518792483.890000, -1.140918e-10, 4.819102e-10
654.966948, 1518792483.890000, 1.344874e-10, 4.229660e-10
654.966948, 1518792483.891000, 2.773966e-10, 1.336144e-10
654.966948, 1518792483.892000, 2.927792e-10, -1.095193e-12
693.901926, 1518792522.881000, 1.851581e-10, 3.000842e-10
693.901926, 1518792522.882000, 2.010143e-10, -9.359988e-11
693.901926, 1518792522.883000, 3.653775e-10, 1.457007e-10
693.901926, 1518792522.883000, 1.352184e-10, 2.699647e-10
693.901926, 1518792522.884000, -2.979592e-10, 1.923715e-11
693.901926, 1518792522.885000, -3.700195e-10, 2.540685e-11
693.901926, 1518792522.885000, -3.949153e-10, 1.553441e-10
693.901926, 1518792522.886000, -4.744738e-10, -9.550835e-11
693.901926, 1518792522.887000, -3.399567e-10, -3.617338e-10
693.901926, 1518792522.887000, -2.275353e-10, -2.404853e-10
693.901926, 1518792522.888000, 1.851581e-10, 3.000842e-10
693.901926, 1518792522.889000, 2.010143e-10, -9.359988e-11
693.901926, 1518792522.890000, 3.653775e-10, 1.457007e-10
693.901926, 1518792522.890000, 1.352184e-10, 2.699647e-10
693.901926, 1518792522.891000, -2.979592e-10, 1.923715e-11
693.901926, 1518792522.891000, -3.700195e-10, 2.540685e-11
693.901926, 1518792522.892000, -3.949153e-10, 1.553441e-10
693.901926, 1518792522.893000, -4.744738e-10, -9.550835e-11
693.901926, 1518792522.893000, -3.399567e-10, -3.617338e-10
693.901926, 1518792522.894000, -2.275353e-10, -2.404853e-10
732.425462, 1518792561.382000, -1.861982e-10, 1.552831e-10
732.425462, 1518792561.383000, -2.702135e-10, 1.988621e-10
732.425462, 1518792561.384000, -2.742943e-10, 2.175439e-10
732.425462, 1518792561.385000, -2.208880e-10, 1.931109e-10
732.425462, 1518792561.386000, -2.613210e-11, 1.125392e-10
732.425462, 1518792561.386000, 4.248499e-11, 1.583688e-10
732.425462, 1518792561.387000, 1.688670e-11, 2.350150e-11
732.425462, 1518792561.388000, 1.299009e-11, -1.072540e-12
732.425462, 1518792561.388000, -1.307516e-11, 2.384457e-11
732.425462, 1518792561.389000, -1.527337e-10, -5.009509e-12
732.425462, 1518792561.390000, -1.861982e-10, 1.552831e-10
732.425462, 1518792561.391000, -2.702135e-10, 1.988621e-10
732.425462, 1518792561.392000, -2.742943e-10, 2.175439e-10
732.425462, 1518792561.392000, -2.208880e-10, 1.931109e-10
732.425462, 1518792561.393000, -2.613210e-11, 1.125392e-10
732.425462, 1518792561.394000, 4.248499e-11, 1.583688e-10
732.425462, 1518792561.394000, 1.688670e-11, 2.350150e-11
732.425462, 1518792561.395000, 1.299009e-11, -1.072540e-12
732.425462, 1518792561.396000, -1.307516e-11, 2.384457e-11
732.425462, 1518792561.396000, -1.527337e-10, -5.009509e-12
771.436216, 1518792600.360000, -1.002146e-09, 3.077033e-10
771.436216, 1518792600.361000, -5.846137e-10, 3.629657e-10
771.436216, 1518792600.362000, 9.251372e-11, 3.033316e-10
771.436216, 1518792600.363000, -1.134383e-10, 3.423316e-10
771.436216, 1518792600.363000, 3.778791e-12, 1.451039e-10
771.436216, 1518792600.364000, 1.098930e-10, 1.398770e-11
771.436216, 1518792600.365000, 1.376753e-10, -4.143612e-11
771.436216, 1518792600.365000, 1.871653e-11, -3.108542e-10
771.436216, 1518792600.366000, -1.033214e-10, -2.820082e-10
771.436216, 1518792600.367000, -2.032919e-10, -9.158599e-11
771.436216, 1518792600.368000, -1.002146e-09, 3.077033e-10
771.436216, 1518792600.368000, -5.846137e-10, 3.629657e-10
771.436216, 1518792600.369000, 9.251372e-11, 3.033316e-10
771.436216, 1518792600.370000, -1.134383e-10, 3.423316e-10
771.436216, 1518792600.370000, 3.778791e-12, 1.451039e-10
771.436216, 1518792600.371000, 1.098930e-10, 1.398770e-11
771.436216, 1518792600.372000, 1.376753e-10, -4.143612e-11
771.436216, 1518792600.372000, 1.871653e-11, -3.108542e-10
771.436216, 1518792600.373000, -1.033214e-10, -2.820082e-10
771.436216, 1518792600.374000, -2.032919e-10, -9.158599e-11
810.216858, 1518792639.382000, 2.751804e-12, 3.363824e-10
810.216858, 1518792639.383000, 1.487224e-10, 2.425337e-10
810.216858, 1518792639.384000, 2.953075e-10, 2.047171e-10
810.216858, 1518792639.385000, 4.079812e-10, -9.232318e-11
810.216858, 1518792639.385000, 3.105122e-10, -1.664419e-10
810.216858, 1518792639.386000, 1.158831e-10, -3.077226e-10
810.216858, 1518792639.387000, -1.071166e-11, -3.281377e-10
810.216858, 1518792639.387000, -2.712331e-10, -2.286923e-10
810.216858, 1518792639.388000, -3.130022e-10, -5.811869e-11
810.216858, 1518792639.389000, -1.581780e-10, -4.380592e-11
810.216858, 1518792639.390000, 2.751804e-12, 3.363824e-10
810.216858, 1518792639.390000, 1.487224e-10, 2.425337e-10
810.216858, 1518792639.391000, 2.953075e-10, 2.047171e-10
810.216858, 1518792639.392000, 4.079812e-10, -9.232318e-11
810.216858, 1518792639.392000, 3.105122e-10, -1.664419e-10
810.216858, 1518792639.393000, 1.158831e-10, -3.077226e-10
810.216858, 1518792639.394000, -1.071166e-11, -3.281377e-10
810.216858, 1518792639.394000, -2.712331e-10, -2.286923e-10
810.216858, 1518792639.395000, -3.130022e-10, -5.811869e-11
810.216858, 1518792639.395000, -1.581780e-10, -4.380592e-11
849.631519, 1518792678.886000, -4.168406e-11, 1.524640e-10
849.631519, 1518792678.887000, -1.096478e-10, 5.248314e-11
849.631519, 1518792678.888000, -4.108374e-11, -7.105255e-12
849.631519, 1518792678.888000, 6.101150e-11, -1.196648e-10
849.631519, 1518792678.889000, 1.534419e-10, -8.616592e-11
849.631519, 1518792678.890000, 1.630979e-10, 4.339010e-11
849.631519, 1518792678.890000, 1.791705e-10, 1.518803e-10
849.631519, 1518792678.891000, 7.916022e-12, 3.593240e-10
849.631519, 1518792678.892000, -1.918606e-11, 4.391683e-10
849.631519, 1518792678.892000, -2.082244e-11, 3.833448e-10
849.631519, 1518792678.894000, -4.168406e-11, 1.524640e-10
849.631519, 1518792678.894000, -1.096478e-10, 5.248314e-11
849.631519, 1518792678.895000, -4.108374e-11, -7.105255e-12
849.631519, 1518792678.895000, 6.101150e-11, -1.196648e-10
849.631519, 1518792678.896000, 1.534419e-10, -8.616592e-11
849.631519, 1518792678.897000, 1.630979e-10, 4.339010e-11
849.631519, 1518792678.897000, 1.791705e-10, 1.518803e-10
849.631519, 1518792678.898000, 7.916022e-12, 3.593240e-10
849.631519, 1518792678.899000, -1.918606e-11, 4.391683e-10
849.631519, 1518792678.899000, -2.082244e-11, 3.833448e-10
888.904458, 1518792717.872000, -5.196776e-11, 1.369140e-10
888.904458, 1518792717.873000, -1.720900e-10, -2.416778e-11
888.904458, 1518792717.874000, -1.365852e-10, -1.421619e-10
888.904458, 1518792717.875000, -2.418336e-10, 9.047716e-11
888.904458, 1518792717.875000, -1.792950e-10, 1.355289e-10
888.904458, 1518792717.876000, -7.404197e-11, 1.238422e-10
888.904458, 1518792717.877000, -4.603024e-11, 2.611225e-10
888.904458, 1518792717.877000, -2.055408e-13, 2.783386e-10
888.904458, 1518792717.878000, 1.488120e-10, -9.709350e-11
888.904458, 1518792717.879000, 6.769495e-11, -2.557523e-10
888.904458, 1518792717.880000, -5.196776e-11, 1.369140e-10
888.904458, 1518792717.880000, -1.720900e-10, -2.416778e-11
888.904458, 1518792717.881000, -1.365852e-10, -1.421619e-10
888.904458, 1518792717.882000, -2.418336e-10, 9.047716e-11
888.904458, 1518792717.882000, -1.792950e-10, 1.355289e-10
888.904458, 1518792717.883000, -7.404197e-11, 1.238422e-10
888.904458, 1518792717.883000, -4.603024e-11, 2.611225e-10
888.904458, 1518792717.884000, -2.055408e-13, 2.783386e-10
888.904458, 1518792717.885000, 1.488120e-10, -9.709350e-11
888.904458, 1518792717.885000, 6.769495e-11, -2.557523e-10
927.653683, 1518792756.848000, 5.165553e-10, 8.355449e-10
927.653683, 1518792756.849000, 4.787855e-10, 6.725308e-10
927.653683, 1518792756.850000, 3.321343e-10, 3.800045e-10
927.653683, 1518792756.851000, 2.737143e-10, -1.167421e-09
927.653683, 1518792756.851000, 6.606931e-11, -1.279576e-09
927.653683, 1518792756.852000, 4.513923e-11, -1.102641e-09
927.653683, 1518792756.853000, -1.244423e-10, -8.966623e-10
927.653683, 1518792756.853000, -1.201581e-10, -6.405623e-10
927.653683, 1518792756.854000, -4.632536e-11, 2.779085e-10
927.653683, 1518792756.855000, -7.397645e-11, 2.575723e-10
927.653683, 1518792756.856000, 5.165553e-10, 8.355449e-10
927.653683, 1518792756.857000, 4.787855e-10, 6.725308e-10
927.653683, 1518792756.857000, 3.321343e-10, 3.800045e-10
927.653683, 1518792756.858000, 2.737143e-10, -1.167421e-09
927.653683, 1518792756.858000, 6.606931e-11, -1.279576e-09
927.653683, 1518792756.859000, 4.513923e-11, -1.102641e-09
927.653683, 1518792756.860000, -1.244423e-10, -8.966623e-10
927.653683, 1518792756.860000, -1.201581e-10, -6.405623e-10
927.653683, 1518792756.861000, -4.632536e-11, 2.779085e-10
927.653683, 1518792756.862000, -7.397645e-11, 2.575723e-10
966.938051, 1518792795.888000, 6.058821e-12, 2.675207e-10
966.938051, 1518792795.889000, -8.003111e-12, 4.858902e-11
966.938051, 1518792795.889000, 1.350716e-11, 4.871456e-11
966.938051, 1518792795.890000, 1.799118e-11, -1.694036e-10
966.938051, 1518792795.891000, 2.970909e-11, -2.377091e-10
966.938051, 1518792795.892000, 1.027586e-10, -1.341105e-10
966.938051, 1518792795.892000, 1.418198e-10, 5.438458e-11
966.938051, 1518792795.893000, -1.720026e-10, 2.104349e-10
966.938051, 1518792795.894000, -4.973642e-11, 4.005055e-10
966.938051, 1518792795.894000, -1.129648e-10, 3.339547e-10
966.938051, 1518792795.895000, 6.058821e-12, 2.675207e-10
966.938051, 1518792795.896000, -8.003111e-12, 4.858902e-11
966.938051, 1518792795.897000, 1.350716e-11, 4.871456e-11
966.938051, 1518792795.897000, 1.799118e-11, -1.694036e-10
966.938051, 1518792795.898000, 2.970909e-11, -2.377091e-10
966.938051, 1518792795.898000, 1.027586e-10, -1.341105e-10
966.938051, 1518792795.899000, 1.418198e-10, 5.438458e-11
966.938051, 1518792795.900000, -1.720026e-10, 2.104349e-10
966.938051, 1518792795.900000, -4.973642e-11, 4.005055e-10
966.938051, 1518792795.901000, -1.129648e-10, 3.339547e-10
1005.511066, 1518792834.371000, 3.059399e-10, 3.170458e-10
1005.511066, 1518792834.372000, 2.505612e-10, 3.010773e-10
1005.511066, 1518792834.373000, 1.321495e-10, 2.565849e-10
1005.511066, 1518792834.373000, 1.184333e-10, -1.455804e-10
1005.511066, 1518792834.374000, 1.298525e-10, -2.597967e-10
1005.511066, 1518792834.375000, 1.672870e-10, -6.156222e-10
1005.511066, 1518792834.375000, 2.358832e-10, -5.343894e-10
1005.511066, 1518792834.376000, 1.875632e-10, -2.662630e-10
1005.511066, 1518792834.377000, 1.224192e-10, 1.338886e-10
1005.511066, 1518792834.377000, 9.746892e-12, 2.055199e-10
1005.511066, 1518792834.379000, 3.059399e-10, 3.170458e-10
1005.511066, 1518792834.379000, 2.505612e-10, 3.010773e-10
1005.511066, 1518792834.380000, 1.321495e-10, 2.565849e-10
1005.511066, 1518792834.381000, 1.184333e-10, -1.455804e-10
1005.511066, 1518792834.381000, 1.298525e-10, -2.597967e-10
1005.511066, 1518792834.382000, 1.672870e-10, -6.156222e-10
1005.511066, 1518792834.382000, 2.358832e-10, -5.343894e-10
1005.511066, 1518792834.383000, 1.875632e-10, -2.662630e-10
1005.511066, 1518792834.384000, 1.224192e-10, 1.338886e-10
1005.511066, 1518792834.384000, 9.746892e-12, 2.055199e-10
1044.378788, 1518792873.358000, -1.630893e-11, 2.700692e-10
1044.378788, 1518792873.359000, 2.694347e-11, 1.460299e-10
1044.378788, 1518792873.360000, -5.995067e-11, -2.968365e-10
1044.378788, 1518792873.361000, -4.855469e-11, -4.735089e-10
1044.378788, 1518792873.361000, 4.223818e-11, -3.703853e-10
1044.378788, 1518792873.362000, -1.839573e-10, -3.409935e-10
1044.378788, 1518792873.363000, -1.308375e-10, -2.475720e-11
1044.378788, 1518792873.363000, -1.703367e-10, 2.306813e-11
1044.378788, 1518792873.364000, -2.395446e-10, 1.590920e-10
1044.378788, 1518792873.365000, -1.387968e-10, 1.979242e-10
1044.378788, 1518792873.366000, -1.630893e-11, 2.700692e-10
1044.378788, 1518792873.367000, 2.694347e-11, 1.460299e-10
1044.378788, 1518792873.367000, -5.995067e-11, -2.968365e-10
1044.378788, 1518792873.368000, -4.855469e-11, -4.735089e-10
1044.378788, 1518792873.369000, 4.223818e-11, -3.703853e-10
1044.378788, 1518792873.369000, -1.839573e-10, -3.409935e-10
1044.378788, 1518792873.370000, -1.308375e-10, -2.475720e-11
1044.378788, 1518792873.371000, -1.703367e-10, 2.306813e-11
1044.378788, 1518792873.371000, -2.395446e-10, 1.590920e-10
1044.378788, 1518792873.372000, -1.387968e-10, 1.979242e-10
1083.470316, 1518792912.368000, 1.443935e-10, -1.176291e-12
1083.470316, 1518792912.368000, -6.570834e-11, -1.119352e-10
1083.470316, 1518792912.369000, -1.995488e-10, -6.557322e-11
1083.470316, 1518792912.370000, -5.823494e-10, 6.401287e-11
1083.470316, 1518792912.370000, -5.629314e-10, 5.063814e-11
1083.470316, 1518792912.371000, -4.229183e-10, -1.761730e-11
1083.470316, 1518792912.372000, -1.039913e-10, 1.513681e-10
1083.470316, 1518792912.372000, -2.638082e-11, 2.524226e-10
1083.470316, 1518792912.373000, 3.368026e-10, 9.914755e-11
1083.470316, 1518792912.374000, 2.637250e-10, 3.499862e-11
1083.470316, 1518792912.375000, 1.443935e-10, -1.176291e-12
1083.470316, 1518792912.376000, -6.570834e-11, -1.119352e-10
1083.470316, 1518792912.376000, -1.995488e-10, -6.557322e-11
1083.470316, 1518792912.377000, -5.823494e-10, 6.401287e-11
1083.470316, 1518792912.378000, -5.629314e-10, 5.063814e-11
1083.470316, 1518792912.378000, -4.229183e-10, -1.761730e-11
1083.470316, 1518792912.379000, -1.039913e-10, 1.513681e-10
1083.470316, 1518792912.380000, -2.638082e-11, 2.524226e-10
1083.470316, 1518792912.380000, 3.368026e-10, 9.914755e-11
1083.470316, 1518792912.381000, 2.637250e-10, 3.499862e-11
1122.418811, 1518792951.413000, -1.535050e-10, 3.263843e-10
1122.418811, 1518792951.414000, -7.859576e-11, 1.097933e-10
1122.418811, 1518792951.415000, -1.400211e-10, -6.086341e-11
1122.418811, 1518792951.415000, -2.064883e-10, -1.544118e-11
1122.418811, 1518792951.416000, -9.676746e-11, -1.023793e-10
1122.418811, 1518792951.417000, -4.192500e-11, -2.406124e-11
1122.418811, 1518792951.417000, -1.496647e-10, 9.533349e-11
1122.418811, 1518792951.418000, 2.447762e-11, 2.876147e-10
1122.418811, 1518792951.419000, 1.220325e-11, 2.180572e-10
1122.418811, 1518792951.419000, -4.700915e-11, 1.364759e-10
1122.418811, 1518792951.421000, -1.535050e-10, 3.263843e-10
1122.418811, 1518792951.421000, -7.859576e-11, 1.097933e-10
1122.418811, 1518792951.422000, -1.400211e-10, -6.086341e-11
1122.418811, 1518792951.422000, -2.064883e-10, -1.544118e-11
1122.418811, 1518792951.423000, -9.676746e-11, -1.023793e-10
1122.418811, 1518792951.424000, -4.192500e-11, -2.406124e-11
1122.418811, 1518792951.424000, -1.496647e-10, 9.533349e-11
1122.418811, 1518792951.425000, 2.447762e-11, 2.876147e-10
1122.418811, 1518792951.426000, 1.220325e-11, 2.180572e-10
1122.418811, 1518792951.426000, -4.700915e-11, 1.364759e-10
1161.663652, 1518792990.875000, -1.420703e-10, 1.012459e-10
1161.663652, 1518792990.876000, 8.063880e-11, 9.858331e-11
1161.663652, 1518792990.877000, 1.974427e-10, 2.974811e-11
1161.663652, 1518792990.878000, 2.296588e-10, 2.156822e-11
1161.663652, 1518792990.878000, 2.724526e-11, -1.753807e-10
1161.663652, 1518792990.879000, 1.558516e-10, -1.102426e-10
1161.663652, 1518792990.880000, 1.372481e-10, -3.929113e-11
1161.663652, 1518792990.880000, -4.290660e-11, -1.422245e-11
1161.663652, 1518792990.881000, -2.534420e-10, 1.723690e-11
1161.663652, 1518792990.882000, -9.211881e-11, 1.481341e-11
1161.663652, 1518792990.883000, -1.420703e-10, 1.012459e-10
1161.663652, 1518792990.884000, 8.063880e-11, 9.858331e-11
1161.663652, 1518792990.884000, 1.974427e-10, 2.974811e-11
1161.663652, 1518792990.885000, 2.296588e-10, 2.156822e-11
1161.663652, 1518792990.885000, 2.724526e-11, -1.753807e-10
1161.663652, 1518792990.886000, 1.558516e-10, -1.102426e-10
1161.663652, 1518792990.887000, 1.372481e-10, -3.929113e-11
1161.663652, 1518792990.887000, -4.290660e-11, -1.422245e-11
1161.663652, 1518792990.888000, -2.534420e-10, 1.723690e-11
1161.663652, 1518792990.889000, -9.211881e-11, 1.481341e-11
1200.436429, 1518793029.425000, 1.011263e-11, -9.405144e-11
1200.436429, 1518793029.426000, -4.090674e-13, -1.977037e-10
1200.436429, 1518793029.427000, 4.213564e-11, -2.372679e-10
1200.436429, 1518793029.428000, 9.581734e-11, -1.723011e-10
1200.436429, 1518793029.428000, 6.666914e-11, 4.064045e-11
1200.436429, 1518793029.429000, 1.611279e-10, 1.525755e-11
1200.436429, 1518793029.430000, 2.263651e-10, 1.177312e-10
1200.436429, 1518793029.430000, 1.584289e-10, 4.138237e-11
1200.436429, 1518793029.431000, 9.929396e-11, -1.195261e-10
1200.436429, 1518793029.432000, 1.232130e-10, -1.866492e-12
1238.975693, 1518793067.872000, 7.377778e-11, 1.154587e-10
1238.975693, 1518793067.872000, 1.302783e-10, 4.118514e-10
1238.975693, 1518793067.873000, 2.449589e-10, 3.451364e-10
1238.975693, 1518793067.874000, 2.301387e-10, 3.573014e-10
1238.975693, 1518793067.875000, 1.176019e-10, 4.655956e-10
1238.975693, 1518793067.875000, 8.907023e-11, 1.243416e-10
1238.975693, 1518793067.876000, 4.297652e-11, -1.811383e-10
1238.975693, 1518793067.877000, -7.243996e-11, -1.207825e-10
1238.975693, 1518793067.877000, -9.840640e-11, -2.277356e-10
1238.975693, 1518793067.878000, -1.169774e-10, -4.403930e-10
1238.975693, 1518793067.879000, 7.377778e-11, 1.154587e-10
1238.975693, 1518793067.880000, 1.302783e-10, 4.118514e-10
1238.975693, 1518793067.880000, 2.449589e-10, 3.451364e-10
1238.975693, 1518793067.881000, 2.301387e-10, 3.573014e-10
1238.975693, 1518793067.882000, 1.176019e-10, 4.655956e-10
1238.975693, 1518793067.882000, 8.907023e-11, 1.243416e-10
1238.975693, 1518793067.883000, 4.297652e-11, -1.811383e-10
1238.975693, 1518793067.884000, -7.243996e-11, -1.207825e-10
1238.975693, 1518793067.884000, -9.840640e-11, -2.277356e-10
1238.975693, 1518793067.885000, -1.169774e-10, -4.403930e-10
1277.918577, 1518793106.868000, -4.909711e-11, -4.617733e-12
1277.918577, 1518793106.869000, -4.282772e-12, 3.549277e-11
1277.918577, 1518793106.869000, -1.066798e-10, 1.346243e-11
1277.918577, 1518793106.870000, -9.650210e-11, 4.491955e-10
1277.918577, 1518793106.871000, -1.988829e-10, 4.706429e-10
1277.918577, 1518793106.871000, -3.326026e-11, 5.263427e-10
1277.918577, 1518793106.872000, -1.243978e-11, 2.063291e-10
1277.918577, 1518793106.873000, 6.514313e-11, 3.932813e-11
1277.918577, 1518793106.873000, 2.281135e-10, -4.187865e-10
1277.918577, 1518793106.874000, 2.502382e-10, -5.519993e-10
1277.918577, 1518793106.875000, -4.909711e-11, -4.617733e-12
1277.918577, 1518793106.876000, -4.282772e-12, 3.549277e-11
1277.918577, 1518793106.877000, -1.066798e-10, 1.346243e-11
1277.918577, 1518793106.877000, -9.650210e-11, 4.491955e-10
1277.918577, 1518793106.878000, -1.988829e-10, 4.706429e-10
1277.918577, 1518793106.879000, -3.326026e-11, 5.263427e-10
1277.918577, 1518793106.879000, -1.243978e-11, 2.063291e-10
1277.918577, 1518793106.880000, 6.514313e-11, 3.932813e-11
1277.918577, 1518793106.881000, 2.281135e-10, -4.187865e-10
1277.918577, 1518793106.881000, 2.502382e-10, -5.519993e-10
