stimulation_uid,headstage_type,electrode_location,experiment_start_time,experiment_name,animal_id,block_name,sampling_frequency,stimulation_time,pulse_frequency_train,pulse_frequency_pulse,stimulation_duration,stimulation_amplitude_a,stimulation_amplitude_b,stimulation_pulse_width_train_a,stimulation_pulse_width_train_b,stimulation_pulse_width_pulse_a,stimulation_pulse_width_pulse_b,stimulation_train_TorF,stimulation_type,stimulation_channel_order
1515500139.523000,ZC16-OB1-Ch32,R_HPC,1515500111.533000,Pulsetrain_opt,EPI021,Block-5,2.441406e+04,28.650660,10.266655,97.123198,8.400000,2.200000,2.200000,0.500000,0.500000,0.002000,0.002000,1.000000,train,10
1515500178.574000,ZC16-OB1-Ch32,R_HPC,1515500111.533000,Pulsetrain_opt,EPI021,Block-5,2.441406e+04,67.719537,7.650464,52.933394,8.400000,2.200000,2.200000,0.500000,0.500000,0.002000,0.002000,1.000000,train,10
1515500217.644000,ZC16-OB1-Ch32,R_HPC,1515500111.533000,Pulsetrain_opt,EPI021,Block-5,2.441406e+04,106.784276,8.052529,61.237103,8.400000,2.200000,2.200000,0.500000,0.500000,0.002000,0.002000,1.000000,train,10
1515500256.344000,ZC16-OB1-Ch32,R_HPC,1515500111.533000,Pulsetrain_opt,EPI021,Block-5,2.441406e+04,145.478083,7.150588,41.829808,8.400000,2.200000,2.200000,0.500000,0.500000,0.002000,0.002000,1.000000,train,10
1515500295.124000,ZC16-OB1-Ch32,R_HPC,1515500111.533000,Pulsetrain_opt,EPI021,Block-5,2.441406e+04,184.248074,9.600807,66.378767,8.400000,2.200000,2.200000,0.500000,0.500000,0.002000,0.002000,1.000000,train,10
1515500333.814000,ZC16-OB1-Ch32,R_HPC,1515500111.533000,Pulsetrain_opt,EPI021,Block-5,2.441406e+04,222.949417,7.040043,36.549513,8.400000,2.200000,2.200000,0.500000,0.500000,0.002000,0.002000,1.000000,train,10
1515500372.514000,ZC16-OB1-Ch32,R_HPC,1515500111.533000,Pulsetrain_opt,EPI021,Block-5,2.441406e+04,261.663334,8.255215,57.059999,8.400000,2.200000,2.200000,0.500000,0.500000,0.002000,0.002000,1.000000,train,10
1515500411.764000,ZC16-OB1-Ch32,R_HPC,1515500111.533000,Pulsetrain_opt,EPI021,Block-5,2.441406e+04,300.885238,10.050964,79.143714,8.400000,2.200000,2.200000,0.500000,0.500000,0.002000,0.002000,1.000000,train,10
1515500450.984000,ZC16-OB1-Ch32,R_HPC,1515500111.533000,Pulsetrain_opt,EPI021,Block-5,2.441406e+04,340.117053,7.948343,92.868971,8.400000,2.200000,2.200000,0.500000,0.500000,0.002000,0.002000,1.000000,train,10
1515500490.104000,ZC16-OB1-Ch32,R_HPC,1515500111.533000,Pulsetrain_opt,EPI021,Block-5,2.441406e+04,379.239997,8.393928,63.784278,8.400000,2.200000,2.200000,0.500000,0.500000,0.002000,0.002000,1.000000,train,10
1515500528.864000,ZC16-OB1-Ch32,R_HPC,1515500111.533000,Pulsetrain_opt,EPI021,Block-5,2.441406e+04,417.997414,7.108674,41.186177,8.400000,2.200000,2.200000,0.500000,0.500000,0.002000,0.002000,1.000000,train,10
1515500569.264000,ZC16-OB1-Ch32,R_HPC,1515500111.533000,Pulsetrain_opt,EPI021,Block-5,2.441406e+04,458.401956,10.212121,78.989899,8.400000,2.200000,2.200000,0.500000,0.500000,0.002000,0.002000,1.000000,train,10
1515500608.844000,ZC16-OB1-Ch32,R_HPC,1515500111.533000,Pulsetrain_opt,EPI021,Block-5,2.441406e+04,497.972675,10.393939,78.333333,8.400000,2.200000,2.200000,0.500000,0.500000,0.002000,0.002000,1.000000,train,10
1515500647.774000,ZC16-OB1-Ch32,R_HPC,1515500111.533000,Pulsetrain_opt,EPI021,Block-5,2.441406e+04,536.910111,10.090909,80.303030,8.400000,2.200000,2.200000,0.500000,0.500000,0.002000,0.002000,1.000000,train,10
1515500686.754000,ZC16-OB1-Ch32,R_HPC,1515500111.533000,Pulsetrain_opt,EPI021,Block-5,2.441406e+04,575.893668,10.212121,78.989899,8.400000,2.200000,2.200000,0.500000,0.500000,0.002000,0.002000,1.000000,train,10
1515500726.214000,ZC16-OB1-Ch32,R_HPC,1515500111.533000,Pulsetrain_opt,EPI021,Block-5,2.441406e+04,615.349821,11.000000,74.393939,8.400000,2.200000,2.200000,0.500000,0.500000,0.002000,0.002000,1.000000,train,10
1515500765.274000,ZC16-OB1-Ch32,R_HPC,1515500111.533000,Pulsetrain_opt,EPI021,Block-5,2.441406e+04,654.412227,9.909091,80.303030,8.400000,2.200000,2.200000,0.500000,0.500000,0.002000,0.002000,1.000000,train,10
