28.495749, 1525708521.966000, -4.378614e-20
69.068636, 1525708562.026000, -1.133073e-20
108.957573, 1525708602.116000, 1.262992e-19
149.164278, 1525708642.626000, 1.113808e-20
189.213573, 1525708682.656000, -6.401597e-21
229.765079, 1525708723.196000, 4.484636e-20
270.217503, 1525708763.736000, 6.372510e-21
390.496707, 1525708883.636000, 5.683684e-21
430.466130, 1525708923.677000, -1.328055e-20
470.428508, 1525708963.759000, -2.578023e-20
510.918042, 1525709004.335000, -3.560100e-20
551.798538, 1525709045.185000, 1.084814e-20
592.350740, 1525709085.925000, -4.657090e-20
632.993014, 1525709126.345000, -5.660591e-21
673.847214, 1525709167.475000, 1.455838e-20
714.870497, 1525709208.325000, -4.690010e-20
755.437199, 1525709248.755000, 1.430073e-20
795.562271, 1525709288.815000, 2.262995e-20
835.582525, 1525709328.705000, 1.355523e-21
875.035402, 1525709368.235000, -2.555341e-20
914.827346, 1525709408.335000, 1.412728e-21
996.342415, 1525709489.815000, 5.341858e-21
1036.949299, 1525709530.185000, 5.981844e-20
1076.971725, 1525709570.195000, -8.314427e-20
1117.311017, 1525709610.755000, 4.882678e-21
1157.728461, 1525709651.256000, 3.629255e-19
1198.726758, 1525709692.246000, -6.540559e-20
1321.219154, 1525709814.676000, 1.633355e-20
1361.726259, 1525709855.206000, 4.169298e-20
1402.223944, 1525709895.766000, 2.345596e-20
