stimulation_uid,headstage_type,electrode_location,experiment_start_time,experiment_name,animal_id,block_name,sampling_frequency,stimulation_time,pulse_frequency_train,pulse_frequency_pulse,stimulation_duration,stimulation_amplitude_a,stimulation_amplitude_b,stimulation_pulse_width_train_a,stimulation_pulse_width_train_b,stimulation_pulse_width_pulse_a,stimulation_pulse_width_pulse_b,stimulation_train_TorF,stimulation_type,stimulation_channel_order
1525708509.186000,ZC16-OB1-Ch32,R_HPC,1525708481.296000,Train_50I,EPI029,Block-5,2.441406e+04,28.495749,6.210459,65.406186,8.400000,2.415000,2.415000,0.037500,0.037500,0.002000,0.002000,1.000000,train,10
1525708549.746000,ZC16-OB1-Ch32,R_HPC,1525708481.296000,Train_50I,EPI029,Block-5,2.441406e+04,69.068636,7.898419,76.626437,8.400000,2.415000,2.415000,0.037500,0.037500,0.002000,0.002000,1.000000,train,10
1525708589.626000,ZC16-OB1-Ch32,R_HPC,1525708481.296000,Train_50I,EPI029,Block-5,2.441406e+04,108.957573,7.321356,67.840387,8.400000,2.415000,2.415000,0.037500,0.037500,0.002000,0.002000,1.000000,train,10
1525708629.846000,ZC16-OB1-Ch32,R_HPC,1525708481.296000,Train_50I,EPI029,Block-5,2.441406e+04,149.164278,8.480025,86.586435,8.400000,2.415000,2.415000,0.037500,0.037500,0.002000,0.002000,1.000000,train,10
1525708669.886000,ZC16-OB1-Ch32,R_HPC,1525708481.296000,Train_50I,EPI029,Block-5,2.441406e+04,189.213573,9.204514,45.549409,8.400000,2.415000,2.415000,0.037500,0.037500,0.002000,0.002000,1.000000,train,10
1525708710.456000,ZC16-OB1-Ch32,R_HPC,1525708481.296000,Train_50I,EPI029,Block-5,2.441406e+04,229.765079,8.000050,97.695820,8.400000,2.415000,2.415000,0.037500,0.037500,0.002000,0.002000,1.000000,train,10
1525708750.896000,ZC16-OB1-Ch32,R_HPC,1525708481.296000,Train_50I,EPI029,Block-5,2.441406e+04,270.217503,7.049682,92.818804,8.400000,2.415000,2.415000,0.037500,0.037500,0.002000,0.002000,1.000000,train,10
1525708791.166000,ZC16-OB1-Ch32,R_HPC,1525708481.296000,Train_50I,EPI029,Block-5,2.441406e+04,310.470164,7.565276,71.864368,8.400000,2.415000,2.415000,0.037500,0.037500,0.002000,0.002000,1.000000,train,10
1525708831.096000,ZC16-OB1-Ch32,R_HPC,1525708481.296000,Train_50I,EPI029,Block-5,2.441406e+04,350.421238,9.659355,63.388572,8.400000,2.415000,2.415000,0.037500,0.037500,0.002000,0.002000,1.000000,train,10
1525708871.186000,ZC16-OB1-Ch32,R_HPC,1525708481.296000,Train_50I,EPI029,Block-5,2.441406e+04,390.496707,10.722453,69.814271,8.400000,2.415000,2.415000,0.037500,0.037500,0.002000,0.002000,1.000000,train,10
1525708911.156000,ZC16-OB1-Ch32,R_HPC,1525708481.296000,Train_50I,EPI029,Block-5,2.441406e+04,430.466130,5.492570,70.373530,8.400000,2.415000,2.415000,0.037500,0.037500,0.002000,0.002000,1.000000,train,10
1525708951.097000,ZC16-OB1-Ch32,R_HPC,1525708481.296000,Train_50I,EPI029,Block-5,2.441406e+04,470.428508,10.105103,58.812256,8.400000,2.415000,2.415000,0.037500,0.037500,0.002000,0.002000,1.000000,train,10
1525708991.593000,ZC16-OB1-Ch32,R_HPC,1525708481.296000,Train_50I,EPI029,Block-5,2.441406e+04,510.918042,7.545455,66.515152,8.400000,2.415000,2.415000,0.037500,0.037500,0.002000,0.002000,1.000000,train,10
1525709032.495000,ZC16-OB1-Ch32,R_HPC,1525708481.296000,Train_50I,EPI029,Block-5,2.441406e+04,551.798538,8.454545,100.000000,8.400000,2.415000,2.415000,0.037500,0.037500,0.002000,0.002000,1.000000,train,10
1525709073.035000,ZC16-OB1-Ch32,R_HPC,1525708481.296000,Train_50I,EPI029,Block-5,2.441406e+04,592.350740,7.727273,100.000000,8.400000,2.415000,2.415000,0.037500,0.037500,0.002000,0.002000,1.000000,train,10
1525709113.675000,ZC16-OB1-Ch32,R_HPC,1525708481.296000,Train_50I,EPI029,Block-5,2.441406e+04,632.993014,7.242424,69.141414,8.400000,2.415000,2.415000,0.037500,0.037500,0.002000,0.002000,1.000000,train,10
1525709154.525000,ZC16-OB1-Ch32,R_HPC,1525708481.296000,Train_50I,EPI029,Block-5,2.441406e+04,673.847214,10.212121,100.000000,8.400000,2.415000,2.415000,0.037500,0.037500,0.002000,0.002000,1.000000,train,10
1525709195.555000,ZC16-OB1-Ch32,R_HPC,1525708481.296000,Train_50I,EPI029,Block-5,2.441406e+04,714.870497,11.000000,92.777778,8.400000,2.415000,2.415000,0.037500,0.037500,0.002000,0.002000,1.000000,train,10
1525709236.135000,ZC16-OB1-Ch32,R_HPC,1525708481.296000,Train_50I,EPI029,Block-5,2.441406e+04,755.437199,7.363636,68.484848,8.400000,2.415000,2.415000,0.037500,0.037500,0.002000,0.002000,1.000000,train,10
1525709276.245000,ZC16-OB1-Ch32,R_HPC,1525708481.296000,Train_50I,EPI029,Block-5,2.441406e+04,795.562271,6.818182,35.000000,8.400000,2.415000,2.415000,0.037500,0.037500,0.002000,0.002000,1.000000,train,10
1525709316.265000,ZC16-OB1-Ch32,R_HPC,1525708481.296000,Train_50I,EPI029,Block-5,2.441406e+04,835.582525,7.363636,35.000000,8.400000,2.415000,2.415000,0.037500,0.037500,0.002000,0.002000,1.000000,train,10
1525709355.735000,ZC16-OB1-Ch32,R_HPC,1525708481.296000,Train_50I,EPI029,Block-5,2.441406e+04,875.035402,5.606061,35.000000,8.400000,2.415000,2.415000,0.037500,0.037500,0.002000,0.002000,1.000000,train,10
1525709395.515000,ZC16-OB1-Ch32,R_HPC,1525708481.296000,Train_50I,EPI029,Block-5,2.441406e+04,914.827346,7.545455,56.666667,8.400000,2.415000,2.415000,0.037500,0.037500,0.002000,0.002000,1.000000,train,10
1525709436.155000,ZC16-OB1-Ch32,R_HPC,1525708481.296000,Train_50I,EPI029,Block-5,2.441406e+04,955.465769,7.303030,69.141414,8.400000,2.415000,2.415000,0.037500,0.037500,0.002000,0.002000,1.000000,train,10
1525709477.045000,ZC16-OB1-Ch32,R_HPC,1525708481.296000,Train_50I,EPI029,Block-5,2.441406e+04,996.342415,9.121212,100.000000,8.400000,2.415000,2.415000,0.037500,0.037500,0.002000,0.002000,1.000000,train,10
1525709517.645000,ZC16-OB1-Ch32,R_HPC,1525708481.296000,Train_50I,EPI029,Block-5,2.441406e+04,1036.949299,7.303030,69.141414,8.400000,2.415000,2.415000,0.037500,0.037500,0.002000,0.002000,1.000000,train,10
1525709557.665000,ZC16-OB1-Ch32,R_HPC,1525708481.296000,Train_50I,EPI029,Block-5,2.441406e+04,1076.971725,7.242424,70.454545,8.400000,2.415000,2.415000,0.037500,0.037500,0.002000,0.002000,1.000000,train,10
1525709597.995000,ZC16-OB1-Ch32,R_HPC,1525708481.296000,Train_50I,EPI029,Block-5,2.441406e+04,1117.311017,5.000000,100.000000,8.400000,2.415000,2.415000,0.037500,0.037500,0.002000,0.002000,1.000000,train,10
1525709638.436000,ZC16-OB1-Ch32,R_HPC,1525708481.296000,Train_50I,EPI029,Block-5,2.441406e+04,1157.728461,8.878788,91.464646,8.400000,2.415000,2.415000,0.037500,0.037500,0.002000,0.002000,1.000000,train,10
1525709679.416000,ZC16-OB1-Ch32,R_HPC,1525708481.296000,Train_50I,EPI029,Block-5,2.441406e+04,1198.726758,9.000000,90.151515,8.400000,2.415000,2.415000,0.037500,0.037500,0.002000,0.002000,1.000000,train,10
1525709719.936000,ZC16-OB1-Ch32,R_HPC,1525708481.296000,Train_50I,EPI029,Block-5,2.441406e+04,1239.246889,8.878788,91.464646,8.400000,2.415000,2.415000,0.037500,0.037500,0.002000,0.002000,1.000000,train,10
1525709760.916000,ZC16-OB1-Ch32,R_HPC,1525708481.296000,Train_50I,EPI029,Block-5,2.441406e+04,1280.226550,8.878788,91.464646,8.400000,2.415000,2.415000,0.037500,0.037500,0.002000,0.002000,1.000000,train,10
1525709801.936000,ZC16-OB1-Ch32,R_HPC,1525708481.296000,Train_50I,EPI029,Block-5,2.441406e+04,1321.219154,8.878788,91.464646,8.400000,2.415000,2.415000,0.037500,0.037500,0.002000,0.002000,1.000000,train,10
1525709842.436000,ZC16-OB1-Ch32,R_HPC,1525708481.296000,Train_50I,EPI029,Block-5,2.441406e+04,1361.726259,8.878788,91.464646,8.400000,2.415000,2.415000,0.037500,0.037500,0.002000,0.002000,1.000000,train,10
1525709882.926000,ZC16-OB1-Ch32,R_HPC,1525708481.296000,Train_50I,EPI029,Block-5,2.441406e+04,1402.223944,8.878788,91.464646,8.400000,2.415000,2.415000,0.037500,0.037500,0.002000,0.002000,1.000000,train,10
