28.386673, 1511196891.571000, 2.717000e-19
68.645765, 1511196931.111000, 8.396962e-19
107.843502, 1511196970.201000, 3.274990e-18
147.146629, 1511197009.731000, 4.103560e-19
186.270761, 1511197048.751000, 3.368211e-18
225.146184, 1511197087.751000, 8.184230e-19
264.335237, 1511197126.751000, 1.387718e-20
303.232532, 1511197165.771000, 5.441394e-19
342.117089, 1511197204.781000, 8.145961e-19
381.077258, 1511197243.791000, 1.528624e-18
421.807759, 1511197284.311000, 5.758036e-19
461.457695, 1511197323.851000, 6.167268e-19
500.724613, 1511197363.291000, 1.561749e-18
539.750400, 1511197402.331000, 2.925789e-18
579.261030, 1511197441.812000, 1.668402e-18
