28.056494, 1518861257.979000, , 
28.056494, 1518861257.979000, , 
28.056494, 1518861257.979000, , 
28.056494, 1518861257.979000, , 
28.056494, 1518861257.979000, , 
28.056494, 1518861257.979000, , 
28.056494, 1518861257.979000, , 
28.056494, 1518861257.979000, , 
28.056494, 1518861257.989000, , 
28.056494, 1518861257.989000, , 
28.056494, 1518861257.989000, , 
28.056494, 1518861257.989000, , 
28.056494, 1518861257.989000, , 
28.056494, 1518861257.989000, , 
28.056494, 1518861257.989000, , 
28.056494, 1518861257.989000, , 
28.056494, 1518861257.989000, , 
28.056494, 1518861257.989000, , 
28.056494, 1518861257.989000, , 
28.056494, 1518861257.989000, , 
67.119882, 1518861296.879000, , 
67.119882, 1518861296.879000, , 
67.119882, 1518861296.879000, , 
67.119882, 1518861296.879000, , 
67.119882, 1518861296.879000, , 
67.119882, 1518861296.879000, , 
67.119882, 1518861296.879000, , 
67.119882, 1518861296.879000, , 
67.119882, 1518861296.889000, , 
67.119882, 1518861296.889000, , 
67.119882, 1518861296.889000, , 
67.119882, 1518861296.889000, , 
67.119882, 1518861296.889000, , 
67.119882, 1518861296.889000, , 
67.119882, 1518861296.889000, , 
67.119882, 1518861296.889000, , 
67.119882, 1518861296.889000, , 
67.119882, 1518861296.889000, , 
67.119882, 1518861296.889000, , 
67.119882, 1518861296.889000, , 
105.669837, 1518861335.470000, , 
105.669837, 1518861335.470000, , 
105.669837, 1518861335.470000, , 
105.669837, 1518861335.470000, , 
105.669837, 1518861335.470000, , 
105.669837, 1518861335.470000, , 
105.669837, 1518861335.470000, , 
105.669837, 1518861335.470000, , 
105.669837, 1518861335.470000, , 
105.669837, 1518861335.470000, , 
105.669837, 1518861335.470000, , 
105.669837, 1518861335.480000, , 
105.669837, 1518861335.480000, , 
105.669837, 1518861335.480000, , 
105.669837, 1518861335.480000, , 
105.669837, 1518861335.480000, , 
105.669837, 1518861335.480000, , 
105.669837, 1518861335.480000, , 
105.669837, 1518861335.480000, , 
105.669837, 1518861335.480000, , 
144.077005, 1518861373.990000, , 
144.077005, 1518861373.990000, , 
144.077005, 1518861373.990000, , 
144.077005, 1518861373.990000, , 
144.077005, 1518861373.990000, , 
144.077005, 1518861373.990000, , 
144.077005, 1518861373.990000, , 
144.077005, 1518861373.990000, , 
144.077005, 1518861373.990000, , 
144.077005, 1518861373.990000, , 
144.077005, 1518861373.990000, , 
144.077005, 1518861373.990000, , 
144.077005, 1518861373.990000, , 
144.077005, 1518861373.990000, , 
144.077005, 1518861374.000000, , 
144.077005, 1518861374.000000, , 
144.077005, 1518861374.000000, , 
144.077005, 1518861374.000000, , 
144.077005, 1518861374.000000, , 
144.077005, 1518861374.000000, , 
183.421747, 1518861412.970000, , 
183.421747, 1518861412.970000, , 
183.421747, 1518861412.970000, , 
183.421747, 1518861412.970000, , 
183.421747, 1518861412.970000, , 
183.421747, 1518861412.970000, , 
183.421747, 1518861412.970000, , 
183.421747, 1518861412.970000, , 
183.421747, 1518861412.970000, , 
183.421747, 1518861412.970000, , 
183.421747, 1518861412.970000, , 
183.421747, 1518861412.980000, , 
183.421747, 1518861412.980000, , 
183.421747, 1518861412.980000, , 
183.421747, 1518861412.980000, , 
183.421747, 1518861412.980000, , 
183.421747, 1518861412.980000, , 
183.421747, 1518861412.980000, , 
183.421747, 1518861412.980000, , 
183.421747, 1518861412.980000, , 
221.979320, 1518861451.490000, , 
221.979320, 1518861451.490000, , 
221.979320, 1518861451.490000, , 
221.979320, 1518861451.490000, , 
221.979320, 1518861451.490000, , 
221.979320, 1518861451.490000, , 
221.979320, 1518861451.490000, , 
221.979320, 1518861451.500000, , 
221.979320, 1518861451.500000, , 
221.979320, 1518861451.500000, , 
260.443382, 1518861490.010000, , 
260.443382, 1518861490.010000, , 
260.443382, 1518861490.010000, , 
260.443382, 1518861490.010000, , 
260.443382, 1518861490.010000, , 
260.443382, 1518861490.010000, , 
260.443382, 1518861490.010000, , 
260.443382, 1518861490.010000, , 
260.443382, 1518861490.010000, , 
260.443382, 1518861490.020000, , 
260.443382, 1518861490.020000, , 
260.443382, 1518861490.020000, , 
260.443382, 1518861490.020000, , 
260.443382, 1518861490.020000, , 
260.443382, 1518861490.020000, , 
260.443382, 1518861490.020000, , 
260.443382, 1518861490.020000, , 
260.443382, 1518861490.020000, , 
260.443382, 1518861490.020000, , 
260.443382, 1518861490.020000, , 
299.421327, 1518861529.030000, , 
299.421327, 1518861529.030000, , 
299.421327, 1518861529.030000, , 
299.421327, 1518861529.030000, , 
299.421327, 1518861529.030000, , 
299.421327, 1518861529.030000, , 
299.421327, 1518861529.030000, , 
299.421327, 1518861529.030000, , 
299.421327, 1518861529.030000, , 
299.421327, 1518861529.030000, , 
299.421327, 1518861529.030000, , 
299.421327, 1518861529.040000, , 
299.421327, 1518861529.040000, , 
299.421327, 1518861529.040000, , 
299.421327, 1518861529.040000, , 
299.421327, 1518861529.040000, , 
299.421327, 1518861529.040000, , 
299.421327, 1518861529.040000, , 
299.421327, 1518861529.040000, , 
299.421327, 1518861529.040000, , 
338.450596, 1518861567.980000, , 
338.450596, 1518861567.980000, , 
338.450596, 1518861567.980000, , 
338.450596, 1518861567.980000, , 
338.450596, 1518861567.980000, , 
338.450596, 1518861567.980000, , 
338.450596, 1518861567.980000, , 
338.450596, 1518861567.990000, , 
338.450596, 1518861567.990000, , 
338.450596, 1518861567.990000, , 
338.450596, 1518861567.990000, , 
338.450596, 1518861567.990000, , 
338.450596, 1518861567.990000, , 
338.450596, 1518861567.990000, , 
338.450596, 1518861567.990000, , 
338.450596, 1518861567.990000, , 
338.450596, 1518861567.990000, , 
338.450596, 1518861567.990000, , 
338.450596, 1518861567.990000, , 
338.450596, 1518861567.990000, , 
376.835932, 1518861606.570000, , 
376.835932, 1518861606.570000, , 
376.835932, 1518861606.570000, , 
376.835932, 1518861606.570000, , 
376.835932, 1518861606.570000, , 
376.835932, 1518861606.570000, , 
376.835932, 1518861606.570000, , 
376.835932, 1518861606.580000, , 
376.835932, 1518861606.580000, , 
376.835932, 1518861606.580000, , 
376.835932, 1518861606.580000, , 
376.835932, 1518861606.580000, , 
376.835932, 1518861606.580000, , 
376.835932, 1518861606.580000, , 
376.835932, 1518861606.580000, , 
376.835932, 1518861606.580000, , 
376.835932, 1518861606.580000, , 
376.835932, 1518861606.580000, , 
376.835932, 1518861606.580000, , 
376.835932, 1518861606.580000, , 
416.137093, 1518861646.000000, , 
416.137093, 1518861646.000000, , 
416.137093, 1518861646.000000, , 
416.137093, 1518861646.000000, , 
416.137093, 1518861646.010000, , 
416.137093, 1518861646.010000, , 
416.137093, 1518861646.010000, , 
416.137093, 1518861646.010000, , 
416.137093, 1518861646.010000, , 
416.137093, 1518861646.010000, , 
416.137093, 1518861646.010000, , 
416.137093, 1518861646.010000, , 
416.137093, 1518861646.010000, , 
416.137093, 1518861646.010000, , 
416.137093, 1518861646.010000, , 
416.137093, 1518861646.010000, , 
416.137093, 1518861646.010000, , 
416.137093, 1518861646.010000, , 
416.137093, 1518861646.020000, , 
416.137093, 1518861646.020000, , 
455.566049, 1518861685.480000, , 
455.566049, 1518861685.480000, , 
455.566049, 1518861685.480000, , 
455.566049, 1518861685.480000, , 
455.566049, 1518861685.480000, , 
455.566049, 1518861685.480000, , 
455.566049, 1518861685.480000, , 
455.566049, 1518861685.480000, , 
455.566049, 1518861685.480000, , 
455.566049, 1518861685.480000, , 
455.566049, 1518861685.480000, , 
455.566049, 1518861685.490000, , 
455.566049, 1518861685.490000, , 
455.566049, 1518861685.490000, , 
455.566049, 1518861685.490000, , 
455.566049, 1518861685.490000, , 
455.566049, 1518861685.490000, , 
455.566049, 1518861685.490000, , 
455.566049, 1518861685.490000, , 
455.566049, 1518861685.490000, , 
494.428078, 1518861723.980000, , 
494.428078, 1518861723.980000, , 
494.428078, 1518861723.980000, , 
494.428078, 1518861723.980000, , 
494.428078, 1518861723.980000, , 
494.428078, 1518861723.980000, , 
494.428078, 1518861723.980000, , 
494.428078, 1518861723.980000, , 
494.428078, 1518861723.990000, , 
494.428078, 1518861723.990000, , 
494.428078, 1518861723.990000, , 
494.428078, 1518861723.990000, , 
494.428078, 1518861723.990000, , 
494.428078, 1518861723.990000, , 
494.428078, 1518861723.990000, , 
494.428078, 1518861723.990000, , 
494.428078, 1518861723.990000, , 
494.428078, 1518861723.990000, , 
494.428078, 1518861723.990000, , 
494.428078, 1518861723.990000, , 
533.576827, 1518861763.530000, , 
533.576827, 1518861763.530000, , 
533.576827, 1518861763.530000, , 
533.576827, 1518861763.530000, , 
533.576827, 1518861763.540000, , 
533.576827, 1518861763.540000, , 
533.576827, 1518861763.540000, , 
533.576827, 1518861763.540000, , 
533.576827, 1518861763.540000, , 
533.576827, 1518861763.540000, , 
533.576827, 1518861763.540000, , 
533.576827, 1518861763.540000, , 
533.576827, 1518861763.550000, , 
533.576827, 1518861763.550000, , 
533.576827, 1518861763.550000, , 
533.576827, 1518861763.550000, , 
533.576827, 1518861763.550000, , 
533.576827, 1518861763.550000, , 
533.576827, 1518861763.550000, , 
533.576827, 1518861763.550000, , 
572.514632, 1518861801.990000, , 
572.514632, 1518861801.990000, , 
572.514632, 1518861802.000000, , 
572.514632, 1518861802.000000, , 
572.514632, 1518861802.000000, , 
572.514632, 1518861802.000000, , 
572.514632, 1518861802.000000, , 
572.514632, 1518861802.000000, , 
572.514632, 1518861802.000000, , 
572.514632, 1518861802.000000, , 
572.514632, 1518861802.000000, , 
572.514632, 1518861802.000000, , 
572.514632, 1518861802.000000, , 
572.514632, 1518861802.000000, , 
572.514632, 1518861802.000000, , 
572.514632, 1518861802.000000, , 
572.514632, 1518861802.000000, , 
572.514632, 1518861802.010000, , 
572.514632, 1518861802.010000, , 
572.514632, 1518861802.010000, , 
611.513754, 1518861841.000000, , 
611.513754, 1518861841.000000, , 
611.513754, 1518861841.000000, , 
611.513754, 1518861841.010000, , 
611.513754, 1518861841.010000, , 
611.513754, 1518861841.010000, , 
611.513754, 1518861841.010000, , 
611.513754, 1518861841.010000, , 
611.513754, 1518861841.010000, , 
611.513754, 1518861841.010000, , 
611.513754, 1518861841.010000, , 
611.513754, 1518861841.010000, , 
611.513754, 1518861841.010000, , 
611.513754, 1518861841.010000, , 
611.513754, 1518861841.010000, , 
611.513754, 1518861841.010000, , 
611.513754, 1518861841.010000, , 
611.513754, 1518861841.010000, , 
611.513754, 1518861841.020000, , 
611.513754, 1518861841.020000, , 
651.047690, 1518861881.000000, , 
651.047690, 1518861881.010000, , 
651.047690, 1518861881.010000, , 
651.047690, 1518861881.010000, , 
651.047690, 1518861881.010000, , 
651.047690, 1518861881.010000, , 
651.047690, 1518861881.010000, , 
651.047690, 1518861881.010000, , 
651.047690, 1518861881.010000, , 
651.047690, 1518861881.010000, , 
651.047690, 1518861881.010000, , 
651.047690, 1518861881.010000, , 
651.047690, 1518861881.010000, , 
651.047690, 1518861881.010000, , 
651.047690, 1518861881.010000, , 
651.047690, 1518861881.020000, , 
651.047690, 1518861881.020000, , 
651.047690, 1518861881.020000, , 
651.047690, 1518861881.020000, , 
651.047690, 1518861881.020000, , 
690.431918, 1518861920.020000, , 
690.431918, 1518861920.020000, , 
690.431918, 1518861920.020000, , 
690.431918, 1518861920.020000, , 
690.431918, 1518861920.020000, , 
690.431918, 1518861920.020000, , 
690.431918, 1518861920.030000, , 
690.431918, 1518861920.030000, , 
690.431918, 1518861920.030000, , 
690.431918, 1518861920.030000, , 
690.431918, 1518861920.030000, , 
690.431918, 1518861920.030000, , 
690.431918, 1518861920.030000, , 
690.431918, 1518861920.030000, , 
690.431918, 1518861920.030000, , 
690.431918, 1518861920.030000, , 
690.431918, 1518861920.030000, , 
690.431918, 1518861920.030000, , 
690.431918, 1518861920.030000, , 
690.431918, 1518861920.030000, , 
729.527583, 1518861959.130000, , 
729.527583, 1518861959.130000, , 
729.527583, 1518861959.130000, , 
729.527583, 1518861959.130000, , 
729.527583, 1518861959.130000, , 
729.527583, 1518861959.130000, , 
729.527583, 1518861959.130000, , 
729.527583, 1518861959.130000, , 
729.527583, 1518861959.130000, , 
729.527583, 1518861959.130000, , 
729.527583, 1518861959.130000, , 
729.527583, 1518861959.130000, , 
729.527583, 1518861959.130000, , 
729.527583, 1518861959.140000, , 
729.527583, 1518861959.140000, , 
729.527583, 1518861959.140000, , 
729.527583, 1518861959.140000, , 
729.527583, 1518861959.140000, , 
729.527583, 1518861959.140000, , 
729.527583, 1518861959.140000, , 
768.419758, 1518861998.000000, , 
768.419758, 1518861998.000000, , 
768.419758, 1518861998.000000, , 
768.419758, 1518861998.000000, , 
768.419758, 1518861998.000000, , 
768.419758, 1518861998.000000, , 
768.419758, 1518861998.000000, , 
768.419758, 1518861998.000000, , 
768.419758, 1518861998.000000, , 
768.419758, 1518861998.000000, , 
768.419758, 1518861998.000000, , 
768.419758, 1518861998.000000, , 
768.419758, 1518861998.000000, , 
768.419758, 1518861998.010000, , 
768.419758, 1518861998.010000, , 
768.419758, 1518861998.010000, , 
768.419758, 1518861998.010000, , 
768.419758, 1518861998.010000, , 
768.419758, 1518861998.010000, , 
768.419758, 1518861998.010000, , 
807.060767, 1518862036.980000, , 
807.060767, 1518862036.980000, , 
807.060767, 1518862036.980000, , 
807.060767, 1518862036.980000, , 
807.060767, 1518862036.980000, , 
807.060767, 1518862036.990000, , 
807.060767, 1518862036.990000, , 
807.060767, 1518862036.990000, , 
807.060767, 1518862036.990000, , 
807.060767, 1518862036.990000, , 
807.060767, 1518862036.990000, , 
807.060767, 1518862036.990000, , 
807.060767, 1518862036.990000, , 
807.060767, 1518862036.990000, , 
807.060767, 1518862036.990000, , 
807.060767, 1518862036.990000, , 
807.060767, 1518862036.990000, , 
807.060767, 1518862036.990000, , 
807.060767, 1518862036.990000, , 
807.060767, 1518862036.990000, , 
845.938565, 1518862075.521000, , 
845.938565, 1518862075.521000, , 
845.938565, 1518862075.521000, , 
845.938565, 1518862075.521000, , 
845.938565, 1518862075.521000, , 
845.938565, 1518862075.521000, , 
845.938565, 1518862075.521000, , 
845.938565, 1518862075.521000, , 
845.938565, 1518862075.521000, , 
845.938565, 1518862075.521000, , 
845.938565, 1518862075.521000, , 
845.938565, 1518862075.531000, , 
845.938565, 1518862075.531000, , 
845.938565, 1518862075.531000, , 
845.938565, 1518862075.531000, , 
845.938565, 1518862075.531000, , 
845.938565, 1518862075.531000, , 
845.938565, 1518862075.531000, , 
845.938565, 1518862075.531000, , 
845.938565, 1518862075.531000, , 
885.326725, 1518862114.961000, , 
885.326725, 1518862114.961000, , 
885.326725, 1518862114.961000, , 
885.326725, 1518862114.961000, , 
885.326725, 1518862114.961000, , 
885.326725, 1518862114.961000, , 
885.326725, 1518862114.961000, , 
885.326725, 1518862114.961000, , 
885.326725, 1518862114.961000, , 
885.326725, 1518862114.961000, , 
885.326725, 1518862114.961000, , 
885.326725, 1518862114.971000, , 
885.326725, 1518862114.971000, , 
885.326725, 1518862114.971000, , 
885.326725, 1518862114.971000, , 
885.326725, 1518862114.971000, , 
885.326725, 1518862114.971000, , 
885.326725, 1518862114.971000, , 
885.326725, 1518862114.971000, , 
885.326725, 1518862114.971000, , 
924.344156, 1518862153.981000, , 
924.344156, 1518862153.981000, , 
924.344156, 1518862153.981000, , 
924.344156, 1518862153.981000, , 
924.344156, 1518862153.981000, , 
924.344156, 1518862153.991000, , 
924.344156, 1518862153.991000, , 
924.344156, 1518862153.991000, , 
924.344156, 1518862153.991000, , 
924.344156, 1518862153.991000, , 
924.344156, 1518862153.991000, , 
924.344156, 1518862153.991000, , 
924.344156, 1518862153.991000, , 
924.344156, 1518862153.991000, , 
924.344156, 1518862153.991000, , 
924.344156, 1518862153.991000, , 
924.344156, 1518862153.991000, , 
924.344156, 1518862153.991000, , 
924.344156, 1518862154.001000, , 
924.344156, 1518862154.001000, , 
962.918113, 1518862192.431000, , 
962.918113, 1518862192.431000, , 
962.918113, 1518862192.431000, , 
962.918113, 1518862192.431000, , 
962.918113, 1518862192.431000, , 
962.918113, 1518862192.431000, , 
962.918113, 1518862192.441000, , 
962.918113, 1518862192.441000, , 
962.918113, 1518862192.441000, , 
962.918113, 1518862192.441000, , 
962.918113, 1518862192.441000, , 
962.918113, 1518862192.441000, , 
962.918113, 1518862192.441000, , 
962.918113, 1518862192.441000, , 
962.918113, 1518862192.441000, , 
962.918113, 1518862192.441000, , 
962.918113, 1518862192.441000, , 
962.918113, 1518862192.441000, , 
962.918113, 1518862192.441000, , 
962.918113, 1518862192.441000, , 
