stimulation_uid,headstage_type,electrode_location,experiment_start_time,experiment_name,animal_id,block_name,sampling_frequency,stimulation_time,pulse_frequency_train,pulse_frequency_pulse,stimulation_duration,stimulation_amplitude_a,stimulation_amplitude_b,stimulation_pulse_width_train_a,stimulation_pulse_width_train_b,stimulation_pulse_width_pulse_a,stimulation_pulse_width_pulse_b,stimulation_train_TorF,stimulation_type,stimulation_channel_order
1518861246.059000,ZC16-OB1-Ch32,R_HPC,1518861218.639000,Standard_opt,EPI022,Block-4,2.441406e+04,28.056494,,42.660772,8.400000,2.500000,2.500000,0.037500,0.037500,0.001728,0.001728,1.000000,standard,10
1518861285.109000,ZC16-OB1-Ch32,R_HPC,1518861218.639000,Standard_opt,EPI022,Block-4,2.441406e+04,67.119882,,55.995835,8.400000,2.500000,2.500000,0.037500,0.037500,0.003905,0.003905,1.000000,standard,10
1518861323.659000,ZC16-OB1-Ch32,R_HPC,1518861218.639000,Standard_opt,EPI022,Block-4,2.441406e+04,105.669837,,13.052069,8.400000,2.500000,2.500000,0.037500,0.037500,0.001596,0.001596,1.000000,standard,10
1518861362.070000,ZC16-OB1-Ch32,R_HPC,1518861218.639000,Standard_opt,EPI022,Block-4,2.441406e+04,144.077005,,6.096176,8.400000,2.500000,2.500000,0.037500,0.037500,0.003084,0.003084,1.000000,standard,10
1518861401.410000,ZC16-OB1-Ch32,R_HPC,1518861218.639000,Standard_opt,EPI022,Block-4,2.441406e+04,183.421747,,39.616162,8.400000,2.500000,2.500000,0.037500,0.037500,0.001172,0.001172,1.000000,standard,10
1518861439.970000,ZC16-OB1-Ch32,R_HPC,1518861218.639000,Standard_opt,EPI022,Block-4,2.441406e+04,221.979320,,41.595960,8.400000,2.500000,2.500000,0.037500,0.037500,0.000924,0.000924,1.000000,standard,10
1518861478.460000,ZC16-OB1-Ch32,R_HPC,1518861218.639000,Standard_opt,EPI022,Block-4,2.441406e+04,260.443382,,41.595960,8.400000,2.500000,2.500000,0.037500,0.037500,0.000924,0.000924,1.000000,standard,10
1518861517.440000,ZC16-OB1-Ch32,R_HPC,1518861218.639000,Standard_opt,EPI022,Block-4,2.441406e+04,299.421327,,39.616162,8.400000,2.500000,2.500000,0.037500,0.037500,0.001101,0.001101,1.000000,standard,10
1518861556.450000,ZC16-OB1-Ch32,R_HPC,1518861218.639000,Standard_opt,EPI022,Block-4,2.441406e+04,338.450596,,40.606061,8.400000,2.500000,2.500000,0.037500,0.037500,0.001172,0.001172,1.000000,standard,10
1518861594.840000,ZC16-OB1-Ch32,R_HPC,1518861218.639000,Standard_opt,EPI022,Block-4,2.441406e+04,376.835932,,30.707071,8.400000,2.500000,2.500000,0.037500,0.037500,0.000500,0.000500,1.000000,standard,10
1518861634.130000,ZC16-OB1-Ch32,R_HPC,1518861218.639000,Standard_opt,EPI022,Block-4,2.441406e+04,416.137093,,57.434343,8.400000,2.500000,2.500000,0.037500,0.037500,0.000500,0.000500,1.000000,standard,10
1518861673.560000,ZC16-OB1-Ch32,R_HPC,1518861218.639000,Standard_opt,EPI022,Block-4,2.441406e+04,455.566049,,100.000000,8.400000,2.500000,2.500000,0.037500,0.037500,0.004000,0.004000,1.000000,standard,10
1518861712.420000,ZC16-OB1-Ch32,R_HPC,1518861218.639000,Standard_opt,EPI022,Block-4,2.441406e+04,494.428078,,39.616162,8.400000,2.500000,2.500000,0.037500,0.037500,0.001207,0.001207,1.000000,standard,10
1518861751.580000,ZC16-OB1-Ch32,R_HPC,1518861218.639000,Standard_opt,EPI022,Block-4,2.441406e+04,533.576827,,100.000000,8.400000,2.500000,2.500000,0.037500,0.037500,0.000500,0.000500,1.000000,standard,10
1518861790.530000,ZC16-OB1-Ch32,R_HPC,1518861218.639000,Standard_opt,EPI022,Block-4,2.441406e+04,572.514632,,2.000000,8.400000,2.500000,2.500000,0.037500,0.037500,0.000500,0.000500,1.000000,standard,10
1518861829.530000,ZC16-OB1-Ch32,R_HPC,1518861218.639000,Standard_opt,EPI022,Block-4,2.441406e+04,611.513754,,40.606061,8.400000,2.500000,2.500000,0.037500,0.037500,0.001172,0.001172,1.000000,standard,10
1518861869.070000,ZC16-OB1-Ch32,R_HPC,1518861218.639000,Standard_opt,EPI022,Block-4,2.441406e+04,651.047690,,100.000000,8.400000,2.500000,2.500000,0.037500,0.037500,0.002409,0.002409,1.000000,standard,10
1518861908.430000,ZC16-OB1-Ch32,R_HPC,1518861218.639000,Standard_opt,EPI022,Block-4,2.441406e+04,690.431918,,39.616162,8.400000,2.500000,2.500000,0.037500,0.037500,0.001172,0.001172,1.000000,standard,10
1518861947.530000,ZC16-OB1-Ch32,R_HPC,1518861218.639000,Standard_opt,EPI022,Block-4,2.441406e+04,729.527583,,49.515152,8.400000,2.500000,2.500000,0.037500,0.037500,0.001242,0.001242,1.000000,standard,10
1518861986.430000,ZC16-OB1-Ch32,R_HPC,1518861218.639000,Standard_opt,EPI022,Block-4,2.441406e+04,768.419758,,33.676768,8.400000,2.500000,2.500000,0.037500,0.037500,0.001136,0.001136,1.000000,standard,10
1518862025.060000,ZC16-OB1-Ch32,R_HPC,1518861218.639000,Standard_opt,EPI022,Block-4,2.441406e+04,807.060767,,2.000000,8.400000,2.500000,2.500000,0.037500,0.037500,0.004000,0.004000,1.000000,standard,10
1518862063.941000,ZC16-OB1-Ch32,R_HPC,1518861218.639000,Standard_opt,EPI022,Block-4,2.441406e+04,845.938565,,39.616162,8.400000,2.500000,2.500000,0.037500,0.037500,0.001172,0.001172,1.000000,standard,10
1518862103.331000,ZC16-OB1-Ch32,R_HPC,1518861218.639000,Standard_opt,EPI022,Block-4,2.441406e+04,885.326725,,77.232323,8.400000,2.500000,2.500000,0.037500,0.037500,0.004000,0.004000,1.000000,standard,10
1518862142.351000,ZC16-OB1-Ch32,R_HPC,1518861218.639000,Standard_opt,EPI022,Block-4,2.441406e+04,924.344156,,78.222222,8.400000,2.500000,2.500000,0.037500,0.037500,0.000500,0.000500,1.000000,standard,10
1518862180.931000,ZC16-OB1-Ch32,R_HPC,1518861218.639000,Standard_opt,EPI022,Block-4,2.441406e+04,962.918113,,38.626263,8.400000,2.500000,2.500000,0.037500,0.037500,0.001172,0.001172,1.000000,standard,10
